﻿<?xml version="1.0" encoding="UTF-8"?>
<!DOCTYPE svg PUBLIC "-//W3C//DTD SVG 1.0//EN" "http://www.w3.org/TR/2001/REC-SVG-20010904/DTD/svg10.dtd"[
	<!ENTITY ns_flows "http://ns.adobe.com/Flows/1.0/">
	<!ENTITY ns_svg "http://www.w3.org/2000/svg">
	<!ENTITY ns_xlink "http://www.w3.org/1999/xlink">
	<!ENTITY st0 "font-size:7px;font-family:'MS-PGothic';adobe-font-script:japanese;">
	<!ENTITY st1 "font-size:6px;font-family:'ArialMT';">
	<!-- White fill  -->
	<!ENTITY st2 "fill:#FFFFFF;stroke:#000000; stroke-width:1.41;stroke-linecap:round;stroke-linejoin:round;">
	<!-- Yellow fill  -->
	<!ENTITY st3 "fill:#FFFFCC;stroke:#FFFFCC; stroke-width:0.1;stroke-linecap:round;stroke-linejoin:round;">
	<!-- Gray fill  -->
	<!ENTITY st4 "fill:#CCCCCC;stroke:#CCCCCC; stroke-width:0.1;stroke-linecap:round;stroke-linejoin:round;">
	<!-- Light-blue fill -->
	<!ENTITY st5 "fill:#CCECF4;stroke:#000000; stroke-width:1.133;stroke-linecap:round;stroke-linejoin:round;">
	<!ENTITY st6 "fill:none;stroke-linecap:butt; stroke-linejoin:round;">
	<!ENTITY st7 "fill:none;stroke:#000000;stroke-linecap:round;stroke-linejoin:round;">
	<!ENTITY st8 "enable-background:new    ;">
	<!-- Black fill -->
	<!ENTITY st9 "fill:#000000;stroke:#000000; stroke-linecap:round;stroke-linejoin:round;">
	<!-- SRS note   -->
	<!ENTITY st10 "font-size:9px;font-family:'ArialMT';">
	<!ENTITY st11 "font-size:9px;font-family:'Svg Symbol';">
	<!ENTITY st12 "font-size:6px;font-family:'Svg Symbol';">
	<!ENTITY st13 "fill:none;stroke:#ff0000;stroke-linecap:round;stroke-linejoin:round;">
	<!-- Yellow fill  -->
	<!ENTITY st14 "fill:#FFFF00;stroke:#FFFF00; stroke-width:0.1;stroke-linecap:round;stroke-linejoin:round;">
	<!ENTITY st15 "font-size:6px;font-family:'MS-PGothic';adobe-font-script:japanese;">
	<!ENTITY st16 "1.00 0.00 0.00 1.00">
	<!ENTITY st17 "0.00 -1.00 1.00 0.00">
	<!ENTITY st18 "font-size:6px;font-family:'Arial';">
	<!ENTITY st19 "font-size:9px;font-family:'Arial';">
	<!ENTITY st20 "font-size:6px;font-family:'MS-PGothic','MS PGothic';adobe-font-script:japanese;">
	<!ENTITY st21 "font-size:7px;font-family:'MS-PGothic','MS PGothic';adobe-font-script:japanese;">
	<!ATTLIST svg
		xmlns:ewd CDATA #FIXED "http://shcl.co.jp/ewd"
		xmlns:a CDATA #FIXED "http://ns.adobe.com/AdobeSVGViewerExtensions/3.0/"
		ewd:ver CDATA #IMPLIED
	>
	<!ATTLIST a
		ewd:lineID CDATA #IMPLIED
		ewd:groupID CDATA #IMPLIED
		ewd:figtype CDATA #IMPLIED
		ewd:code CDATA #IMPLIED
		ewd:figID CDATA #IMPLIED
		ewd:pinNo CDATA #IMPLIED
		ewd:comment CDATA #IMPLIED >
	<!ATTLIST g
		ewd:lineID CDATA #IMPLIED
		ewd:groupID CDATA #IMPLIED
		ewd:figtype CDATA #IMPLIED
		ewd:code CDATA #IMPLIED
		ewd:figID CDATA #IMPLIED
		ewd:pinNo CDATA #IMPLIED
		ewd:comment CDATA #IMPLIED >
	<!ATTLIST text
		ewd:textID CDATA #IMPLIED >
	<!ATTLIST title
		ewd:textID CDATA #IMPLIED >
]>
<!-- Generator: Shintec Hozumi YS   -->
<svg onload="call_execInitLoadProc_svg('system')" style="overflow:visible;  enable-background:new 0 0 867.380 710.000" viewBox="0 0 867.380 710.000" height="710.000" width="867.380" xml:space="preserve" ewd:ver="L2.1.2.8" xmlns="&ns_svg;" xmlns:a="http://ns.adobe.com/AdobeSVGViewerExtensions/3.0/" xmlns:ewd="http://shcl.co.jp/ewd" xmlns:xlink="&ns_xlink;">
	<script type="text/javascript" xlink:href="../../../../../system/js/ewd/fig/svgfig.js"/>
	<defs>
		<font horiz-adv-x="1229">
			<font-face font-family="Svg Symbol" units-per-em="2048" panose-1="5 5 1 2 1 7 6 2 5 7" ascent="2059" descent="450" alphabetic="0"/>
			<missing-glyph d="M 103,0 l 0,1280 1024,0 0,-1280 -1024,0 z m 32,32 l 960,0 0,1216 -960,0 0,-1216 z"/>
			<glyph unicode="&#xF057;" horiz-adv-x="1573" d="M 1517,0 l -567,0 24,279 q 141,59 207.5,168 66.5,109 66.5,306    0,272 -132.5,417.5 -132.5,145.5 -333.5,145.5 -194,0 -328,-147.5 -134,-147.5 -134,-401.5 0,-200 68.5,-319 68.5,-119     206.5,-169 l 25,-279 -564,0 0,279 35,0 q 3,-61 32,-83 45,-35 137,-35 l 270,0 0,70 q -210,61 -324.5,209 -114.5,148     -114.5,349 0,252 186.5,425 186.5,173 504.5,173 195,0 358.5,-73.5 163.5,-73.5 252,-214.5 88.5,-141 88.5,-310 0,-207     -121.5,-360.5 -121.5,-153.5 -317.5,-197.5 l -8,-70 275,0 q 92,0 128,28 36,28 42,90 l 38,0 0,-279 z"/>
		</font>
	</defs>
<g id="ewd_top">
	<a ewd:code="z4" ewd:figID="1" ewd:figtype="conn" style="cursor:pointer;">
		<path d=" M  186.97,  418.22  L  186.97,  554.19  L  356.94,  554.19  L  356.94,  418.22  L  186.97,  418.22 " style="&st5;"/>
		<title ewd:textID="12">Windshield Wiper Motor Assembly</title>
	</a>
	<a ewd:code="F63" ewd:figID="2" ewd:figtype="conn" style="cursor:pointer;">
		<path d=" M  722.38,  656.18  L  722.38,  673.17  L  739.38,  673.17  L  739.38,  656.18  L  722.38,  656.18 " style="&st5;"/>
		<title ewd:textID="6">Junction Connector</title>
	</a>
	<a ewd:code="A27" ewd:figID="3" ewd:figtype="conn" style="cursor:pointer;">
		<path d=" M  790.37,  180.26  L  841.36,  180.26  L  841.36,  248.24  L  790.37,  248.24  L  790.37,  180.26 " style="&st5;"/>
		<title ewd:textID="1">Front Washer Jar &amp; Pump Assembly</title>
	</a>
	<a ewd:code="F55-A,F56-B" ewd:figID="4" ewd:figtype="conn" style="cursor:pointer;">
		<path d=" M  611.90,  469.21  L  611.90,  494.70  L  662.89,  494.70  L  662.89,  469.21  L  611.90,  469.21 " style="&st5;"/>
		<title ewd:textID="6">Junction Connector</title>
	</a>
	<a ewd:code="F20,F21" ewd:figID="5" ewd:figtype="conn" style="cursor:pointer;">
		<path d=" M  152.97,   52.78  L  152.97,  248.24  L  730.88,  248.24  L  730.88,   52.78  L  152.97,   52.78 " style="&st5;"/>
		<title ewd:textID="13">Windshield Wiper Switch Assembly</title>
	</a>
	<a ewd:code="2" ewd:figID="6" ewd:figtype="jb" style="cursor:pointer;">
		<path d=" M  790.37,   35.78  L  790.37,  103.77  L  858.36,  103.77  L  858.36,   35.78  L  790.37,   35.78 " style="&st4;"/>
	</a>
	<a ewd:code="2" ewd:figID="7" ewd:figtype="jb" style="cursor:pointer;">
		<path d=" M   42.49,   35.78  L   42.49,  112.27  L  110.48,  112.27  L  110.48,   35.78  L   42.49,   35.78 " style="&st4;"/>
	</a>
	<a ewd:code="FUSE57" ewd:figID="8" ewd:figtype="fuse" style="cursor:pointer;">
		<path d=" M   46.74,   35.78  L   46.74,   78.27  L   72.24,   78.27  L   72.24,   35.78  L   46.74,   35.78 " style="&st7;"/>
	</a>
	<a ewd:code="FUSE47" ewd:figID="9" ewd:figtype="fuse" style="cursor:pointer;">
		<path d=" M  794.62,   35.78  L  794.62,   78.27  L  820.11,   78.27  L  820.11,   35.78  L  794.62,   35.78 " style="&st7;"/>
	</a>
	<a ewd:lineID="1" style="cursor:pointer;">
		<path d=" M  203.97,  358.73  L  203.97,  333.23  L   59.49,  333.23  L   59.49,  112.27 " style="stroke:#008837;stroke-width: 5.10 ;&st6;"/>
	</a>
	<a ewd:lineID="2" style="cursor:pointer;">
		<path d=" M  203.97,  257.31  L  203.97,  316.23  L  101.98,  316.23  L  101.98,  112.27 " style="stroke:#008837;stroke-width: 5.10 ;&st6;"/>
	</a>
	<a ewd:lineID="3" style="cursor:pointer;">
		<path d=" M  203.97,  613.68  L  203.97,  681.67 " style="stroke:#000000;stroke-width: 5.10 ;&st6;"/>
		<path d=" M  203.97,  613.68  L  203.97,  681.67 " style="stroke:#FFFFFF;stroke-width: 4.53 ;&st6;"/>
		<path d=" M  203.97,  613.68  L  203.97,  681.67 " style="stroke:#000000;stroke-width: 1.13 ;&st6;"/>
	</a>
	<a ewd:lineID="4" style="cursor:pointer;">
		<path d=" M  203.97,  554.19  L  203.97,  598.95 " style="stroke:#000000;stroke-width: 5.10 ;&st6;"/>
	</a>
	<a ewd:lineID="5" style="cursor:pointer;">
		<path d=" M  203.97,  373.46  L  203.97,  418.22 " style="stroke:#00A0C6;stroke-width: 5.10 ;&st6;"/>
	</a>
	<a ewd:lineID="6" style="cursor:pointer;">
		<path d=" M  237.96,  373.46  L  237.96,  418.22 " style="stroke:#00A0C6;stroke-width: 5.10 ;&st6;"/>
		<path d=" M  237.96,  373.46  L  237.96,  418.22 " style="stroke:#FFFFFF;stroke-width: 1.13 ;&st6;"/>
	</a>
	<a ewd:lineID="7" style="cursor:pointer;">
		<path d=" M  237.96,  322.75  L  237.96,  358.73 " style="stroke:#000000;stroke-width: 5.10 ;&st6;"/>
		<path d=" M  237.96,  322.75  L  237.96,  358.73 " style="stroke:#FFFFFF;stroke-width: 4.53 ;&st6;"/>
	</a>
	<a ewd:lineID="8" style="cursor:pointer;">
		<path d=" M  237.96,  257.31  L  237.96,  307.73 " style="stroke:#000000;stroke-width: 5.10 ;&st6;"/>
		<path d=" M  237.96,  257.31  L  237.96,  307.73 " style="stroke:#FFFFFF;stroke-width: 4.53 ;&st6;"/>
	</a>
	<a ewd:lineID="9" style="cursor:pointer;">
		<path d=" M  280.45,  373.74  L  280.45,  418.22 " style="stroke:#00A0C6;stroke-width: 5.10 ;&st6;"/>
		<path d=" M  280.45,  373.74  L  280.45,  418.22 " style="stroke:#FFFFFF;stroke-width: 2.27 ;&st6;"/>
		<path d=" M  280.45,  373.74  L  280.45,  418.22 " style="stroke:#000000;stroke-width: 1.13 ;&st6;"/>
	</a>
	<a ewd:lineID="10" style="cursor:pointer;">
		<path d=" M  280.45,  322.46  L  280.45,  358.73 " style="stroke:#FF0000;stroke-width: 5.10 ;&st6;"/>
	</a>
	<a ewd:lineID="11" style="cursor:pointer;">
		<path d=" M  280.45,  257.31  L  280.45,  307.73 " style="stroke:#FF0000;stroke-width: 5.10 ;&st6;"/>
	</a>
	<a ewd:lineID="12" style="cursor:pointer;">
		<path d=" M  331.44,  373.74  L  331.44,  418.22 " style="stroke:#00A0C6;stroke-width: 5.10 ;&st6;"/>
		<path d=" M  331.44,  373.74  L  331.44,  418.22 " style="stroke:#FFFFFF;stroke-width: 2.27 ;&st6;"/>
		<path d=" M  331.44,  373.74  L  331.44,  418.22 " style="stroke:#FF0000;stroke-width: 1.13 ;&st6;"/>
	</a>
	<a ewd:lineID="13" style="cursor:pointer;">
		<path d=" M  331.44,  322.46  L  331.44,  358.73 " style="stroke:#000000;stroke-width: 5.10 ;&st6;"/>
	</a>
	<a ewd:lineID="14" style="cursor:pointer;">
		<path d=" M  331.44,  257.31  L  331.44,  307.73 " style="stroke:#000000;stroke-width: 5.10 ;&st6;"/>
	</a>
	<a ewd:lineID="15" style="cursor:pointer;">
		<path d=" M  620.40,  503.77  L  620.40,  545.69  L  654.39,  545.69  L  654.39,  503.77 " style="stroke:#000000;stroke-width: 5.10 ;&st6;"/>
		<path d=" M  620.40,  503.77  L  620.40,  545.69  L  654.39,  545.69  L  654.39,  503.77 " style="stroke:#FFFFFF;stroke-width: 4.53 ;&st6;"/>
		<path d=" M  620.40,  503.77  L  620.40,  545.69  L  654.39,  545.69  L  654.39,  503.77 " style="stroke:#000000;stroke-width: 1.13 ;&st6;"/>
	</a>
	<a ewd:lineID="16" style="cursor:pointer;">
		<path d=" M  620.40,  257.31  L  620.40,  460.14 " style="stroke:#000000;stroke-width: 5.10 ;&st6;"/>
		<path d=" M  620.40,  257.31  L  620.40,  460.14 " style="stroke:#FFFFFF;stroke-width: 4.53 ;&st6;"/>
		<path d=" M  620.40,  257.31  L  620.40,  460.14 " style="stroke:#000000;stroke-width: 1.13 ;&st6;"/>
	</a>
	<a ewd:lineID="17" style="cursor:pointer;">
		<path d=" M  730.88,  656.18  L  730.88,  443.71  L  654.39,  443.71  L  654.39,  460.14 " style="stroke:#000000;stroke-width: 5.10 ;&st6;"/>
		<path d=" M  730.88,  656.18  L  730.88,  443.71  L  654.39,  443.71  L  654.39,  460.14 " style="stroke:#FFFFFF;stroke-width: 4.53 ;&st6;"/>
		<path d=" M  730.88,  656.18  L  730.88,  443.71  L  654.39,  443.71  L  654.39,  460.14 " style="stroke:#000000;stroke-width: 1.13 ;&st6;"/>
	</a>
	<a ewd:lineID="18" style="cursor:pointer;">
		<path d=" M  705.38,  330.96  L  705.38,  350.23  L  807.37,  350.23  L  807.37,  248.24 " style="stroke:#000000;stroke-width: 5.10 ;&st6;"/>
	</a>
	<a ewd:lineID="19" style="cursor:pointer;">
		<path d=" M  705.38,  257.31  L  705.38,  316.23 " style="stroke:#000000;stroke-width: 5.10 ;&st6;"/>
	</a>
	<a ewd:lineID="20" style="cursor:pointer;">
		<path d=" M  807.37,  180.26  L  807.37,  103.77 " style="stroke:#00A0C6;stroke-width: 5.10 ;&st6;"/>
	</a>
	<path d=" M  809.49,  103.77  L  805.24,  103.77 " style="stroke-width: 1.42 ;&st7; "/>
	<path d=" M  811.61,  202.92  L  811.61,  206.88 " style="stroke-width: 1.42 ;&st7; "/>
	<path d=" M  803.12,  206.88  L  803.12,  202.92 " style="stroke-width: 1.42 ;&st7; "/>
	<path d=" M  803.12,  202.92  L  811.61,  202.92 " style="stroke-width: 1.42 ;&st7; "/>
	<path d=" M  811.61,  225.58  L  811.61,  221.61 " style="stroke-width: 1.42 ;&st7; "/>
	<path d=" M  807.37,   69.77  L  807.37,   95.27 " style="stroke-width: 0.85 ;&st7; "/>
	<path d=" M  809.49,   95.27  L  805.24,   95.27 " style="stroke-width: 1.42 ;&st7; "/>
	<path d=" M  803.12,  225.58  L  811.61,  225.58 " style="stroke-width: 1.42 ;&st7; "/>
	<path d=" M  803.12,  221.61  L  803.12,  225.58 " style="stroke-width: 1.42 ;&st7; "/>
	<path d=" M   59.49,   69.77  L   59.49,  103.77 " style="stroke-width: 0.85 ;&st7; "/>
	<path d=" M   61.61,  103.77  L   57.37,  103.77 " style="stroke-width: 1.42 ;&st7; "/>
	<path d=" M   61.61,  112.27  L   57.37,  112.27 " style="stroke-width: 1.42 ;&st7; "/>
	<path d=" M  104.11,  112.27  L   99.86,  112.27 " style="stroke-width: 1.42 ;&st7; "/>
	<path d=" M  104.11,  103.77  L   99.86,  103.77 " style="stroke-width: 1.42 ;&st7; "/>
	<path d=" M  605.94,  178.13  L  583.86,  165.38 " style="stroke-width: 0.85 ;&st7; "/>
	<path d=" M  195.47,  605.18  L  203.97,  605.18 " style="stroke-width: 1.42 ;&st7; "/>
	<path d=" M  276.20,  489.04  L  284.70,  489.04 " style="stroke-width: 1.42 ;&st7; "/>
	<path d=" M  276.20,  485.07  L  276.20,  489.04 " style="stroke-width: 1.42 ;&st7; "/>
	<path d=" M  284.70,  489.04  L  284.70,  485.07 " style="stroke-width: 1.42 ;&st7; "/>
	<path d=" M  276.20,  466.37  L  284.70,  466.37 " style="stroke-width: 1.42 ;&st7; "/>
	<path d=" M  276.20,  470.34  L  276.20,  466.37 " style="stroke-width: 1.42 ;&st7; "/>
	<path d=" M  284.70,  466.37  L  284.70,  470.34 " style="stroke-width: 1.42 ;&st7; "/>
	<path d=" M  291.78,  473.46  L  291.78,  481.95 " style="stroke-width: 1.42 ;&st7; "/>
	<path d=" M  287.82,  473.46  L  291.78,  473.46 " style="stroke-width: 1.42 ;&st7; "/>
	<path d=" M  291.78,  481.95  L  287.82,  481.95 " style="stroke-width: 1.42 ;&st7; "/>
	<path d=" M  201.13,  460.43  L  219.55,  452.21 " style="stroke-width: 1.42 ;&st7; "/>
	<path d=" M  352.69,  484.08  L  344.19,  484.08 " style="stroke-width: 1.42 ;&st7; "/>
	<path d=" M  352.69,  479.83  L  344.19,  479.83 " style="stroke-width: 1.42 ;&st7; "/>
	<path d=" M  254.96,  537.20  L  254.96,  484.08 " style="stroke-width: 0.85 ;&st7; "/>
	<path d=" M  254.96,  479.83  L  254.96,  469.21 " style="stroke-width: 0.85 ;&st7; "/>
	<path d=" M  259.21,  479.83  L  250.71,  479.83 " style="stroke-width: 1.42 ;&st7; "/>
	<path d=" M  259.21,  484.08  L  250.71,  484.08 " style="stroke-width: 1.42 ;&st7; "/>
	<path d=" M  348.44,  479.83  L  348.44,  469.21 " style="stroke-width: 0.85 ;&st7; "/>
	<path d=" M  348.44,  528.70  L  348.44,  484.08 " style="stroke-width: 0.85 ;&st7; "/>
	<path d=" M  291.78,  477.71  L  305.95,  477.71 " style="stroke-width: 0.85 ;&st7; "/>
	<path d=" M  322.95,  477.71  L  331.44,  477.71 " style="stroke-width: 0.85 ;&st7; "/>
	<path d=" M  339.94,  316.23  L  331.44,  316.23 " style="stroke-width: 1.42 ;&st7; "/>
	<path d=" M  288.95,  316.23  L  280.45,  316.23 " style="stroke-width: 1.42 ;&st7; "/>
	<path d=" M  246.46,  316.23  L  237.96,  316.23 " style="stroke-width: 1.42 ;&st7; "/>
	<path d=" M  339.94,  367.22  L  331.44,  367.22 " style="stroke-width: 1.42 ;&st7; "/>
	<path d=" M  288.95,  367.22  L  280.45,  367.22 " style="stroke-width: 1.42 ;&st7; "/>
	<path d=" M  246.46,  367.22  L  237.96,  367.22 " style="stroke-width: 1.42 ;&st7; "/>
	<path d=" M  212.46,  367.22  L  203.97,  367.22 " style="stroke-width: 1.42 ;&st7; "/>
	<path d=" M  713.88,  324.73  L  705.38,  324.73 " style="stroke-width: 1.42 ;&st7; "/>
	<path d=" M  280.45,  418.22  L  280.45,  435.21 " style="stroke-width: 0.85 ;&st7; "/>
	<path d=" M  280.45,  452.21  L  280.45,  460.71 " style="stroke-width: 0.85 ;&st7; "/>
	<path d=" M  208.22,  599.52  L  203.97,  603.77  L  199.72,  599.52 " style="stroke-width: 1.42 ;&st7; "/>
	<path d=" M  199.72,  596.12  L  203.97,  600.37  L  208.22,  596.12 " style="stroke-width: 1.42 ;&st7; "/>
	<path d=" M  807.36,   90.37  L  804.53,   87.54  L  804.53,   91.79  L  807.36,   94.62  L  810.20,   91.79  L  810.20,   87.54  L  807.36,   90.37 " style="stroke-width: 0.28 ;&st9;"/>
	<path d=" M  794.62,   35.78  L  794.62,   78.27  L  820.11,   78.27  L  820.11,   35.78  L  794.62,   35.78 " style="stroke-width: 1.42 ;&st7; "/>
	<path d=" M   59.49,   98.87  L   56.66,   96.04  L   56.66,  100.29  L   59.49,  103.12  L   62.32,  100.29  L   62.32,   96.04  L   59.49,   98.87 " style="stroke-width: 0.28 ;&st9;"/>
	<path d=" M   46.74,   35.78  L   46.74,   78.27  L   72.24,   78.27  L   72.24,   35.78  L   46.74,   35.78 " style="stroke-width: 1.42 ;&st7; "/>
	<path d=" M  101.98,   98.87  L   99.15,   96.04  L   99.15,  100.29  L  101.98,  103.12  L  104.82,  100.29  L  104.82,   96.04  L  101.98,   98.87 " style="stroke-width: 0.28 ;&st9;"/>
	<path d=" M   59.49,   86.77  L  101.98,   86.77  L  101.98,  103.77 " style="stroke-width: 0.85 ;&st7; "/>
	<path d=" M   58.30,   85.77  L   58.03,   86.24  L   57.93,   86.77  L   58.03,   87.30  L   58.30,   87.77  L   58.71,   88.12  L   59.22,   88.31  L   59.76,   88.31  L   60.27,   88.12  L   60.68,   87.77  L   60.95,   87.30  L   61.05,   86.77  L   60.95,   86.24  L   60.68,   85.77  L   60.27,   85.42  L   59.76,   85.24  L   59.22,   85.24  L   58.71,   85.42  L   58.30,   85.77  L   58.69,   86.48  L   58.69,   87.06  L   59.07,   87.51  L   59.64,   87.61  L   60.14,   87.32  L   60.34,   86.77  L   60.14,   86.22  L   59.64,   85.94  L   59.07,   86.03  L   59.49,   86.77 " style="stroke-width: 0.85 ;&st7; "/>
	<path d=" M  348.44,  171.76  L  348.44,  197.25 " style="stroke-width: 0.85 ;&st7; "/>
	<path d=" M  246.46,  171.76  L  246.46,  188.75 " style="stroke-width: 0.85 ;&st7; "/>
	<path d=" M  382.44,  171.76  L  382.44,  197.25 " style="stroke-width: 0.85 ;&st7; "/>
	<path d=" M  416.43,  171.76  L  416.43,  197.25 " style="stroke-width: 0.85 ;&st7; "/>
	<path d=" M  611.90,  171.76  L  620.40,  171.76  L  620.40,  197.25 " style="stroke-width: 0.85 ;&st7; "/>
	<path d=" M  688.38,  146.26  L  688.38,  222.75 " style="stroke-width: 0.85 ;&st7; "/>
	<path d=" M  637.39,  197.25  L  331.44,  197.25  L  331.44,  214.25  L  637.39,  214.25  L  637.39,  197.25 " style="stroke-width: 1.42 ;&st7; "/>
	<path d=" M  152.97,   52.78  L  152.97,  248.24  L  730.88,  248.24  L  730.88,   52.78  L  152.97,   52.78 " style="stroke-width: 1.42 ;&st7; "/>
	<path d=" M  637.39,   95.27  L  637.39,  146.26  L  713.88,  146.26  L  713.88,   95.27  L  637.39,   95.27 " style="stroke-width: 1.42 ;&st7; "/>
	<path d=" M  637.39,  112.27  L  713.88,  112.27 " style="stroke-width: 0.85 ;&st7; "/>
	<path d=" M  229.46,  171.76  L  229.46,   69.77 " style="stroke-width: 0.85 ;&st7; "/>
	<path d=" M  467.42,  120.77  L  169.97,  120.77 " style="stroke-width: 0.85 ;&st7; "/>
	<path d=" M  399.43,  171.76  L  399.43,   69.77 " style="stroke-width: 0.85 ;&st7; "/>
	<path d=" M  467.42,  154.76  L  169.97,  154.76 " style="stroke-width: 0.85 ;&st7; "/>
	<path d=" M  467.42,  103.77  L  169.97,  103.77 " style="stroke-width: 0.85 ;&st7; "/>
	<path d=" M  331.44,  171.76  L  331.44,   69.77 " style="stroke-width: 0.85 ;&st7; "/>
	<path d=" M  365.44,  171.76  L  365.44,   69.77 " style="stroke-width: 0.85 ;&st7; "/>
	<path d=" M  169.97,   69.77  L  169.97,  171.76  L  467.42,  171.76  L  467.42,   69.77  L  169.97,   69.77 " style="stroke-width: 1.42 ;&st7; "/>
	<path d=" M  169.97,   86.77  L  467.42,   86.77 " style="stroke-width: 0.85 ;&st7; "/>
	<path d=" M  263.46,  171.76  L  263.46,   69.77 " style="stroke-width: 0.85 ;&st7; "/>
	<path d=" M  297.45,  171.76  L  297.45,   69.77 " style="stroke-width: 0.85 ;&st7; "/>
	<path d=" M  313.03,   95.27  L  247.88,   95.27 " style="stroke-width: 0.85 ;&st7; "/>
	<path d=" M  279.04,  163.26  L  247.88,  163.26 " style="stroke-width: 0.85 ;&st7; "/>
	<path d=" M  313.03,  146.26  L  247.88,  146.26 " style="stroke-width: 0.85 ;&st7; "/>
	<path d=" M  383.85,  112.27  L  449.01,  112.27 " style="stroke-width: 0.85 ;&st7; "/>
	<path d=" M  314.45,  171.76  L  314.45,  231.25  L  331.44,  231.25  L  331.44,  248.24 " style="stroke-width: 0.85 ;&st7; "/>
	<path d=" M  583.86,  165.38  L  586.19,  168.42  L  587.66,  165.88  L  583.86,  165.38  L  585.14,  166.12  L  586.13,  167.41  L  586.74,  166.33  L  585.14,  166.12  L  585.78,  166.49  L  586.09,  166.90  L  586.29,  166.56  L  585.78,  166.49 " style="stroke-width: 0.85 ;&st7; "/>
	<path d=" M  577.90,  171.76  L  586.40,  171.76  L  587.82,  168.92  L  590.65,  174.59  L  593.48,  168.92  L  596.32,  174.59  L  599.15,  168.92  L  601.98,  174.59  L  603.40,  171.76  L  611.90,  171.76 " style="stroke-width: 0.85 ;&st7; "/>
	<path d=" M  637.39,  129.26  L  713.88,  129.26 " style="stroke-width: 0.85 ;&st7; "/>
	<path d=" M  679.89,   95.27  L  679.89,  146.26 " style="stroke-width: 0.85 ;&st7; "/>
	<path d=" M  696.88,   95.27  L  696.88,  146.26 " style="stroke-width: 0.85 ;&st7; "/>
	<path d=" M  689.80,  137.76  L  703.97,  137.76 " style="stroke-width: 0.85 ;&st7; "/>
	<path d=" M  705.38,  248.24  L  705.38,  146.26 " style="stroke-width: 0.85 ;&st7; "/>
	<path d=" M  331.44,  205.75  L  237.96,  205.75  L  237.96,  248.24 " style="stroke-width: 0.85 ;&st7; "/>
	<path d=" M  577.90,  171.76  L  569.40,  171.76  L  569.40,  197.25 " style="stroke-width: 0.85 ;&st7; "/>
	<path d=" M  203.97,  697.25  L  203.97,  701.50 " style="stroke-width: 0.85 ;&st7; "/>
	<path d=" M  195.47,  701.50  L  212.46,  701.50 " style="stroke-width: 0.85 ;&st7; "/>
	<path d=" M  199.72,  704.33  L  208.22,  704.33 " style="stroke-width: 0.85 ;&st7; "/>
	<path d=" M  201.13,  707.17  L  206.80,  707.17 " style="stroke-width: 0.85 ;&st7; "/>
	<path d=" M  202.55,  710.00  L  205.38,  710.00 " style="stroke-width: 0.85 ;&st7; "/>
	<path d=" M  807.36,  202.92  L  807.36,  180.26 " style="stroke-width: 0.85 ;&st7; "/>
	<path d=" M  620.40,  214.25  L  620.40,  248.24 " style="stroke-width: 0.85 ;&st7; "/>
	<path d=" M  594.90,  214.25  L  594.90,  231.25  L  705.38,  231.25 " style="stroke-width: 0.85 ;&st7; "/>
	<path d=" M  620.40,  222.75  L  688.38,  222.75 " style="stroke-width: 0.85 ;&st7; "/>
	<path d=" M  169.97,  137.76  L  467.42,  137.76 " style="stroke-width: 0.85 ;&st7; "/>
	<path d=" M  186.97,  418.22  L  186.97,  554.19  L  356.94,  554.19  L  356.94,  418.22  L  186.97,  418.22 " style="stroke-width: 1.42 ;&st7; "/>
	<path d=" M  203.97,  462.12  L  203.97,  554.19 " style="stroke-width: 0.85 ;&st7; "/>
	<path d=" M  203.97,  418.22  L  203.97,  442.29 " style="stroke-width: 0.85 ;&st7; "/>
	<path d=" M  280.45,  460.71  L  280.45,  466.37 " style="stroke-width: 0.85 ;&st7; "/>
	<path d=" M  331.44,  477.71  L  331.44,  418.22 " style="stroke-width: 0.85 ;&st7; "/>
	<path d=" M  202.77,  536.19  L  202.50,  536.66  L  202.41,  537.20  L  202.50,  537.73  L  202.77,  538.20  L  203.19,  538.54  L  203.69,  538.73  L  204.24,  538.73  L  204.74,  538.54  L  205.16,  538.20  L  205.43,  537.73  L  205.52,  537.20  L  205.43,  536.66  L  205.16,  536.19  L  204.74,  535.85  L  204.24,  535.66  L  203.69,  535.66  L  203.19,  535.85  L  202.77,  536.19  L  203.17,  536.90  L  203.17,  537.49  L  203.54,  537.93  L  204.11,  538.03  L  204.62,  537.74  L  204.82,  537.20  L  204.62,  536.65  L  204.11,  536.36  L  203.54,  536.46  L  203.97,  537.20 " style="stroke-width: 0.85 ;&st7; "/>
	<path d=" M  237.96,  418.22  L  237.96,  452.21  L  222.38,  452.21 " style="stroke-width: 0.85 ;&st7; "/>
	<path d=" M  279.26,  425.71  L  278.99,  426.18  L  278.89,  426.71  L  278.99,  427.25  L  279.26,  427.72  L  279.67,  428.06  L  280.18,  428.25  L  280.72,  428.25  L  281.23,  428.06  L  281.65,  427.72  L  281.92,  427.25  L  282.01,  426.71  L  281.92,  426.18  L  281.65,  425.71  L  281.23,  425.37  L  280.72,  425.18  L  280.18,  425.18  L  279.67,  425.37  L  279.26,  425.71  L  279.65,  426.42  L  279.65,  427.01  L  280.03,  427.45  L  280.60,  427.55  L  281.10,  427.26  L  281.30,  426.71  L  281.10,  426.17  L  280.60,  425.88  L  280.03,  425.98  L  280.45,  426.71 " style="stroke-width: 0.85 ;&st7; "/>
	<path d=" M  280.45,  426.71  L  254.96,  426.71  L  254.96,  469.21 " style="stroke-width: 0.85 ;&st7; "/>
	<path d=" M  253.76,  536.19  L  253.49,  536.66  L  253.40,  537.20  L  253.49,  537.73  L  253.76,  538.20  L  254.18,  538.54  L  254.69,  538.73  L  255.23,  538.73  L  255.74,  538.54  L  256.15,  538.20  L  256.42,  537.73  L  256.52,  537.20  L  256.42,  536.66  L  256.15,  536.19  L  255.74,  535.85  L  255.23,  535.66  L  254.69,  535.66  L  254.18,  535.85  L  253.76,  536.19  L  254.16,  536.90  L  254.16,  537.49  L  254.53,  537.93  L  255.10,  538.03  L  255.61,  537.74  L  255.81,  537.20  L  255.61,  536.65  L  255.10,  536.36  L  254.53,  536.46  L  254.96,  537.20 " style="stroke-width: 0.85 ;&st7; "/>
	<path d=" M  330.25,  459.71  L  329.98,  460.18  L  329.89,  460.71  L  329.98,  461.24  L  330.25,  461.71  L  330.67,  462.06  L  331.17,  462.24  L  331.72,  462.24  L  332.22,  462.06  L  332.64,  461.71  L  332.91,  461.24  L  333.00,  460.71  L  332.91,  460.18  L  332.64,  459.71  L  332.22,  459.36  L  331.72,  459.17  L  331.17,  459.17  L  330.67,  459.36  L  330.25,  459.71  L  330.65,  460.42  L  330.65,  461.00  L  331.02,  461.44  L  331.59,  461.54  L  332.10,  461.26  L  332.29,  460.71  L  332.10,  460.16  L  331.59,  459.87  L  331.02,  459.97  L  331.44,  460.71 " style="stroke-width: 0.85 ;&st7; "/>
	<path d=" M  331.44,  460.71  L  348.44,  460.71  L  348.44,  469.21 " style="stroke-width: 0.85 ;&st7; "/>
	<path d=" M  279.26,  536.19  L  278.99,  536.66  L  278.89,  537.20  L  278.99,  537.73  L  279.26,  538.20  L  279.67,  538.54  L  280.18,  538.73  L  280.72,  538.73  L  281.23,  538.54  L  281.65,  538.20  L  281.92,  537.73  L  282.01,  537.20  L  281.92,  536.66  L  281.65,  536.19  L  281.23,  535.85  L  280.72,  535.66  L  280.18,  535.66  L  279.67,  535.85  L  279.26,  536.19  L  279.65,  536.90  L  279.65,  537.49  L  280.03,  537.93  L  280.60,  538.03  L  281.10,  537.74  L  281.30,  537.20  L  281.10,  536.65  L  280.60,  536.36  L  280.03,  536.46  L  280.45,  537.20 " style="stroke-width: 0.85 ;&st7; "/>
	<path d=" M  280.45,  537.20  L  348.44,  537.20  L  348.44,  528.70 " style="stroke-width: 0.85 ;&st7; "/>
	<path d=" M  203.97,  537.20  L  280.45,  537.20  L  280.45,  528.63 " style="stroke-width: 0.85 ;&st7; "/>
	<path d=" M  280.45,  503.20  L  280.45,  489.04 " style="stroke-width: 0.85 ;&st7; "/>
	<path d=" M  315.86,  129.26  L  347.03,  129.26 " style="stroke-width: 0.85 ;&st7; "/>
	<path d=" M  433.43,   69.77  L  433.43,  171.76 " style="stroke-width: 0.85 ;&st7; "/>
	<path d=" M  450.42,  171.76  L  450.42,  197.25 " style="stroke-width: 0.85 ;&st7; "/>
	<path d=" M  315.86,  112.27  L  347.03,  112.27 " style="stroke-width: 0.85 ;&st7; "/>
	<path d=" M  383.85,  129.26  L  415.01,  129.26 " style="stroke-width: 0.85 ;&st7; "/>
	<path d=" M  335.69,  325.30  L  331.44,  321.05  L  327.20,  325.30 " style="stroke-width: 1.42 ;&st7; "/>
	<path d=" M  335.69,  321.90  L  331.44,  317.65  L  327.20,  321.90 " style="stroke-width: 1.42 ;&st7; "/>
	<path d=" M  284.70,  325.30  L  280.45,  321.05  L  276.20,  325.30 " style="stroke-width: 1.42 ;&st7; "/>
	<path d=" M  284.70,  321.90  L  280.45,  317.65  L  276.20,  321.90 " style="stroke-width: 1.42 ;&st7; "/>
	<path d=" M  242.21,  325.30  L  237.96,  321.05  L  233.71,  325.30 " style="stroke-width: 1.42 ;&st7; "/>
	<path d=" M  242.21,  321.90  L  237.96,  317.65  L  233.71,  321.90 " style="stroke-width: 1.42 ;&st7; "/>
	<path d=" M  335.69,  376.29  L  331.44,  372.04  L  327.20,  376.29 " style="stroke-width: 1.42 ;&st7; "/>
	<path d=" M  335.69,  372.89  L  331.44,  368.64  L  327.20,  372.89 " style="stroke-width: 1.42 ;&st7; "/>
	<path d=" M  284.70,  376.29  L  280.45,  372.04  L  276.20,  376.29 " style="stroke-width: 1.42 ;&st7; "/>
	<path d=" M  284.70,  372.89  L  280.45,  368.64  L  276.20,  372.89 " style="stroke-width: 1.42 ;&st7; "/>
	<path d=" M  242.21,  376.29  L  237.96,  372.04  L  233.71,  376.29 " style="stroke-width: 1.42 ;&st7; "/>
	<path d=" M  242.21,  372.89  L  237.96,  368.64  L  233.71,  372.89 " style="stroke-width: 1.42 ;&st7; "/>
	<path d=" M  208.22,  376.29  L  203.97,  372.04  L  199.72,  376.29 " style="stroke-width: 1.42 ;&st7; "/>
	<path d=" M  208.22,  372.89  L  203.97,  368.64  L  199.72,  372.89 " style="stroke-width: 1.42 ;&st7; "/>
	<path d=" M  709.63,  333.80  L  705.38,  329.55  L  701.13,  333.80 " style="stroke-width: 1.42 ;&st7; "/>
	<path d=" M  709.63,  330.40  L  705.38,  326.15  L  701.13,  330.40 " style="stroke-width: 1.42 ;&st7; "/>
	<path d=" M  620.40,  469.21  L  620.40,  494.70 " style="stroke-width: 0.85 ;&st7; "/>
	<path d=" M  730.88,  656.18  L  730.88,  681.67 " style="stroke-width: 0.85 ;&st7; "/>
	<path d=" M  654.39,  469.21  L  654.39,  494.70 " style="stroke-width: 0.85 ;&st7; "/>
	<path d=" M  611.90,  469.21  L  611.90,  494.70  L  662.89,  494.70  L  662.89,  469.21  L  611.90,  469.21 " style="stroke-width: 1.42 ;&st7; "/>
	<path d=" M  726.63,  704.33  L  735.13,  704.33 " style="stroke-width: 0.85 ;&st7; "/>
	<path d=" M  730.88,  697.25  L  730.88,  701.50 " style="stroke-width: 0.85 ;&st7; "/>
	<path d=" M  722.38,  701.50  L  739.38,  701.50 " style="stroke-width: 0.85 ;&st7; "/>
	<path d=" M  728.04,  707.17  L  733.71,  707.17 " style="stroke-width: 0.85 ;&st7; "/>
	<path d=" M  729.46,  710.00  L  732.29,  710.00 " style="stroke-width: 0.85 ;&st7; "/>
	<path d=" M  722.38,  656.18  L  722.38,  673.17  L  739.38,  673.17  L  739.38,  656.18  L  722.38,  656.18 " style="stroke-width: 1.42 ;&st7; "/>
	<path d=" M  730.88,  656.18  L  730.88,  673.17 " style="stroke-width: 0.85 ;&st7; "/>
	<path d=" M  611.90,  486.20  L  662.89,  486.20 " style="stroke-width: 1.13 ;&st7;stroke-dasharray:3, 1.5;"/>
	<path d=" M  611.90,  477.71  L  662.89,  477.71 " style="stroke-width: 1.13 ;&st7;stroke-dasharray:3, 1.5;"/>
	<path d=" M  619.20,  221.75  L  618.93,  222.22  L  618.84,  222.75  L  618.93,  223.28  L  619.20,  223.75  L  619.62,  224.10  L  620.12,  224.28  L  620.67,  224.28  L  621.18,  224.10  L  621.59,  223.75  L  621.86,  223.28  L  621.95,  222.75  L  621.86,  222.22  L  621.59,  221.75  L  621.18,  221.40  L  620.67,  221.21  L  620.12,  221.21  L  619.62,  221.40  L  619.20,  221.75  L  619.60,  222.46  L  619.60,  223.04  L  619.97,  223.48  L  620.54,  223.58  L  621.05,  223.30  L  621.25,  222.75  L  621.05,  222.20  L  620.54,  221.91  L  619.97,  222.01  L  620.40,  222.75 " style="stroke-width: 0.85 ;&st7; "/>
	<path d=" M  704.19,  230.24  L  703.92,  230.71  L  703.82,  231.25  L  703.92,  231.78  L  704.19,  232.25  L  704.60,  232.60  L  705.11,  232.78  L  705.65,  232.78  L  706.16,  232.60  L  706.57,  232.25  L  706.85,  231.78  L  706.94,  231.25  L  706.85,  230.71  L  706.57,  230.24  L  706.16,  229.90  L  705.65,  229.71  L  705.11,  229.71  L  704.60,  229.90  L  704.19,  230.24  L  704.58,  230.96  L  704.58,  231.54  L  704.96,  231.98  L  705.53,  232.08  L  706.03,  231.79  L  706.23,  231.25  L  706.03,  230.70  L  705.53,  230.41  L  704.96,  230.51  L  705.38,  231.25 " style="stroke-width: 0.85 ;&st7; "/>
	<path d=" M  339.94,  197.25  L  339.94,  188.75  L  246.46,  188.75 " style="stroke-width: 0.85 ;&st7; "/>
	<path d=" M  280.45,  248.24  L  280.45,  171.76 " style="stroke-width: 0.85 ;&st7; "/>
	<path d=" M  203.97,  248.24  L  203.97,  188.75  L  246.46,  188.75 " style="stroke-width: 0.85 ;&st7; "/>
	<path d=" M  245.27,  187.75  L  244.99,  188.22  L  244.90,  188.75  L  244.99,  189.29  L  245.27,  189.76  L  245.68,  190.10  L  246.19,  190.29  L  246.73,  190.29  L  247.24,  190.10  L  247.65,  189.76  L  247.92,  189.29  L  248.02,  188.75  L  247.92,  188.22  L  247.65,  187.75  L  247.24,  187.41  L  246.73,  187.22  L  246.19,  187.22  L  245.68,  187.41  L  245.27,  187.75  L  245.66,  188.46  L  245.66,  189.05  L  246.03,  189.49  L  246.61,  189.59  L  247.11,  189.30  L  247.31,  188.75  L  247.11,  188.21  L  246.61,  187.92  L  246.03,  188.02  L  246.46,  188.75 " style="stroke-width: 0.85 ;&st7; "/>
	<path d=" M  790.37,  180.26  L  841.36,  180.26  L  841.36,  248.24  L  790.37,  248.24  L  790.37,  180.26 " style="stroke-width: 1.42 ;&st7; "/>
	<path d=" M  807.36,  248.24  L  807.36,  225.58 " style="stroke-width: 0.85 ;&st7; "/>
	<path d=" M  815.86,  214.25  C  815.86   209.56   812.06   205.75   807.37   205.75 " style="stroke-width: 1.42 ;&st7; "/>
	<path d=" M  807.37,  205.75  C  802.67   205.75   798.87   209.56   798.87   214.25 " style="stroke-width: 1.42 ;&st7; "/>
	<path d=" M  798.87,  214.25  C  798.87   218.94   802.67   222.75   807.37   222.75 " style="stroke-width: 1.42 ;&st7; "/>
	<path d=" M  807.37,  222.75  C  812.06   222.75   815.86   218.94   815.86   214.25 " style="stroke-width: 1.42 ;&st7; "/>
	<path d=" M  807.37,   47.11  C  804.63    48.72   803.72    52.25   805.33    54.99 " style="stroke-width: 1.42 ;&st7; "/>
	<path d=" M  805.33,   54.99  C  805.85    55.87   806.48    56.51   807.37    57.03 " style="stroke-width: 1.42 ;&st7; "/>
	<path d=" M  807.37,   66.94  C  810.10    65.33   811.01    61.80   809.40    59.06 " style="stroke-width: 1.42 ;&st7; "/>
	<path d=" M  809.40,   59.06  C  808.88    58.18   808.25    57.55   807.37    57.03 " style="stroke-width: 1.42 ;&st7; "/>
	<path d=" M  808.78,   45.69  C  808.78    44.91   808.15    44.28   807.37    44.28 " style="stroke-width: 0.85 ;&st7; "/>
	<path d=" M  807.37,   44.28  C  806.58    44.28   805.95    44.91   805.95    45.69 " style="stroke-width: 0.85 ;&st7; "/>
	<path d=" M  805.95,   45.69  C  805.95    46.48   806.58    47.11   807.37    47.11 " style="stroke-width: 0.85 ;&st7; "/>
	<path d=" M  807.37,   47.11  C  808.15    47.11   808.78    46.48   808.78    45.69 " style="stroke-width: 0.85 ;&st7; "/>
	<path d=" M  808.78,   68.36  C  808.78    67.57   808.15    66.94   807.37    66.94 " style="stroke-width: 0.85 ;&st7; "/>
	<path d=" M  807.37,   66.94  C  806.58    66.94   805.95    67.57   805.95    68.36 " style="stroke-width: 0.85 ;&st7; "/>
	<path d=" M  805.95,   68.36  C  805.95    69.14   806.58    69.77   807.37    69.77 " style="stroke-width: 0.85 ;&st7; "/>
	<path d=" M  807.37,   69.77  C  808.15    69.77   808.78    69.14   808.78    68.36 " style="stroke-width: 0.85 ;&st7; "/>
	<path d=" M  805.24,   95.27  C  802.89    95.27   800.99    97.17   800.99    99.52 " style="stroke-width: 1.42 ;&st7; "/>
	<path d=" M  800.99,   99.52  C  800.99   101.87   802.89   103.77   805.24   103.77 " style="stroke-width: 1.42 ;&st7; "/>
	<path d=" M  809.49,  103.77  C  811.84   103.77   813.74   101.87   813.74    99.52 " style="stroke-width: 1.42 ;&st7; "/>
	<path d=" M  813.74,   99.52  C  813.74    97.17   811.84    95.27   809.49    95.27 " style="stroke-width: 1.42 ;&st7; "/>
	<path d=" M   59.49,   47.11  C   56.75    48.72    55.84    52.25    57.45    54.99 " style="stroke-width: 1.42 ;&st7; "/>
	<path d=" M   57.45,   54.99  C   57.97    55.87    58.61    56.51    59.49    57.03 " style="stroke-width: 1.42 ;&st7; "/>
	<path d=" M   59.49,   66.94  C   62.23    65.33    63.14    61.80    61.53    59.06 " style="stroke-width: 1.42 ;&st7; "/>
	<path d=" M   61.53,   59.06  C   61.01    58.18    60.37    57.55    59.49    57.03 " style="stroke-width: 1.42 ;&st7; "/>
	<path d=" M   60.91,   45.69  C   60.91    44.91    60.27    44.28    59.49    44.28 " style="stroke-width: 0.85 ;&st7; "/>
	<path d=" M   59.49,   44.28  C   58.71    44.28    58.07    44.91    58.07    45.69 " style="stroke-width: 0.85 ;&st7; "/>
	<path d=" M   58.07,   45.69  C   58.07    46.48    58.71    47.11    59.49    47.11 " style="stroke-width: 0.85 ;&st7; "/>
	<path d=" M   59.49,   47.11  C   60.27    47.11    60.91    46.48    60.91    45.69 " style="stroke-width: 0.85 ;&st7; "/>
	<path d=" M   60.91,   68.36  C   60.91    67.57    60.27    66.94    59.49    66.94 " style="stroke-width: 0.85 ;&st7; "/>
	<path d=" M   59.49,   66.94  C   58.71    66.94    58.07    67.57    58.07    68.36 " style="stroke-width: 0.85 ;&st7; "/>
	<path d=" M   58.07,   68.36  C   58.07    69.14    58.71    69.77    59.49    69.77 " style="stroke-width: 0.85 ;&st7; "/>
	<path d=" M   59.49,   69.77  C   60.27    69.77    60.91    69.14    60.91    68.36 " style="stroke-width: 0.85 ;&st7; "/>
	<path d=" M   57.37,  103.77  C   55.02   103.77    53.12   105.67    53.12   108.02 " style="stroke-width: 1.42 ;&st7; "/>
	<path d=" M   53.12,  108.02  C   53.12   110.36    55.02   112.27    57.37   112.27 " style="stroke-width: 1.42 ;&st7; "/>
	<path d=" M   61.61,  112.27  C   63.96   112.27    65.86   110.36    65.86   108.02 " style="stroke-width: 1.42 ;&st7; "/>
	<path d=" M   65.86,  108.02  C   65.86   105.67    63.96   103.77    61.61   103.77 " style="stroke-width: 1.42 ;&st7; "/>
	<path d=" M  108.36,  108.02  C  108.36   105.67   106.45   103.77   104.11   103.77 " style="stroke-width: 1.42 ;&st7; "/>
	<path d=" M  104.11,  112.27  C  106.45   112.27   108.36   110.36   108.36   108.02 " style="stroke-width: 1.42 ;&st7; "/>
	<path d=" M   95.61,  108.02  C   95.61   110.36    97.51   112.27    99.86   112.27 " style="stroke-width: 1.42 ;&st7; "/>
	<path d=" M   99.86,  103.77  C   97.51   103.77    95.61   105.67    95.61   108.02 " style="stroke-width: 1.42 ;&st7; "/>
	<path d=" M  315.86,   95.27  C  315.86    94.49   315.23    93.85   314.45    93.85 " style="stroke-width: 0.85 ;&st7; "/>
	<path d=" M  314.45,   93.85  C  313.67    93.85   313.03    94.49   313.03    95.27 " style="stroke-width: 0.85 ;&st7; "/>
	<path d=" M  313.03,   95.27  C  313.03    96.05   313.67    96.69   314.45    96.69 " style="stroke-width: 0.85 ;&st7; "/>
	<path d=" M  314.45,   96.69  C  315.23    96.69   315.86    96.05   315.86    95.27 " style="stroke-width: 0.85 ;&st7; "/>
	<path d=" M  451.84,  112.27  C  451.84   111.48   451.21   110.85   450.42   110.85 " style="stroke-width: 0.85 ;&st7; "/>
	<path d=" M  450.42,  110.85  C  449.64   110.85   449.01   111.48   449.01   112.27 " style="stroke-width: 0.85 ;&st7; "/>
	<path d=" M  449.01,  112.27  C  449.01   113.05   449.64   113.68   450.42   113.68 " style="stroke-width: 0.85 ;&st7; "/>
	<path d=" M  450.42,  113.68  C  451.21   113.68   451.84   113.05   451.84   112.27 " style="stroke-width: 0.85 ;&st7; "/>
	<path d=" M  247.88,   95.27  C  247.88    94.49   247.24    93.85   246.46    93.85 " style="stroke-width: 0.85 ;&st7; "/>
	<path d=" M  246.46,   93.85  C  245.68    93.85   245.04    94.49   245.04    95.27 " style="stroke-width: 0.85 ;&st7; "/>
	<path d=" M  245.04,   95.27  C  245.04    96.05   245.68    96.69   246.46    96.69 " style="stroke-width: 0.85 ;&st7; "/>
	<path d=" M  246.46,   96.69  C  247.24    96.69   247.88    96.05   247.88    95.27 " style="stroke-width: 0.85 ;&st7; "/>
	<path d=" M  383.85,  112.27  C  383.85   111.48   383.22   110.85   382.44   110.85 " style="stroke-width: 0.85 ;&st7; "/>
	<path d=" M  382.44,  110.85  C  381.65   110.85   381.02   111.48   381.02   112.27 " style="stroke-width: 0.85 ;&st7; "/>
	<path d=" M  381.02,  112.27  C  381.02   113.05   381.65   113.68   382.44   113.68 " style="stroke-width: 0.85 ;&st7; "/>
	<path d=" M  382.44,  113.68  C  383.22   113.68   383.85   113.05   383.85   112.27 " style="stroke-width: 0.85 ;&st7; "/>
	<path d=" M  247.88,  163.26  C  247.88   162.48   247.24   161.84   246.46   161.84 " style="stroke-width: 0.85 ;&st7; "/>
	<path d=" M  246.46,  161.84  C  245.68   161.84   245.04   162.48   245.04   163.26 " style="stroke-width: 0.85 ;&st7; "/>
	<path d=" M  245.04,  163.26  C  245.04   164.04   245.68   164.67   246.46   164.67 " style="stroke-width: 0.85 ;&st7; "/>
	<path d=" M  246.46,  164.67  C  247.24   164.67   247.88   164.04   247.88   163.26 " style="stroke-width: 0.85 ;&st7; "/>
	<path d=" M  281.87,  163.26  C  281.87   162.48   281.24   161.84   280.45   161.84 " style="stroke-width: 0.85 ;&st7; "/>
	<path d=" M  280.45,  161.84  C  279.67   161.84   279.04   162.48   279.04   163.26 " style="stroke-width: 0.85 ;&st7; "/>
	<path d=" M  279.04,  163.26  C  279.04   164.04   279.67   164.67   280.45   164.67 " style="stroke-width: 0.85 ;&st7; "/>
	<path d=" M  280.45,  164.67  C  281.24   164.67   281.87   164.04   281.87   163.26 " style="stroke-width: 0.85 ;&st7; "/>
	<path d=" M  315.86,  146.26  C  315.86   145.48   315.23   144.84   314.45   144.84 " style="stroke-width: 0.85 ;&st7; "/>
	<path d=" M  314.45,  144.84  C  313.67   144.84   313.03   145.48   313.03   146.26 " style="stroke-width: 0.85 ;&st7; "/>
	<path d=" M  313.03,  146.26  C  313.03   147.04   313.67   147.68   314.45   147.68 " style="stroke-width: 0.85 ;&st7; "/>
	<path d=" M  314.45,  147.68  C  315.23   147.68   315.86   147.04   315.86   146.26 " style="stroke-width: 0.85 ;&st7; "/>
	<path d=" M  247.88,  146.26  C  247.88   145.48   247.24   144.84   246.46   144.84 " style="stroke-width: 0.85 ;&st7; "/>
	<path d=" M  246.46,  144.84  C  245.68   144.84   245.04   145.48   245.04   146.26 " style="stroke-width: 0.85 ;&st7; "/>
	<path d=" M  245.04,  146.26  C  245.04   147.04   245.68   147.68   246.46   147.68 " style="stroke-width: 0.85 ;&st7; "/>
	<path d=" M  246.46,  147.68  C  247.24   147.68   247.88   147.04   247.88   146.26 " style="stroke-width: 0.85 ;&st7; "/>
	<path d=" M  689.80,  137.76  C  689.80   136.98   689.17   136.35   688.38   136.35 " style="stroke-width: 0.85 ;&st7; "/>
	<path d=" M  688.38,  136.35  C  687.60   136.35   686.97   136.98   686.97   137.76 " style="stroke-width: 0.85 ;&st7; "/>
	<path d=" M  686.97,  137.76  C  686.97   138.54   687.60   139.18   688.38   139.18 " style="stroke-width: 0.85 ;&st7; "/>
	<path d=" M  688.38,  139.18  C  689.17   139.18   689.80   138.54   689.80   137.76 " style="stroke-width: 0.85 ;&st7; "/>
	<path d=" M  706.80,  137.76  C  706.80   136.98   706.16   136.35   705.38   136.35 " style="stroke-width: 0.85 ;&st7; "/>
	<path d=" M  705.38,  136.35  C  704.60   136.35   703.97   136.98   703.97   137.76 " style="stroke-width: 0.85 ;&st7; "/>
	<path d=" M  703.97,  137.76  C  703.97   138.54   704.60   139.18   705.38   139.18 " style="stroke-width: 0.85 ;&st7; "/>
	<path d=" M  705.38,  139.18  C  706.16   139.18   706.80   138.54   706.80   137.76 " style="stroke-width: 0.85 ;&st7; "/>
	<path d=" M  349.86,  129.26  C  349.86   128.48   349.22   127.85   348.44   127.85 " style="stroke-width: 0.85 ;&st7; "/>
	<path d=" M  348.44,  127.85  C  347.66   127.85   347.03   128.48   347.03   129.26 " style="stroke-width: 0.85 ;&st7; "/>
	<path d=" M  347.03,  129.26  C  347.03   130.05   347.66   130.68   348.44   130.68 " style="stroke-width: 0.85 ;&st7; "/>
	<path d=" M  348.44,  130.68  C  349.22   130.68   349.86   130.05   349.86   129.26 " style="stroke-width: 0.85 ;&st7; "/>
	<path d=" M  271.95,  477.71  C  271.95   482.40   275.76   486.20   280.45   486.20 " style="stroke-width: 1.42 ;&st7; "/>
	<path d=" M  280.45,  486.20  C  285.15   486.20   288.95   482.40   288.95   477.71 " style="stroke-width: 1.42 ;&st7; "/>
	<path d=" M  288.95,  477.71  C  288.95   473.01   285.15   469.21   280.45   469.21 " style="stroke-width: 1.42 ;&st7; "/>
	<path d=" M  280.45,  469.21  C  275.76   469.21   271.95   473.01   271.95   477.71 " style="stroke-width: 1.42 ;&st7; "/>
	<path d=" M  205.38,  460.71  C  205.38   459.93   204.75   459.29   203.97   459.29 " style="stroke-width: 0.85 ;&st7; "/>
	<path d=" M  203.97,  459.29  C  203.18   459.29   202.55   459.93   202.55   460.71 " style="stroke-width: 0.85 ;&st7; "/>
	<path d=" M  202.55,  460.71  C  202.55   461.49   203.18   462.12   203.97   462.12 " style="stroke-width: 0.85 ;&st7; "/>
	<path d=" M  203.97,  462.12  C  204.75   462.12   205.38   461.49   205.38   460.71 " style="stroke-width: 0.85 ;&st7; "/>
	<path d=" M  205.38,  443.71  C  205.38   442.93   204.75   442.29   203.97   442.29 " style="stroke-width: 0.85 ;&st7; "/>
	<path d=" M  203.97,  442.29  C  203.18   442.29   202.55   442.93   202.55   443.71 " style="stroke-width: 0.85 ;&st7; "/>
	<path d=" M  202.55,  443.71  C  202.55   444.49   203.18   445.13   203.97   445.13 " style="stroke-width: 0.85 ;&st7; "/>
	<path d=" M  203.97,  445.13  C  204.75   445.13   205.38   444.49   205.38   443.71 " style="stroke-width: 0.85 ;&st7; "/>
	<path d=" M  222.38,  452.21  C  222.38   451.43   221.75   450.79   220.96   450.79 " style="stroke-width: 0.85 ;&st7; "/>
	<path d=" M  220.96,  450.79  C  220.18   450.79   219.55   451.43   219.55   452.21 " style="stroke-width: 0.85 ;&st7; "/>
	<path d=" M  219.55,  452.21  C  219.55   452.99   220.18   453.63   220.96   453.63 " style="stroke-width: 0.85 ;&st7; "/>
	<path d=" M  220.96,  453.63  C  221.75   453.63   222.38   452.99   222.38   452.21 " style="stroke-width: 0.85 ;&st7; "/>
	<path d=" M  212.08,  445.94  C  209.66   448.67   209.83   452.81   212.46   455.33 " style="stroke-width: 0.85 ;&st7; "/>
	<path d=" M  212.46,  455.33  C  215.75   453.74   217.19   449.86   215.72   446.52 " style="stroke-width: 0.85 ;&st7; "/>
	<path d=" M  215.72,  446.52  C  215.18   445.41   213.84   444.94   212.72   445.48 " style="stroke-width: 0.85 ;&st7; "/>
	<path d=" M  212.72,  445.48  C  212.47   445.60   212.28   445.74   212.09   445.94 " style="stroke-width: 0.85 ;&st7; "/>
	<path d=" M  214.15,  449.17  C  214.15   448.78   213.83   448.46   213.44   448.46 " style="stroke-width: 0.85 ;&st7; "/>
	<path d=" M  213.44,  448.46  C  213.05   448.46   212.73   448.78   212.73   449.17 " style="stroke-width: 0.85 ;&st7; "/>
	<path d=" M  212.73,  449.17  C  212.73   449.56   213.05   449.88   213.44   449.88 " style="stroke-width: 0.85 ;&st7; "/>
	<path d=" M  213.44,  449.88  C  213.83   449.88   214.15   449.56   214.15   449.17 " style="stroke-width: 0.85 ;&st7; "/>
	<path d=" M  311.97,  480.24  C  313.37   478.87   313.39   476.62   312.02   475.23 " style="stroke-width: 0.85 ;&st7; "/>
	<path d=" M  312.02,  475.23  C  310.65   473.83   308.41   473.81   307.01   475.18 " style="stroke-width: 0.85 ;&st7; "/>
	<path d=" M  307.01,  475.18  C  306.30   475.87   305.95   476.71   305.95   477.71 " style="stroke-width: 0.85 ;&st7; "/>
	<path d=" M  316.93,  480.24  C  318.32   478.87   318.35   476.62   316.98   475.23 " style="stroke-width: 0.85 ;&st7; "/>
	<path d=" M  316.98,  475.23  C  315.61   473.83   313.37   473.81   311.97   475.18 " style="stroke-width: 0.85 ;&st7; "/>
	<path d=" M  311.97,  475.18  C  310.57   476.54   310.55   478.79   311.92   480.18 " style="stroke-width: 0.85 ;&st7; "/>
	<path d=" M  311.92,  480.18  C  311.94   480.20   311.95   480.22   311.97   480.24 " style="stroke-width: 0.85 ;&st7; "/>
	<path d=" M  322.95,  477.71  C  322.95   475.75   321.36   474.16   319.40   474.16 " style="stroke-width: 0.85 ;&st7; "/>
	<path d=" M  319.40,  474.16  C  317.45   474.16   315.86   475.75   315.86   477.71 " style="stroke-width: 0.85 ;&st7; "/>
	<path d=" M  315.86,  477.71  C  315.86   478.70   316.22   479.54   316.93   480.23 " style="stroke-width: 0.85 ;&st7; "/>
	<path d=" M  281.87,  527.21  C  281.87   526.43   281.24   525.80   280.45   525.80 " style="stroke-width: 0.85 ;&st7; "/>
	<path d=" M  280.45,  525.80  C  279.67   525.80   279.04   526.43   279.04   527.21 " style="stroke-width: 0.85 ;&st7; "/>
	<path d=" M  279.04,  527.21  C  279.04   527.99   279.67   528.63   280.45   528.63 " style="stroke-width: 0.85 ;&st7; "/>
	<path d=" M  280.45,  528.63  C  281.24   528.63   281.87   527.99   281.87   527.21 " style="stroke-width: 0.85 ;&st7; "/>
	<path d=" M  272.95,  529.67  C  280.58   527.94   285.37   520.36   283.65   512.73 " style="stroke-width: 0.85 ;&st7; "/>
	<path d=" M  283.65,  512.73  C  282.43   507.35   278.57   503.42   273.22   502.10 " style="stroke-width: 0.85 ;&st7; "/>
	<path d=" M  272.95,  529.67  C  280.62   524.06   282.29   513.29   276.68   505.62 " style="stroke-width: 0.85 ;&st7; "/>
	<path d=" M  276.68,  505.62  C  275.65   504.21   274.61   503.15   273.22   502.09 " style="stroke-width: 0.85 ;&st7; "/>
	<path d=" M  281.91,  504.62  C  281.91   503.84   281.28   503.20   280.50   503.20 " style="stroke-width: 0.85 ;&st7; "/>
	<path d=" M  280.50,  503.20  C  279.72   503.20   279.08   503.84   279.08   504.62 " style="stroke-width: 0.85 ;&st7; "/>
	<path d=" M  279.08,  504.62  C  279.08   505.40   279.72   506.03   280.50   506.03 " style="stroke-width: 0.85 ;&st7; "/>
	<path d=" M  280.50,  506.03  C  281.28   506.03   281.91   505.40   281.91   504.62 " style="stroke-width: 0.85 ;&st7; "/>
	<path d=" M  315.86,  129.26  C  315.86   128.48   315.23   127.85   314.45   127.85 " style="stroke-width: 0.85 ;&st7; "/>
	<path d=" M  314.45,  127.85  C  313.67   127.85   313.03   128.48   313.03   129.26 " style="stroke-width: 0.85 ;&st7; "/>
	<path d=" M  313.03,  129.26  C  313.03   130.05   313.67   130.68   314.45   130.68 " style="stroke-width: 0.85 ;&st7; "/>
	<path d=" M  314.45,  130.68  C  315.23   130.68   315.86   130.05   315.86   129.26 " style="stroke-width: 0.85 ;&st7; "/>
	<path d=" M  349.86,  112.27  C  349.86   111.48   349.22   110.85   348.44   110.85 " style="stroke-width: 0.85 ;&st7; "/>
	<path d=" M  348.44,  110.85  C  347.66   110.85   347.03   111.48   347.03   112.27 " style="stroke-width: 0.85 ;&st7; "/>
	<path d=" M  347.03,  112.27  C  347.03   113.05   347.66   113.68   348.44   113.68 " style="stroke-width: 0.85 ;&st7; "/>
	<path d=" M  348.44,  113.68  C  349.22   113.68   349.86   113.05   349.86   112.27 " style="stroke-width: 0.85 ;&st7; "/>
	<path d=" M  315.86,  112.27  C  315.86   111.48   315.23   110.85   314.45   110.85 " style="stroke-width: 0.85 ;&st7; "/>
	<path d=" M  314.45,  110.85  C  313.67   110.85   313.03   111.48   313.03   112.27 " style="stroke-width: 0.85 ;&st7; "/>
	<path d=" M  313.03,  112.27  C  313.03   113.05   313.67   113.68   314.45   113.68 " style="stroke-width: 0.85 ;&st7; "/>
	<path d=" M  314.45,  113.68  C  315.23   113.68   315.86   113.05   315.86   112.27 " style="stroke-width: 0.85 ;&st7; "/>
	<path d=" M  417.85,  129.26  C  417.85   128.48   417.21   127.85   416.43   127.85 " style="stroke-width: 0.85 ;&st7; "/>
	<path d=" M  416.43,  127.85  C  415.65   127.85   415.01   128.48   415.01   129.26 " style="stroke-width: 0.85 ;&st7; "/>
	<path d=" M  415.01,  129.26  C  415.01   130.05   415.65   130.68   416.43   130.68 " style="stroke-width: 0.85 ;&st7; "/>
	<path d=" M  416.43,  130.68  C  417.21   130.68   417.85   130.05   417.85   129.26 " style="stroke-width: 0.85 ;&st7; "/>
	<path d=" M  383.85,  129.26  C  383.85   128.48   383.22   127.85   382.44   127.85 " style="stroke-width: 0.85 ;&st7; "/>
	<path d=" M  382.44,  127.85  C  381.65   127.85   381.02   128.48   381.02   129.26 " style="stroke-width: 0.85 ;&st7; "/>
	<path d=" M  381.02,  129.26  C  381.02   130.05   381.65   130.68   382.44   130.68 " style="stroke-width: 0.85 ;&st7; "/>
	<path d=" M  382.44,  130.68  C  383.22   130.68   383.85   130.05   383.85   129.26 " style="stroke-width: 0.85 ;&st7; "/>
	<path d=" M  208.50,  252.78  C  208.50   250.27   206.47   248.24   203.97   248.24 " style="stroke-width: 1.42 ;&st7; "/>
	<path d=" M  203.97,  248.24  C  201.46   248.24   199.43   250.27   199.43   252.78 " style="stroke-width: 1.42 ;&st7; "/>
	<path d=" M  199.43,  252.78  C  199.43   255.28   201.46   257.31   203.97   257.31 " style="stroke-width: 1.42 ;&st7; "/>
	<path d=" M  203.97,  257.31  C  206.47   257.31   208.50   255.28   208.50   252.78 " style="stroke-width: 1.42 ;&st7; "/>
	<path d=" M  242.49,  252.78  C  242.49   250.27   240.46   248.24   237.96   248.24 " style="stroke-width: 1.42 ;&st7; "/>
	<path d=" M  237.96,  248.24  C  235.46   248.24   233.43   250.27   233.43   252.78 " style="stroke-width: 1.42 ;&st7; "/>
	<path d=" M  233.43,  252.78  C  233.43   255.28   235.46   257.31   237.96   257.31 " style="stroke-width: 1.42 ;&st7; "/>
	<path d=" M  237.96,  257.31  C  240.46   257.31   242.49   255.28   242.49   252.78 " style="stroke-width: 1.42 ;&st7; "/>
	<path d=" M  284.99,  252.78  C  284.99   250.27   282.96   248.24   280.45   248.24 " style="stroke-width: 1.42 ;&st7; "/>
	<path d=" M  280.45,  248.24  C  277.95   248.24   275.92   250.27   275.92   252.78 " style="stroke-width: 1.42 ;&st7; "/>
	<path d=" M  275.92,  252.78  C  275.92   255.28   277.95   257.31   280.45   257.31 " style="stroke-width: 1.42 ;&st7; "/>
	<path d=" M  280.45,  257.31  C  282.96   257.31   284.99   255.28   284.99   252.78 " style="stroke-width: 1.42 ;&st7; "/>
	<path d=" M  335.98,  252.78  C  335.98   250.27   333.95   248.24   331.44   248.24 " style="stroke-width: 1.42 ;&st7; "/>
	<path d=" M  331.44,  248.24  C  328.94   248.24   326.91   250.27   326.91   252.78 " style="stroke-width: 1.42 ;&st7; "/>
	<path d=" M  326.91,  252.78  C  326.91   255.28   328.94   257.31   331.44   257.31 " style="stroke-width: 1.42 ;&st7; "/>
	<path d=" M  331.44,  257.31  C  333.95   257.31   335.98   255.28   335.98   252.78 " style="stroke-width: 1.42 ;&st7; "/>
	<path d=" M  624.93,  252.78  C  624.93   250.27   622.90   248.24   620.40   248.24 " style="stroke-width: 1.42 ;&st7; "/>
	<path d=" M  620.40,  248.24  C  617.89   248.24   615.86   250.27   615.86   252.78 " style="stroke-width: 1.42 ;&st7; "/>
	<path d=" M  615.86,  252.78  C  615.86   255.28   617.89   257.31   620.40   257.31 " style="stroke-width: 1.42 ;&st7; "/>
	<path d=" M  620.40,  257.31  C  622.90   257.31   624.93   255.28   624.93   252.78 " style="stroke-width: 1.42 ;&st7; "/>
	<path d=" M  709.91,  252.78  C  709.91   250.27   707.89   248.24   705.38   248.24 " style="stroke-width: 1.42 ;&st7; "/>
	<path d=" M  705.38,  248.24  C  702.88   248.24   700.85   250.27   700.85   252.78 " style="stroke-width: 1.42 ;&st7; "/>
	<path d=" M  700.85,  252.78  C  700.85   255.28   702.88   257.31   705.38   257.31 " style="stroke-width: 1.42 ;&st7; "/>
	<path d=" M  705.38,  257.31  C  707.89   257.31   709.91   255.28   709.91   252.78 " style="stroke-width: 1.42 ;&st7; "/>
	<path d=" M  624.93,  499.24  C  624.93   496.73   622.90   494.70   620.40   494.70 " style="stroke-width: 1.42 ;&st7; "/>
	<path d=" M  620.40,  494.70  C  617.89   494.70   615.86   496.73   615.86   499.24 " style="stroke-width: 1.42 ;&st7; "/>
	<path d=" M  615.86,  499.24  C  615.86   501.74   617.89   503.77   620.40   503.77 " style="stroke-width: 1.42 ;&st7; "/>
	<path d=" M  620.40,  503.77  C  622.90   503.77   624.93   501.74   624.93   499.24 " style="stroke-width: 1.42 ;&st7; "/>
	<path d=" M  624.93,  464.67  C  624.93   462.17   622.90   460.14   620.40   460.14 " style="stroke-width: 1.42 ;&st7; "/>
	<path d=" M  620.40,  460.14  C  617.89   460.14   615.86   462.17   615.86   464.67 " style="stroke-width: 1.42 ;&st7; "/>
	<path d=" M  615.86,  464.67  C  615.86   467.18   617.89   469.21   620.40   469.21 " style="stroke-width: 1.42 ;&st7; "/>
	<path d=" M  620.40,  469.21  C  622.90   469.21   624.93   467.18   624.93   464.67 " style="stroke-width: 1.42 ;&st7; "/>
	<path d=" M  658.92,  499.24  C  658.92   496.73   656.89   494.70   654.39   494.70 " style="stroke-width: 1.42 ;&st7; "/>
	<path d=" M  654.39,  494.70  C  651.89   494.70   649.86   496.73   649.86   499.24 " style="stroke-width: 1.42 ;&st7; "/>
	<path d=" M  649.86,  499.24  C  649.86   501.74   651.89   503.77   654.39   503.77 " style="stroke-width: 1.42 ;&st7; "/>
	<path d=" M  654.39,  503.77  C  656.89   503.77   658.92   501.74   658.92   499.24 " style="stroke-width: 1.42 ;&st7; "/>
	<path d=" M  658.92,  464.67  C  658.92   462.17   656.89   460.14   654.39   460.14 " style="stroke-width: 1.42 ;&st7; "/>
	<path d=" M  654.39,  460.14  C  651.89   460.14   649.86   462.17   649.86   464.67 " style="stroke-width: 1.42 ;&st7; "/>
	<path d=" M  649.86,  464.67  C  649.86   467.18   651.89   469.21   654.39   469.21 " style="stroke-width: 1.42 ;&st7; "/>
	<path d=" M  654.39,  469.21  C  656.89   469.21   658.92   467.18   658.92   464.67 " style="stroke-width: 1.42 ;&st7; "/>
	<path d=" M  277.92,  441.23  C  279.29   442.63   281.53   442.65   282.93   441.28 " style="stroke-width: 0.85 ;&st7; "/>
	<path d=" M  282.93,  441.28  C  284.33   439.91   284.35   437.67   282.98   436.27 " style="stroke-width: 0.85 ;&st7; "/>
	<path d=" M  282.98,  436.27  C  282.29   435.57   281.44   435.21   280.45   435.21 " style="stroke-width: 0.85 ;&st7; "/>
	<path d=" M  277.92,  446.19  C  279.29   447.59   281.53   447.61   282.93   446.24 " style="stroke-width: 0.85 ;&st7; "/>
	<path d=" M  282.93,  446.24  C  284.33   444.87   284.35   442.63   282.98   441.23 " style="stroke-width: 0.85 ;&st7; "/>
	<path d=" M  282.98,  441.23  C  281.61   439.84   279.37   439.81   277.97   441.18 " style="stroke-width: 0.85 ;&st7; "/>
	<path d=" M  277.97,  441.18  C  277.96   441.20   277.94   441.21   277.92   441.23 " style="stroke-width: 0.85 ;&st7; "/>
	<path d=" M  280.45,  452.21  C  282.41   452.21   283.99   450.62   283.99   448.67 " style="stroke-width: 0.85 ;&st7; "/>
	<path d=" M  283.99,  448.67  C  283.99   446.71   282.41   445.13   280.45   445.13 " style="stroke-width: 0.85 ;&st7; "/>
	<path d=" M  280.45,  445.13  C  279.46   445.13   278.62   445.48   277.92   446.19 " style="stroke-width: 0.85 ;&st7; "/>
	<text style="&st18;" transform="matrix(&st16;  583.88  41.97 )">F20(A),F21(B)</text>
	<text ewd:textID="13" style="&st18;" transform="matrix(&st16;  583.88  49.08 )">Windshield Wiper Switch Assembly</text>
	<text style="&st18;" transform="matrix(&st17;  616.7  527.9 )">W-B</text>
	<text style="&st18;" transform="matrix(&st16;  618.07  501.2 )">B</text>
	<text style="&st18;" transform="matrix(&st16;  609.52  501.2 )">3</text>
	<text style="&st18;" transform="matrix(&st16;  666.03  479.65 )">F55(A),F56(B)</text>
	<text ewd:textID="6" style="&st18;" transform="matrix(&st16;  666.03  486.76 )">Junction <tspan dy="6" x="0">Connector</tspan></text>
	<text style="&st18;" transform="matrix(&st16;  742.52  659.54 )">F63</text>
	<text ewd:textID="6" style="&st18;" transform="matrix(&st16;  742.52  666.64 )">Junction <tspan dy="6" x="0">Connector</tspan></text>
	<text style="&st18;" transform="matrix(&st17;  803.67  301.57 )">B</text>
	<text style="&st18;" transform="matrix(&st17;  803.67  148.24 )">L</text>
	<text style="&st18;" transform="matrix(&st17;  701.69  284.57 )">B</text>
	<text style="&st18;" transform="matrix(&st16;  804.47  216.22 )">M</text>
	<text style="&st18;" transform="matrix(&st16;  824.67  56.17 )">20A <tspan dy="6" x="0">WASHER</tspan></text>
	<text style="&st18;" transform="matrix(&st16;  802.91  101.49 )">2D</text>
	<text style="&st18;" transform="matrix(&st16;  795.45  101.49 )">1</text>
	<text style="&st18;" transform="matrix(&st16;  801.29  32.08 )">(IG)</text>
	<text style="&st18;" transform="matrix(&st17;  727.18  527.9 )">W-B</text>
	<text style="&st18;" transform="matrix(&st16;  724.08  652.49 )">5</text>
	<text style="&st18;" transform="matrix(&st17;  616.7  289.94 )">W-B</text>
	<text style="&st18;" transform="matrix(&st17;  200.27  655.38 )">W-B</text>
	<text style="&st18;" transform="matrix(&st17;  200.27  394.7 )">L</text>
	<text style="&st18;" transform="matrix(&st17;  234.27  400.07 )">L-W</text>
	<text style="&st18;" transform="matrix(&st17;  276.76  399.04 )">L-B</text>
	<text style="&st18;" transform="matrix(&st17;  327.75  399.18 )">L-R</text>
	<text style="&st18;" transform="matrix(&st17;  200.27  284.99 )">G</text>
	<text style="&st18;" transform="matrix(&st17;  327.75  284.57 )">B</text>
	<text style="&st18;" transform="matrix(&st17;  276.76  284.71 )">R</text>
	<text style="&st18;" transform="matrix(&st17;  234.26  285.59 )">W</text>
	<text style="&st18;" transform="matrix(&st16;  189.15  611.4 )">5</text>
	<text style="&st18;" transform="matrix(&st17;  200.27  582.02 )">B</text>
	<text style="&st18;" transform="matrix(&st16;  76.8  56.17 )">30A <tspan dy="6" x="0">WIP</tspan></text>
	<text style="&st18;" transform="matrix(&st16;  55.04  109.99 )">2D</text>
	<text style="&st18;" transform="matrix(&st16;  46.8  109.99 )">4</text>
	<text style="&st18;" transform="matrix(&st16;  53.41  32.08 )">(IG)</text>
	<text style="&st18;" transform="matrix(&st16;  86.11  109.99 )">13</text>
	<text style="&st18;" transform="matrix(&st16;  97.53  109.99 )">2C</text>
	<text style="&st18;" transform="matrix(&st17;  98.29  200.01 )">G</text>
	<text style="&st18;" transform="matrix(&st17;  55.79  200.01 )">G</text>
	<text ewd:textID="13" style="&st18;" transform="matrix(&st16;  192.94  49.08 )">Windshield Wiper Switch Assembly</text>
	<text style="&st18;" transform="matrix(&st16;  192.94  41.97 )">F20(A),F21(B)</text>
	<text style="&st18;" transform="matrix(&st16;  408.87  80.24 )">INT2</text>
	<text style="&st18;" transform="matrix(&st16;  375.27  80.24 )">INT1</text>
	<text style="&st18;" transform="matrix(&st16;  344.1  80.24 )">+S</text>
	<text style="&st18;" transform="matrix(&st16;  310.84  80.24 )">+1</text>
	<text style="&st18;" transform="matrix(&st16;  276.46  80.24 )">+2</text>
	<text style="&st18;" transform="matrix(&st16;  242.11  80.24 )">+B</text>
	<text ewd:textID="7" style="&st18;" transform="matrix(&st16;  193.22  148.23 )">Low</text>
	<text ewd:textID="8" style="&st18;" transform="matrix(&st16;  193.32  97.24 )">Mist</text>
	<text ewd:textID="4" style="&st18;" transform="matrix(&st16;  192.55  165.23 )">High</text>
	<text ewd:textID="9" style="&st18;" transform="matrix(&st16;  194.98  114.24 )">Off</text>
	<text style="&st18;" transform="matrix(&st16;  682.7  105.74 )">EW</text>
	<text style="&st18;" transform="matrix(&st16;  699.91  105.74 )">WF</text>
	<text ewd:textID="9" style="&st18;" transform="matrix(&st16;  653.91  122.73 )">Off</text>
	<text ewd:textID="10" style="&st18;" transform="matrix(&st16;  653.91  139.73 )">On</text>
	<text ewd:textID="2" style="&st18;" transform="matrix(&st16;  642.97  91.86 )">Front Washer Switch</text>
	<text style="&st18;" transform="matrix(&st16;  197.18  562.39 )">5</text>
	<text style="&st18;" transform="matrix(&st16;  277.56  479.67 )">M</text>
	<text style="&st18;" transform="matrix(&st16;  197.17  414.53 )">2</text>
	<text style="&st18;" transform="matrix(&st16;  231.17  414.53 )">3</text>
	<text style="&st18;" transform="matrix(&st16;  273.66  414.53 )">4</text>
	<text style="&st18;" transform="matrix(&st16;  325.43  414.53 )">1</text>
	<text ewd:textID="5" style="&st18;" transform="matrix(&st16;  181.95  131.23 )">Intermittent</text>
	<text style="&st18;" transform="matrix(&st16;  446.5  80.24 )">B1</text>
	<text ewd:textID="3" style="&st18;" transform="matrix(&st16;  292.71  66.36 )">Front Wiper Switch</text>
	<text style="&st18;" transform="matrix(&st16;  316.63  313.95 )">3</text>
	<text style="&st18;" transform="matrix(&st16;  265.64  313.95 )">6</text>
	<text style="&st18;" transform="matrix(&st16;  223.15  313.95 )">5</text>
	<text style="&st18;" transform="matrix(&st17;  327.75  344.06 )">B</text>
	<text style="&st18;" transform="matrix(&st17;  276.76  344.2 )">R</text>
	<text style="&st18;" transform="matrix(&st17;  234.26  345.08 )">W</text>
	<text style="&st18;" transform="matrix(&st16;  317.41  364.94 )">1</text>
	<text style="&st18;" transform="matrix(&st16;  265.64  364.94 )">4</text>
	<text style="&st18;" transform="matrix(&st16;  223.15  364.94 )">3</text>
	<text style="&st18;" transform="matrix(&st16;  193.09  254.75 )">2</text>
	<text style="&st18;" transform="matrix(&st16;  201.63  254.75 )">B</text>
	<text style="&st18;" transform="matrix(&st16;  227.86  254.75 )">1</text>
	<text style="&st18;" transform="matrix(&st16;  235.63  254.75 )">B</text>
	<text style="&st18;" transform="matrix(&st16;  269.58  254.75 )">4</text>
	<text style="&st18;" transform="matrix(&st16;  278.12  254.75 )">B</text>
	<text style="&st18;" transform="matrix(&st16;  320.57  254.75 )">3</text>
	<text style="&st18;" transform="matrix(&st16;  329.11  254.75 )">B</text>
	<text style="&st18;" transform="matrix(&st16;  609.52  254.75 )">2</text>
	<text style="&st18;" transform="matrix(&st16;  618.07  254.75 )">A</text>
	<text style="&st18;" transform="matrix(&st16;  694.51  254.75 )">3</text>
	<text style="&st18;" transform="matrix(&st16;  703.05  254.75 )">A</text>
	<text style="&st18;" transform="matrix(&st16;  189.15  364.94 )">2</text>
	<text style="&st18;" transform="matrix(&st16;  690.57  322.45 )">4</text>
	<text style="&st18;" transform="matrix(&st16;  652.06  501.2 )">B</text>
	<text style="&st18;" transform="matrix(&st16;  643.51  466.64 )">3</text>
	<text style="&st18;" transform="matrix(&st16;  652.06  466.64 )">A</text>
	<text style="&st18;" transform="matrix(&st16;  643.51  501.2 )">6</text>
	<text style="&st18;" transform="matrix(&st16;  618.07  466.64 )">A</text>
	<text style="&st18;" transform="matrix(&st16;  609.52  466.64 )">5</text>
	<text ewd:textID="12" style="&st18;" transform="matrix(&st16;  235.44  568.91 )">Windshield Wiper Motor Assembly</text>
	<text style="&st18;" transform="matrix(&st16;  235.44  561.8 )">z4</text>
	<text style="&st18;" transform="matrix(&st16;  708.22  244.55 )">WF</text>
	<text style="&st18;" transform="matrix(&st16;  623.23  244.55 )">EW</text>
	<text style="&st18;" transform="matrix(&st16;  334.28  244.55 )">+1</text>
	<text style="&st18;" transform="matrix(&st16;  283.29  244.55 )">+2</text>
	<text style="&st18;" transform="matrix(&st16;  240.79  244.55 )">+S</text>
	<text style="&st18;" transform="matrix(&st16;  206.8  244.55 )">+B</text>
	<text style="&st18;" transform="matrix(&st16;  801.35  256.44 )">1</text>
	<text style="&st18;" transform="matrix(&st16;  800.58  176.57 )">2</text>
	<text ewd:textID="11" style="&st18;" transform="matrix(&st17;  823.5  244.87 )">Windshield Washer <tspan dy="6" x="0">Motor</tspan></text>
	<text ewd:textID="1" style="&st18;" transform="matrix(&st17;  856.08  250.77 )">Front Washer Jar &amp; Pump <tspan dy="6" x="0">Assembly</tspan></text>
	<text style="&st18;" transform="matrix(&st17;  848.97  250.77 )">A27</text>
	<a ewd:code="Az1" ewd:figID="10" ewd:figtype="w2w" ewd:pinNo="5" style="cursor:pointer;">
		<path d=" M  212.46,  605.18  L  195.47,  605.18  L  195.47,  613.68  L  212.46,  613.68  L  212.46,  605.18 " style="&st2;"/>
		<text style="&st8;" transform="matrix(&st16;  197.98  611.93 )"><tspan style="&st18;" x="0" y="0">Az1</tspan></text>
	</a>
	<a ewd:code="FA3" ewd:figID="11" ewd:figtype="w2w" ewd:pinNo="3" style="cursor:pointer;">
		<path d=" M  339.94,  307.73  L  322.95,  307.73  L  322.95,  316.23  L  339.94,  316.23  L  339.94,  307.73 " style="&st2;"/>
		<text style="&st8;" transform="matrix(&st16;  324.68  314.48 )"><tspan style="&st18;" x="0" y="0">FA3</tspan></text>
	</a>
	<a ewd:code="FA3" ewd:figID="12" ewd:figtype="w2w" ewd:pinNo="6" style="cursor:pointer;">
		<path d=" M  288.95,  307.73  L  271.95,  307.73  L  271.95,  316.23  L  288.95,  316.23  L  288.95,  307.73 " style="&st2;"/>
		<text style="&st8;" transform="matrix(&st16;  273.69  314.48 )"><tspan style="&st18;" x="0" y="0">FA3</tspan></text>
	</a>
	<a ewd:code="FA3" ewd:figID="13" ewd:figtype="w2w" ewd:pinNo="5" style="cursor:pointer;">
		<path d=" M  246.46,  307.73  L  229.46,  307.73  L  229.46,  316.23  L  246.46,  316.23  L  246.46,  307.73 " style="&st2;"/>
		<text style="&st8;" transform="matrix(&st16;  231.19  314.48 )"><tspan style="&st18;" x="0" y="0">FA3</tspan></text>
	</a>
	<a ewd:code="Az1" ewd:figID="14" ewd:figtype="w2w" ewd:pinNo="1" style="cursor:pointer;">
		<path d=" M  339.94,  358.73  L  322.95,  358.73  L  322.95,  367.22  L  339.94,  367.22  L  339.94,  358.73 " style="&st2;"/>
		<text style="&st8;" transform="matrix(&st16;  325.46  365.47 )"><tspan style="&st18;" x="0" y="0">Az1</tspan></text>
	</a>
	<a ewd:code="Az1" ewd:figID="15" ewd:figtype="w2w" ewd:pinNo="4" style="cursor:pointer;">
		<path d=" M  288.95,  358.73  L  271.95,  358.73  L  271.95,  367.22  L  288.95,  367.22  L  288.95,  358.73 " style="&st2;"/>
		<text style="&st8;" transform="matrix(&st16;  274.47  365.47 )"><tspan style="&st18;" x="0" y="0">Az1</tspan></text>
	</a>
	<a ewd:code="FA3" ewd:figID="16" ewd:figtype="w2w" ewd:pinNo="4" style="cursor:pointer;">
		<path d=" M  713.88,  316.23  L  696.88,  316.23  L  696.88,  324.73  L  713.88,  324.73  L  713.88,  316.23 " style="&st2;"/>
		<text style="&st8;" transform="matrix(&st16;  698.62  322.98 )"><tspan style="&st18;" x="0" y="0">FA3</tspan></text>
	</a>
	<a ewd:code="Az1" ewd:figID="17" ewd:figtype="w2w" ewd:pinNo="3" style="cursor:pointer;">
		<path d=" M  246.46,  358.73  L  229.46,  358.73  L  229.46,  367.22  L  246.46,  367.22  L  246.46,  358.73 " style="&st2;"/>
		<text style="&st8;" transform="matrix(&st16;  231.97  365.47 )"><tspan style="&st18;" x="0" y="0">Az1</tspan></text>
	</a>
	<a ewd:code="Az1" ewd:figID="18" ewd:figtype="w2w" ewd:pinNo="2" style="cursor:pointer;">
		<path d=" M  212.46,  358.73  L  195.47,  358.73  L  195.47,  367.22  L  212.46,  367.22  L  212.46,  358.73 " style="&st2;"/>
		<text style="&st8;" transform="matrix(&st16;  197.98  365.47 )"><tspan style="&st18;" x="0" y="0">Az1</tspan></text>
	</a>
	<a ewd:code="A1" ewd:figID="19" ewd:figtype="gp" style="cursor:pointer;">
		<path d=" M  193.34,  681.67  L  214.59,  681.67  L  203.97,  697.25  L  193.34,  681.67 " style="&st2;"/>
		<text style="&st8;" transform="matrix(&st16;  199.84  689.83 )"><tspan style="&st18;" x="0" y="0">A1</tspan></text>
	</a>
	<a ewd:code="F1" ewd:figID="20" ewd:figtype="gp" style="cursor:pointer;">
		<path d=" M  720.25,  681.67  L  741.50,  681.67  L  730.88,  697.25  L  720.25,  681.67 " style="&st2;"/>
		<text style="&st8;" transform="matrix(&st16;  726.97  689.83 )"><tspan style="&st18;" x="0" y="0">F1</tspan></text>
	</a>
</g>
</svg>