﻿<?xml version="1.0" encoding="utf-8"?>
<!DOCTYPE svg PUBLIC "-//W3C//DTD SVG 1.0//EN" "http://www.w3.org/TR/2001/REC-SVG-20010904/DTD/svg10.dtd"[
	<!ENTITY ns_flows "http://ns.adobe.com/Flows/1.0/">
	<!ENTITY ns_svg "http://www.w3.org/2000/svg">
	<!ENTITY ns_xlink "http://www.w3.org/1999/xlink">
	<!ENTITY st0 "font-size:7px;font-family:'MS-PGothic';adobe-font-script:japanese;">
	<!ENTITY st1 "font-size:6px;font-family:'ArialMT';">
	<!-- White fill  -->
	<!ENTITY st2 "fill:#FFFFFF;stroke:#000000; stroke-width:1.41;stroke-linecap:round;stroke-linejoin:round;">
	<!-- Yellow fill  -->
	<!ENTITY st3 "fill:#FFFFCC;stroke:#FFFFCC; stroke-width:0.1;stroke-linecap:round;stroke-linejoin:round;">
	<!-- Gray fill  -->
	<!ENTITY st4 "fill:#CCCCCC;stroke:#CCCCCC; stroke-width:0.1;stroke-linecap:round;stroke-linejoin:round;">
	<!-- Light-blue fill -->
	<!ENTITY st5 "fill:#CCECF4;stroke:#000000; stroke-width:1.133;stroke-linecap:round;stroke-linejoin:round;">
	<!ENTITY st6 "fill:none;stroke-linecap:butt; stroke-linejoin:round;">
	<!ENTITY st7 "fill:none;stroke:#000000;stroke-linecap:round;stroke-linejoin:round;">
	<!ENTITY st8 "enable-background:new    ;">
	<!-- Black fill -->
	<!ENTITY st9 "fill:#000000;stroke:#000000; stroke-linecap:round;stroke-linejoin:round;">
	<!-- SRS note   -->
	<!ENTITY st10 "font-size:9px;font-family:'ArialMT';">
	<!ENTITY st11 "font-size:9px;font-family:'Svg Symbol';">
	<!ENTITY st12 "font-size:6px;font-family:'Svg Symbol';">
	<!ENTITY st13 "fill:none;stroke:#ff0000;stroke-linecap:round;stroke-linejoin:round;">
	<!-- Yellow fill  -->
	<!ENTITY st14 "fill:#FFFF00;stroke:#FFFF00; stroke-width:0.1;stroke-linecap:round;stroke-linejoin:round;">
	<!ENTITY st15 "font-size:6px;font-family:'MS-PGothic';adobe-font-script:japanese;">
	<!ENTITY st16 "1.00 0.00 0.00 1.00">
	<!ENTITY st17 "0.00 -1.00 1.00 0.00">
	<!ENTITY st18 "font-size:6px;font-family:'Arial';">
	<!ENTITY st19 "font-size:9px;font-family:'Arial';">
	<!ENTITY st20 "font-size:6px;font-family:'MS-PGothic','MS PGothic';adobe-font-script:japanese;">
	<!ENTITY st21 "font-size:7px;font-family:'MS-PGothic','MS PGothic';adobe-font-script:japanese;">
	<!ATTLIST svg
		xmlns:ewd CDATA #FIXED "http://shcl.co.jp/ewd"
		xmlns:a CDATA #FIXED "http://ns.adobe.com/AdobeSVGViewerExtensions/3.0/"
		ewd:ver CDATA #IMPLIED
	>
	<!ATTLIST a
		ewd:lineID CDATA #IMPLIED
		ewd:groupID CDATA #IMPLIED
		ewd:figtype CDATA #IMPLIED
		ewd:code CDATA #IMPLIED
		ewd:figID CDATA #IMPLIED
		ewd:pinNo CDATA #IMPLIED
		ewd:comment CDATA #IMPLIED >
	<!ATTLIST g
		ewd:lineID CDATA #IMPLIED
		ewd:groupID CDATA #IMPLIED
		ewd:figtype CDATA #IMPLIED
		ewd:code CDATA #IMPLIED
		ewd:figID CDATA #IMPLIED
		ewd:pinNo CDATA #IMPLIED
		ewd:comment CDATA #IMPLIED >
	<!ATTLIST text
		ewd:textID CDATA #IMPLIED >
	<!ATTLIST title
		ewd:textID CDATA #IMPLIED >
]>
<!-- Generator: Shintec Hozumi YS   -->
<svg onload="call_execInitLoadProc_svg('system')" style="overflow:visible;  enable-background:new 0 0 2048.866 710.000" viewBox="0 0 2048.866 710.000" height="710.000" width="2048.866" xml:space="preserve" ewd:ver="L2.1.2.8" xmlns="&ns_svg;" xmlns:a="http://ns.adobe.com/AdobeSVGViewerExtensions/3.0/" xmlns:ewd="http://shcl.co.jp/ewd" xmlns:xlink="&ns_xlink;">
<path d=" M   76.49,   69.77  L   76.49,   78.27 " style="stroke-width: 0.85 ;&st7; " /><path d=" M  384.56,  146.26  L  380.31,  146.26 " style="stroke-width: 1.42 ;&st7; " /><path d=" M  384.56,  137.76  L  380.31,  137.76 " style="stroke-width: 1.42 ;&st7; " /><path d=" M  127.48,   69.77  L  127.48,   78.27 " style="stroke-width: 0.85 ;&st7; " /><path d=" M  178.47,   69.77  L  178.47,   78.27 " style="stroke-width: 0.85 ;&st7; " /><path d=" M   19.12,  103.77  L   14.87,  103.77 " style="stroke-width: 1.42 ;&st7; " /><path d=" M   19.12,   95.27  L   14.87,   95.27 " style="stroke-width: 1.42 ;&st7; " /><path d=" M   17.00,   69.77  L   17.00,   95.27 " style="stroke-width: 0.85 ;&st7; " /><path d=" M  350.57,  137.76  L  346.32,  137.76 " style="stroke-width: 1.42 ;&st7; " /><path d=" M  350.57,  146.26  L  346.32,  146.26 " style="stroke-width: 1.42 ;&st7; " /><path d=" M  127.48,   78.27  L  127.48,  120.77  L  280.45,  120.77  L  280.45,   78.27 " style="stroke-width: 0.85 ;&st7; " /><path d=" M  114.73,   35.78  L  114.73,   78.27  L  140.23,   78.27  L  140.23,   35.78  L  114.73,   35.78 " style="stroke-width: 1.42 ;&st7; " /><path d=" M  178.47,   78.27  L  178.47,  103.77  L  246.46,  103.77  L  246.46,   78.27 " style="stroke-width: 0.85 ;&st7; " /><path d=" M  165.72,   35.78  L  165.72,   78.27  L  191.22,   78.27  L  191.22,   35.78  L  165.72,   35.78 " style="stroke-width: 1.42 ;&st7; " /><path d=" M  229.46,   44.28  L 1665.72,   44.28  L 1665.72,   78.27  L  229.46,   78.27  L  229.46,   44.28 " style="stroke-width: 1.42 ;&st7; " /><path d=" M   63.74,   35.78  L   63.74,   78.27  L   89.24,   78.27  L   89.24,   35.78  L   63.74,   35.78 " style="stroke-width: 1.42 ;&st7; " /><path d=" M   76.49,   78.27  L   76.49,  137.76  L  314.45,  137.76  L  314.45,   78.27 " style="stroke-width: 0.85 ;&st7; " /><path d=" M  450.42,  265.24  L  416.43,  265.24  L  416.43,  282.24 " style="stroke-width: 0.85 ;&st7; " /><path d=" M  449.23,  264.24  L  448.96,  264.71  L  448.87,  265.24  L  448.96,  265.77  L  449.23,  266.24  L  449.65,  266.59  L  450.15,  266.78  L  450.70,  266.78  L  451.20,  266.59  L  451.62,  266.24  L  451.89,  265.77  L  451.98,  265.24  L  451.89,  264.71  L  451.62,  264.24  L  451.20,  263.89  L  450.70,  263.71  L  450.15,  263.71  L  449.65,  263.89  L  449.23,  264.24  L  449.63,  264.95  L  449.63,  265.53  L  450.00,  265.98  L  450.57,  266.08  L  451.08,  265.79  L  451.27,  265.24  L  451.08,  264.69  L  450.57,  264.41  L  450.00,  264.50  L  450.42,  265.24 " style="stroke-width: 0.85 ;&st7; " /><path d=" M  447.59,  707.17  L  453.26,  707.17 " style="stroke-width: 0.85 ;&st7; " /><path d=" M  449.01,  710.00  L  451.84,  710.00 " style="stroke-width: 0.85 ;&st7; " /><path d=" M  450.42,  656.18  L  450.42,  681.67 " style="stroke-width: 0.85 ;&st7; " /><path d=" M  441.93,  656.18  L  441.93,  673.17  L  458.92,  673.17  L  458.92,  656.18  L  441.93,  656.18 " style="stroke-width: 1.42 ;&st7; " /><path d=" M  441.93,  701.50  L  458.92,  701.50 " style="stroke-width: 0.85 ;&st7; " /><path d=" M  450.42,  697.25  L  450.42,  701.50 " style="stroke-width: 0.85 ;&st7; " /><path d=" M  446.18,  704.33  L  454.67,  704.33 " style="stroke-width: 0.85 ;&st7; " /><path d=" M  450.42,  248.24  L  450.42,  282.24 " style="stroke-width: 0.85 ;&st7; " /><path d=" M  407.93,  273.74  L  458.92,  273.74 " style="stroke-width: 1.13 ;&st7;stroke-dasharray:3, 1.5;" /><path d=" M  407.93,  256.74  L  458.92,  256.74 " style="stroke-width: 1.13 ;&st7;stroke-dasharray:3, 1.5;" /><path d=" M  407.93,  248.24  L  407.93,  282.24  L  458.92,  282.24  L  458.92,  248.24  L  407.93,  248.24 " style="stroke-width: 1.42 ;&st7; " /><path d=" M  382.44,  137.76  L  382.44,   78.27 " style="stroke-width: 0.85 ;&st7; " /><path d=" M  382.44,  132.87  L  379.60,  130.03  L  379.60,  134.28  L  382.44,  137.12  L  385.27,  134.28  L  385.27,  130.03  L  382.44,  132.87 " style="stroke-width: 0.28 ;&st9;" /><path d=" M   29.75,   78.27  L   29.75,   35.78  L    4.25,   35.78  L    4.25,   78.27  L   29.75,   78.27 " style="stroke-width: 1.42 ;&st7; " /><path d=" M   17.00,   90.37  L   14.16,   87.54  L   14.16,   91.79  L   17.00,   94.62  L   19.83,   91.79  L   19.83,   87.54  L   17.00,   90.37 " style="stroke-width: 0.28 ;&st9;" /><path d=" M  348.44,  132.87  L  345.61,  130.03  L  345.61,  134.28  L  348.44,  137.12  L  351.27,  134.28  L  351.27,  130.03  L  348.44,  132.87 " style="stroke-width: 0.28 ;&st9;" /><path d=" M  348.44,  137.76  L  348.44,   78.27 " style="stroke-width: 0.85 ;&st7; " /><path d=" M   76.49,   47.11  C   73.75    48.72    72.84    52.25    74.45    54.99 " style="stroke-width: 1.42 ;&st7; " /><path d=" M   74.45,   54.99  C   74.97    55.87    75.61    56.51    76.49    57.03 " style="stroke-width: 1.42 ;&st7; " /><path d=" M   76.49,   66.94  C   79.23    65.33    80.14    61.80    78.52    59.06 " style="stroke-width: 1.42 ;&st7; " /><path d=" M   78.52,   59.06  C   78.00    58.18    77.37    57.55    76.49    57.03 " style="stroke-width: 1.42 ;&st7; " /><path d=" M   77.90,   45.69  C   77.90    44.91    77.27    44.28    76.49    44.28 " style="stroke-width: 0.85 ;&st7; " /><path d=" M   76.49,   44.28  C   75.70    44.28    75.07    44.91    75.07    45.69 " style="stroke-width: 0.85 ;&st7; " /><path d=" M   75.07,   45.69  C   75.07    46.48    75.70    47.11    76.49    47.11 " style="stroke-width: 0.85 ;&st7; " /><path d=" M   76.49,   47.11  C   77.27    47.11    77.90    46.48    77.90    45.69 " style="stroke-width: 0.85 ;&st7; " /><path d=" M   77.90,   68.36  C   77.90    67.57    77.27    66.94    76.49    66.94 " style="stroke-width: 0.85 ;&st7; " /><path d=" M   76.49,   66.94  C   75.70    66.94    75.07    67.57    75.07    68.36 " style="stroke-width: 0.85 ;&st7; " /><path d=" M   75.07,   68.36  C   75.07    69.14    75.70    69.77    76.49    69.77 " style="stroke-width: 0.85 ;&st7; " /><path d=" M   76.49,   69.77  C   77.27    69.77    77.90    69.14    77.90    68.36 " style="stroke-width: 0.85 ;&st7; " /><path d=" M  420.96,  286.77  C  420.96   284.27   418.93   282.24   416.43   282.24 " style="stroke-width: 1.42 ;&st7; " /><path d=" M  416.43,  282.24  C  413.93   282.24   411.90   284.27   411.90   286.77 " style="stroke-width: 1.42 ;&st7; " /><path d=" M  411.90,  286.77  C  411.90   289.27   413.93   291.30   416.43   291.30 " style="stroke-width: 1.42 ;&st7; " /><path d=" M  416.43,  291.30  C  418.93   291.30   420.96   289.27   420.96   286.77 " style="stroke-width: 1.42 ;&st7; " /><path d=" M  454.96,  286.77  C  454.96   284.27   452.93   282.24   450.42   282.24 " style="stroke-width: 1.42 ;&st7; " /><path d=" M  450.42,  282.24  C  447.92   282.24   445.89   284.27   445.89   286.77 " style="stroke-width: 1.42 ;&st7; " /><path d=" M  445.89,  286.77  C  445.89   289.27   447.92   291.30   450.42   291.30 " style="stroke-width: 1.42 ;&st7; " /><path d=" M  450.42,  291.30  C  452.93   291.30   454.96   289.27   454.96   286.77 " style="stroke-width: 1.42 ;&st7; " /><path d=" M  454.96,  243.71  C  454.96   241.21   452.93   239.18   450.42   239.18 " style="stroke-width: 1.42 ;&st7; " /><path d=" M  450.42,  239.18  C  447.92   239.18   445.89   241.21   445.89   243.71 " style="stroke-width: 1.42 ;&st7; " /><path d=" M  445.89,  243.71  C  445.89   246.21   447.92   248.24   450.42   248.24 " style="stroke-width: 1.42 ;&st7; " /><path d=" M  450.42,  248.24  C  452.93   248.24   454.96   246.21   454.96   243.71 " style="stroke-width: 1.42 ;&st7; " /><path d=" M  454.96,   82.80  C  454.96    80.30   452.93    78.27   450.42    78.27 " style="stroke-width: 1.42 ;&st7; " /><path d=" M  450.42,   78.27  C  447.92    78.27   445.89    80.30   445.89    82.80 " style="stroke-width: 1.42 ;&st7; " /><path d=" M  445.89,   82.80  C  445.89    85.31   447.92    87.34   450.42    87.34 " style="stroke-width: 1.42 ;&st7; " /><path d=" M  450.42,   87.34  C  452.93    87.34   454.96    85.31   454.96    82.80 " style="stroke-width: 1.42 ;&st7; " /><path d=" M  388.81,  142.01  C  388.81   139.66   386.91   137.76   384.56   137.76 " style="stroke-width: 1.42 ;&st7; " /><path d=" M  384.56,  146.26  C  386.91   146.26   388.81   144.36   388.81   142.01 " style="stroke-width: 1.42 ;&st7; " /><path d=" M  376.06,  142.01  C  376.06   144.36   377.96   146.26   380.31   146.26 " style="stroke-width: 1.42 ;&st7; " /><path d=" M  380.31,  137.76  C  377.96   137.76   376.06   139.66   376.06   142.01 " style="stroke-width: 1.42 ;&st7; " /><path d=" M  128.90,   68.36  C  128.90    67.57   128.26    66.94   127.48    66.94 " style="stroke-width: 0.85 ;&st7; " /><path d=" M  127.48,   66.94  C  126.70    66.94   126.06    67.57   126.06    68.36 " style="stroke-width: 0.85 ;&st7; " /><path d=" M  126.06,   68.36  C  126.06    69.14   126.70    69.77   127.48    69.77 " style="stroke-width: 0.85 ;&st7; " /><path d=" M  127.48,   69.77  C  128.26    69.77   128.90    69.14   128.90    68.36 " style="stroke-width: 0.85 ;&st7; " /><path d=" M  128.90,   45.69  C  128.90    44.91   128.26    44.28   127.48    44.28 " style="stroke-width: 0.85 ;&st7; " /><path d=" M  127.48,   44.28  C  126.70    44.28   126.06    44.91   126.06    45.69 " style="stroke-width: 0.85 ;&st7; " /><path d=" M  126.06,   45.69  C  126.06    46.48   126.70    47.11   127.48    47.11 " style="stroke-width: 0.85 ;&st7; " /><path d=" M  127.48,   47.11  C  128.26    47.11   128.90    46.48   128.90    45.69 " style="stroke-width: 0.85 ;&st7; " /><path d=" M  127.48,   66.94  C  130.22    65.33   131.13    61.80   129.52    59.06 " style="stroke-width: 1.42 ;&st7; " /><path d=" M  129.52,   59.06  C  129.00    58.18   128.36    57.55   127.48    57.03 " style="stroke-width: 1.42 ;&st7; " /><path d=" M  127.48,   47.11  C  124.74    48.72   123.83    52.25   125.44    54.99 " style="stroke-width: 1.42 ;&st7; " /><path d=" M  125.44,   54.99  C  125.96    55.87   126.60    56.51   127.48    57.03 " style="stroke-width: 1.42 ;&st7; " /><path d=" M  178.47,   47.11  C  175.73    48.72   174.82    52.25   176.43    54.99 " style="stroke-width: 1.42 ;&st7; " /><path d=" M  176.43,   54.99  C  176.95    55.87   177.59    56.51   178.47    57.03 " style="stroke-width: 1.42 ;&st7; " /><path d=" M  178.47,   66.94  C  181.21    65.33   182.12    61.80   180.51    59.06 " style="stroke-width: 1.42 ;&st7; " /><path d=" M  180.51,   59.06  C  179.99    58.18   179.35    57.55   178.47    57.03 " style="stroke-width: 1.42 ;&st7; " /><path d=" M  179.89,   45.69  C  179.89    44.91   179.25    44.28   178.47    44.28 " style="stroke-width: 0.85 ;&st7; " /><path d=" M  178.47,   44.28  C  177.69    44.28   177.05    44.91   177.05    45.69 " style="stroke-width: 0.85 ;&st7; " /><path d=" M  177.05,   45.69  C  177.05    46.48   177.69    47.11   178.47    47.11 " style="stroke-width: 0.85 ;&st7; " /><path d=" M  178.47,   47.11  C  179.25    47.11   179.89    46.48   179.89    45.69 " style="stroke-width: 0.85 ;&st7; " /><path d=" M  179.89,   68.36  C  179.89    67.57   179.25    66.94   178.47    66.94 " style="stroke-width: 0.85 ;&st7; " /><path d=" M  178.47,   66.94  C  177.69    66.94   177.05    67.57   177.05    68.36 " style="stroke-width: 0.85 ;&st7; " /><path d=" M  177.05,   68.36  C  177.05    69.14   177.69    69.77   178.47    69.77 " style="stroke-width: 0.85 ;&st7; " /><path d=" M  178.47,   69.77  C  179.25    69.77   179.89    69.14   179.89    68.36 " style="stroke-width: 0.85 ;&st7; " /><path d=" M   23.37,   99.52  C   23.37    97.17    21.47    95.27    19.12    95.27 " style="stroke-width: 1.42 ;&st7; " /><path d=" M   19.12,  103.77  C   21.47   103.77    23.37   101.87    23.37    99.52 " style="stroke-width: 1.42 ;&st7; " /><path d=" M   10.62,   99.52  C   10.62   101.87    12.53   103.77    14.87   103.77 " style="stroke-width: 1.42 ;&st7; " /><path d=" M   14.87,   95.27  C   12.53    95.27    10.62    97.17    10.62    99.52 " style="stroke-width: 1.42 ;&st7; " /><path d=" M   18.41,   68.36  C   18.41    67.57    17.78    66.94    17.00    66.94 " style="stroke-width: 0.85 ;&st7; " /><path d=" M   17.00,   66.94  C   16.21    66.94    15.58    67.57    15.58    68.36 " style="stroke-width: 0.85 ;&st7; " /><path d=" M   15.58,   68.36  C   15.58    69.14    16.21    69.77    17.00    69.77 " style="stroke-width: 0.85 ;&st7; " /><path d=" M   17.00,   69.77  C   17.78    69.77    18.41    69.14    18.41    68.36 " style="stroke-width: 0.85 ;&st7; " /><path d=" M   18.41,   45.69  C   18.41    44.91    17.78    44.28    17.00    44.28 " style="stroke-width: 0.85 ;&st7; " /><path d=" M   17.00,   44.28  C   16.21    44.28    15.58    44.91    15.58    45.69 " style="stroke-width: 0.85 ;&st7; " /><path d=" M   15.58,   45.69  C   15.58    46.48    16.21    47.11    17.00    47.11 " style="stroke-width: 0.85 ;&st7; " /><path d=" M   17.00,   47.11  C   17.78    47.11    18.41    46.48    18.41    45.69 " style="stroke-width: 0.85 ;&st7; " /><path d=" M   17.00,   66.94  C   19.74    65.33    20.65    61.80    19.03    59.06 " style="stroke-width: 1.42 ;&st7; " /><path d=" M   19.03,   59.06  C   18.51    58.18    17.88    57.55    17.00    57.03 " style="stroke-width: 1.42 ;&st7; " /><path d=" M   17.00,   47.11  C   14.26    48.72    13.35    52.25    14.96    54.99 " style="stroke-width: 1.42 ;&st7; " /><path d=" M   14.96,   54.99  C   15.48    55.87    16.12    56.51    17.00    57.03 " style="stroke-width: 1.42 ;&st7; " /><path d=" M  346.32,  137.76  C  343.97   137.76   342.07   139.66   342.07   142.01 " style="stroke-width: 1.42 ;&st7; " /><path d=" M  342.07,  142.01  C  342.07   144.36   343.97   146.26   346.32   146.26 " style="stroke-width: 1.42 ;&st7; " /><path d=" M  350.57,  146.26  C  352.91   146.26   354.82   144.36   354.82   142.01 " style="stroke-width: 1.42 ;&st7; " /><path d=" M  354.82,  142.01  C  354.82   139.66   352.91   137.76   350.57   137.76 " style="stroke-width: 1.42 ;&st7; " /><text style="&st18;" transform="matrix(&st16;  144.78  56.17 )">7.5A <tspan dy="6" x="0">ACC</tspan></text><text style="&st18;" transform="matrix(&st16;  195.78  53.34 )">10A <tspan dy="6" x="0">ECU-IG </tspan><tspan dy="6" x="0">NO.2</tspan></text><text style="&st18;" transform="matrix(&st16;  235.71  86.47 )">32</text><text style="&st18;" transform="matrix(&st16;  269.71  86.47 )">29</text><text style="&st18;" transform="matrix(&st16;  242.71  74.58 )">IG</text><text style="&st18;" transform="matrix(&st16;  273.18  74.58 )">ACC</text><text style="&st18;" transform="matrix(&st16;  172.39  32.08 )">(IG)</text><text style="&st18;" transform="matrix(&st16;  117.87  32.08 )">(ACC)</text><text style="&st18;" transform="matrix(&st16;  67.37  32.08 )">(BAT)</text><text style="&st18;" transform="matrix(&st16;  93.79  53.34 )">25A <tspan dy="6" x="0">D/L </tspan><tspan dy="6" x="0">NO.2</tspan></text><text style="&st18;" transform="matrix(&st16;  305.69  74.58 )">ALTB</text><text style="&st18;" transform="matrix(&st16;  304.48  86.47 )">31</text><text style="&st18;" transform="matrix(&st16;  235.44  33.47 )">F9(B),F10(C)</text><text ewd:textID="18" style="&st18;" transform="matrix(&st16;  235.44  40.58 )">Main Body ECU</text><text style="&st18;" transform="matrix(&st17;  446.73  417.42 )">W-B</text><text style="&st18;" transform="matrix(&st16;  462.06  250.19 )">F55(A),F56(B)</text><text ewd:textID="15" style="&st18;" transform="matrix(&st16;  462.06  257.3 )">Junction <tspan dy="6" x="0">Connector</tspan></text><text style="&st18;" transform="matrix(&st16;  443.63  652.49 )">5</text><text style="&st18;" transform="matrix(&st16;  439.55  288.74 )">3</text><text style="&st18;" transform="matrix(&st16;  448.09  288.74 )">A</text><text style="&st18;" transform="matrix(&st16;  439.55  245.68 )">5</text><text style="&st18;" transform="matrix(&st16;  448.09  245.68 )">B</text><text style="&st18;" transform="matrix(&st17;  446.73  179.46 )">W-B</text><text style="&st18;" transform="matrix(&st16;  439.55  84.77 )">3</text><text style="&st18;" transform="matrix(&st16;  447.95  84.77 )">C</text><text style="&st18;" transform="matrix(&st16;  440.75  74.58 )">GND2</text><text style="&st18;" transform="matrix(&st17;  378.74  179.46 )">W-B</text><text style="&st18;" transform="matrix(&st16;  406.33  288.74 )">1</text><text style="&st18;" transform="matrix(&st16;  369.75  143.98 )">4</text><text style="&st18;" transform="matrix(&st16;  378.13  143.98 )">2B</text><text style="&st18;" transform="matrix(&st16;  373.25  86.47 )">11</text><text style="&st18;" transform="matrix(&st16;  373.15  74.58 )">GND1</text><text style="&st18;" transform="matrix(&st16;  462.06  658.12 )">F63</text><text ewd:textID="15" style="&st18;" transform="matrix(&st16;  462.06  665.23 )">Junction <tspan dy="6" x="0">Connector</tspan></text><text style="&st18;" transform="matrix(&st16;  414.1  288.74 )">A</text><text style="&st18;" transform="matrix(&st17;  13.3  173.73 )">L</text><text style="&st18;" transform="matrix(&st16;  10.21  86.47 )">2</text><text style="&st18;" transform="matrix(&st16;  34.3  56.17 )">10A <tspan dy="6" x="0">ECU-B</tspan></text><text style="&st18;" transform="matrix(&st16;  15.41  101.49 )">1</text><text style="&st18;" transform="matrix(&st16;  7.88  32.08 )">(BAT)</text><text style="&st18;" transform="matrix(&st16;  343.99  143.98 )">2D</text><text style="&st18;" transform="matrix(&st16;  331.8  143.98 )">39</text><text style="&st18;" transform="matrix(&st16;  338.83  74.58 )">BECU</text><text style="&st18;" transform="matrix(&st16;  337.7  86.47 )">30</text><text style="&st18;" transform="matrix(&st17;  344.75  173.73 )">L</text></svg>