﻿<?xml version="1.0" encoding="utf-8"?>
<!DOCTYPE svg PUBLIC "-//W3C//DTD SVG 1.0//EN" "http://www.w3.org/TR/2001/REC-SVG-20010904/DTD/svg10.dtd"[
	<!ENTITY ns_flows "http://ns.adobe.com/Flows/1.0/">
	<!ENTITY ns_svg "http://www.w3.org/2000/svg">
	<!ENTITY ns_xlink "http://www.w3.org/1999/xlink">
	<!ENTITY st0 "font-size:7px;font-family:'MS-PGothic';adobe-font-script:japanese;">
	<!ENTITY st1 "font-size:6px;font-family:'ArialMT';">
	<!-- White fill  -->
	<!ENTITY st2 "fill:#FFFFFF;stroke:#000000; stroke-width:1.41;stroke-linecap:round;stroke-linejoin:round;">
	<!-- Yellow fill  -->
	<!ENTITY st3 "fill:#FFFFCC;stroke:#FFFFCC; stroke-width:0.1;stroke-linecap:round;stroke-linejoin:round;">
	<!-- Gray fill  -->
	<!ENTITY st4 "fill:#CCCCCC;stroke:#CCCCCC; stroke-width:0.1;stroke-linecap:round;stroke-linejoin:round;">
	<!-- Light-blue fill -->
	<!ENTITY st5 "fill:#CCECF4;stroke:#000000; stroke-width:1.133;stroke-linecap:round;stroke-linejoin:round;">
	<!ENTITY st6 "fill:none;stroke-linecap:butt; stroke-linejoin:round;">
	<!ENTITY st7 "fill:none;stroke:#000000;stroke-linecap:round;stroke-linejoin:round;">
	<!ENTITY st8 "enable-background:new    ;">
	<!-- Black fill -->
	<!ENTITY st9 "fill:#000000;stroke:#000000; stroke-linecap:round;stroke-linejoin:round;">
	<!-- SRS note   -->
	<!ENTITY st10 "font-size:9px;font-family:'ArialMT';">
	<!ENTITY st11 "font-size:9px;font-family:'Svg Symbol';">
	<!ENTITY st12 "font-size:6px;font-family:'Svg Symbol';">
	<!ENTITY st13 "fill:none;stroke:#ff0000;stroke-linecap:round;stroke-linejoin:round;">
	<!-- Yellow fill  -->
	<!ENTITY st14 "fill:#FFFF00;stroke:#FFFF00; stroke-width:0.1;stroke-linecap:round;stroke-linejoin:round;">
	<!ENTITY st15 "font-size:6px;font-family:'MS-PGothic';adobe-font-script:japanese;">
	<!ENTITY st16 "1.00 0.00 0.00 1.00">
	<!ENTITY st17 "0.00 -1.00 1.00 0.00">
	<!ENTITY st18 "font-size:6px;font-family:'Arial';">
	<!ENTITY st19 "font-size:9px;font-family:'Arial';">
	<!ENTITY st20 "font-size:6px;font-family:'MS-PGothic','MS PGothic';adobe-font-script:japanese;">
	<!ENTITY st21 "font-size:7px;font-family:'MS-PGothic','MS PGothic';adobe-font-script:japanese;">
	<!ATTLIST svg
		xmlns:ewd CDATA #FIXED "http://shcl.co.jp/ewd"
		xmlns:a CDATA #FIXED "http://ns.adobe.com/AdobeSVGViewerExtensions/3.0/"
		ewd:ver CDATA #IMPLIED
	>
	<!ATTLIST a
		ewd:lineID CDATA #IMPLIED
		ewd:groupID CDATA #IMPLIED
		ewd:figtype CDATA #IMPLIED
		ewd:code CDATA #IMPLIED
		ewd:figID CDATA #IMPLIED
		ewd:pinNo CDATA #IMPLIED
		ewd:comment CDATA #IMPLIED >
	<!ATTLIST g
		ewd:lineID CDATA #IMPLIED
		ewd:groupID CDATA #IMPLIED
		ewd:figtype CDATA #IMPLIED
		ewd:code CDATA #IMPLIED
		ewd:figID CDATA #IMPLIED
		ewd:pinNo CDATA #IMPLIED
		ewd:comment CDATA #IMPLIED >
	<!ATTLIST text
		ewd:textID CDATA #IMPLIED >
	<!ATTLIST title
		ewd:textID CDATA #IMPLIED >
]>
<!-- Generator: Shintec Hozumi YS   -->
<svg onload="call_execInitLoadProc_svg('system')" style="overflow:visible;  enable-background:new 0 0 2009.526 710.000" viewBox="0 0 2009.526 710.000" height="710.000" width="2009.526" xml:space="preserve" ewd:ver="L2.1.2.8" xmlns="&ns_svg;" xmlns:a="http://ns.adobe.com/AdobeSVGViewerExtensions/3.0/" xmlns:ewd="http://shcl.co.jp/ewd" xmlns:xlink="&ns_xlink;">
<path d=" M  195.47,  460.71  L  203.97,  460.71 " style="stroke-width: 1.42 ;&st7; " /><path d=" M  152.97,  460.71  L  161.47,  460.71 " style="stroke-width: 1.42 ;&st7; " /><path d=" M   33.99,  460.71  L   42.49,  460.71 " style="stroke-width: 1.42 ;&st7; " /><path d=" M   93.48,  460.71  L  101.98,  460.71 " style="stroke-width: 1.42 ;&st7; " /><path d=" M  288.95,  333.23  L  288.95,  384.22  L  781.87,  384.22  L  781.87,  333.23  L  288.95,  333.23 " style="stroke-width: 1.42 ;&st7; " /><path d=" M  458.92,  350.23  L  773.37,  350.23  L  773.37,  384.22 " style="stroke-width: 0.85 ;&st7; " /><path d=" M  399.43,  333.23  L  399.43,  384.22 " style="stroke-width: 0.85 ;&st7; " /><path d=" M  458.92,  333.23  L  458.92,  384.22 " style="stroke-width: 0.85 ;&st7; " /><path d=" M  457.73,  349.22  L  457.46,  349.69  L  457.37,  350.23  L  457.46,  350.76  L  457.73,  351.23  L  458.14,  351.58  L  458.65,  351.76  L  459.20,  351.76  L  459.70,  351.58  L  460.12,  351.23  L  460.39,  350.76  L  460.48,  350.23  L  460.39,  349.69  L  460.12,  349.22  L  459.70,  348.88  L  459.20,  348.69  L  458.65,  348.69  L  458.14,  348.88  L  457.73,  349.22  L  458.12,  349.94  L  458.12,  350.52  L  458.50,  350.96  L  459.07,  351.06  L  459.57,  350.77  L  459.77,  350.23  L  459.57,  349.68  L  459.07,  349.39  L  458.50,  349.49  L  458.92,  350.23 " style="stroke-width: 0.85 ;&st7; " /><path d=" M  398.24,  366.22  L  397.97,  366.69  L  397.88,  367.22  L  397.97,  367.76  L  398.24,  368.23  L  398.65,  368.57  L  399.16,  368.76  L  399.71,  368.76  L  400.21,  368.57  L  400.63,  368.23  L  400.90,  367.76  L  400.99,  367.22  L  400.90,  366.69  L  400.63,  366.22  L  400.21,  365.88  L  399.71,  365.69  L  399.16,  365.69  L  398.65,  365.88  L  398.24,  366.22  L  398.63,  366.93  L  398.63,  367.52  L  399.01,  367.96  L  399.58,  368.06  L  400.08,  367.77  L  400.28,  367.22  L  400.08,  366.68  L  399.58,  366.39  L  399.01,  366.49  L  399.43,  367.22 " style="stroke-width: 0.85 ;&st7; " /><path d=" M  382.44,  188.75  L  382.44,  231.25  L  475.92,  231.25  L  475.92,  188.75  L  382.44,  188.75 " style="stroke-width: 1.42 ;&st7; " /><path d=" M  382.44,  554.19  L  475.92,  554.19  L  475.92,  596.69  L  382.44,  596.69  L  382.44,  554.19 " style="stroke-width: 1.42 ;&st7; " /><path d=" M  399.43,  367.22  L  713.88,  367.22  L  713.88,  384.22 " style="stroke-width: 0.85 ;&st7; " /><path d=" M  199.72,  451.64  L  203.97,  455.89  L  208.22,  451.64 " style="stroke-width: 1.42 ;&st7; " /><path d=" M  208.22,  455.04  L  203.97,  459.29  L  199.72,  455.04 " style="stroke-width: 1.42 ;&st7; " /><path d=" M  157.22,  451.64  L  161.47,  455.89  L  165.72,  451.64 " style="stroke-width: 1.42 ;&st7; " /><path d=" M   33.99,  333.23  L   33.99,  384.22  L  212.46,  384.22  L  212.46,  333.23  L   33.99,  333.23 " style="stroke-width: 1.42 ;&st7; " /><path d=" M   38.24,  451.64  L   42.49,  455.89  L   46.74,  451.64 " style="stroke-width: 1.42 ;&st7; " /><path d=" M   25.50,  188.75  L   25.50,  231.25  L  118.98,  231.25  L  118.98,  188.75  L   25.50,  188.75 " style="stroke-width: 1.42 ;&st7; " /><path d=" M  165.72,  455.04  L  161.47,  459.29  L  157.22,  455.04 " style="stroke-width: 1.42 ;&st7; " /><path d=" M   42.49,  333.23  L   42.49,  384.22 " style="stroke-width: 0.85 ;&st7; " /><path d=" M   25.50,  554.19  L  118.98,  554.19  L  118.98,  596.69  L   25.50,  596.69  L   25.50,  554.19 " style="stroke-width: 1.42 ;&st7; " /><path d=" M  106.23,  455.04  L  101.98,  459.29  L   97.73,  455.04 " style="stroke-width: 1.42 ;&st7; " /><path d=" M   97.73,  451.64  L  101.98,  455.89  L  106.23,  451.64 " style="stroke-width: 1.42 ;&st7; " /><path d=" M   46.74,  455.04  L   42.49,  459.29  L   38.24,  455.04 " style="stroke-width: 1.42 ;&st7; " /><path d=" M   41.30,  366.22  L   41.03,  366.69  L   40.93,  367.22  L   41.03,  367.76  L   41.30,  368.23  L   41.71,  368.57  L   42.22,  368.76  L   42.76,  368.76  L   43.27,  368.57  L   43.69,  368.23  L   43.96,  367.76  L   44.05,  367.22  L   43.96,  366.69  L   43.69,  366.22  L   43.27,  365.88  L   42.76,  365.69  L   42.22,  365.69  L   41.71,  365.88  L   41.30,  366.22  L   41.69,  366.93  L   41.69,  367.52  L   42.07,  367.96  L   42.64,  368.06  L   43.14,  367.77  L   43.34,  367.22  L   43.14,  366.68  L   42.64,  366.39  L   42.07,  366.49  L   42.49,  367.22 " style="stroke-width: 0.85 ;&st7; " /><path d=" M  101.98,  333.23  L  101.98,  384.22 " style="stroke-width: 0.85 ;&st7; " /><path d=" M  101.98,  350.23  L  203.97,  350.23  L  203.97,  384.22 " style="stroke-width: 0.85 ;&st7; " /><path d=" M   42.49,  367.22  L  161.47,  367.22  L  161.47,  384.22 " style="stroke-width: 0.85 ;&st7; " /><path d=" M  458.92,  350.23  L  297.45,  350.23  L  297.45,  384.22 " style="stroke-width: 0.85 ;&st7; " /><path d=" M  399.43,  367.22  L  348.44,  367.22  L  348.44,  384.22 " style="stroke-width: 0.85 ;&st7; " /><path d=" M  100.79,  349.22  L  100.52,  349.69  L  100.42,  350.23  L  100.52,  350.76  L  100.79,  351.23  L  101.20,  351.58  L  101.71,  351.76  L  102.25,  351.76  L  102.76,  351.58  L  103.18,  351.23  L  103.45,  350.76  L  103.54,  350.23  L  103.45,  349.69  L  103.18,  349.22  L  102.76,  348.88  L  102.25,  348.69  L  101.71,  348.69  L  101.20,  348.88  L  100.79,  349.22  L  101.18,  349.94  L  101.18,  350.52  L  101.56,  350.96  L  102.13,  351.06  L  102.63,  350.77  L  102.83,  350.23  L  102.63,  349.68  L  102.13,  349.39  L  101.56,  349.49  L  101.98,  350.23 " style="stroke-width: 0.85 ;&st7; " /><path d=" M   47.03,  235.78  C   47.03   233.28    45.00   231.25    42.49   231.25 " style="stroke-width: 1.42 ;&st7; " /><path d=" M   42.49,  231.25  C   39.99   231.25    37.96   233.28    37.96   235.78 " style="stroke-width: 1.42 ;&st7; " /><path d=" M   37.96,  235.78  C   37.96   238.28    39.99   240.31    42.49   240.31 " style="stroke-width: 1.42 ;&st7; " /><path d=" M   42.49,  240.31  C   45.00   240.31    47.03   238.28    47.03   235.78 " style="stroke-width: 1.42 ;&st7; " /><path d=" M  106.52,  235.78  C  106.52   233.28   104.49   231.25   101.98   231.25 " style="stroke-width: 1.42 ;&st7; " /><path d=" M  101.98,  231.25  C   99.48   231.25    97.45   233.28    97.45   235.78 " style="stroke-width: 1.42 ;&st7; " /><path d=" M   97.45,  235.78  C   97.45   238.28    99.48   240.31   101.98   240.31 " style="stroke-width: 1.42 ;&st7; " /><path d=" M  101.98,  240.31  C  104.49   240.31   106.52   238.28   106.52   235.78 " style="stroke-width: 1.42 ;&st7; " /><path d=" M  463.46,  235.78  C  463.46   233.28   461.43   231.25   458.92   231.25 " style="stroke-width: 1.42 ;&st7; " /><path d=" M  458.92,  231.25  C  456.42   231.25   454.39   233.28   454.39   235.78 " style="stroke-width: 1.42 ;&st7; " /><path d=" M  454.39,  235.78  C  454.39   238.28   456.42   240.31   458.92   240.31 " style="stroke-width: 1.42 ;&st7; " /><path d=" M  458.92,  240.31  C  461.43   240.31   463.46   238.28   463.46   235.78 " style="stroke-width: 1.42 ;&st7; " /><path d=" M  403.97,  235.78  C  403.97   233.28   401.94   231.25   399.43   231.25 " style="stroke-width: 1.42 ;&st7; " /><path d=" M  399.43,  231.25  C  396.93   231.25   394.90   233.28   394.90   235.78 " style="stroke-width: 1.42 ;&st7; " /><path d=" M  394.90,  235.78  C  394.90   238.28   396.93   240.31   399.43   240.31 " style="stroke-width: 1.42 ;&st7; " /><path d=" M  399.43,  240.31  C  401.94   240.31   403.97   238.28   403.97   235.78 " style="stroke-width: 1.42 ;&st7; " /><text style="&st18;" transform="matrix(&st16;  392.64  392.41 )">7</text><text style="&st18;" transform="matrix(&st16;  154.68  392.41 )">2</text><text style="&st18;" transform="matrix(&st17;  293.75  430.07 )">W</text><text style="&st18;" transform="matrix(&st16;  341.65  392.41 )">3</text><text style="&st18;" transform="matrix(&st16;  147.44  466.93 )">1</text><text style="&st18;" transform="matrix(&st16;  449.67  561.83 )">CANL</text><text style="&st18;" transform="matrix(&st16;  449.67  227.55 )">CANL</text><text style="&st18;" transform="matrix(&st16;  392.64  329.54 )">5</text><text style="&st18;" transform="matrix(&st16;  189.15  466.93 )">2</text><text style="&st18;" transform="matrix(&st17;  395.74  284.57 )">Y</text><text style="&st18;" transform="matrix(&st17;  455.23  285.59 )">W</text><text style="&st18;" transform="matrix(&st17;  395.74  429.47 )">G</text><text style="&st18;" transform="matrix(&st17;  455.23  430.07 )">W</text><text style="&st18;" transform="matrix(&st16;  448.96  329.54 )">16</text><text style="&st18;" transform="matrix(&st16;  389.68  227.55 )">CANH</text><text style="&st18;" transform="matrix(&st16;  379.91  177.67 )">F33(A)</text><text ewd:textID="5" style="&st18;" transform="matrix(&st16;  379.91  184.77 )">Airbag Sensor Assembly</text><text ewd:textID="14" style="&st18;" transform="matrix(&st16;  379.91  611.4 )">Steering Sensor</text><text style="&st18;" transform="matrix(&st16;  379.91  604.3 )">F19</text><text style="&st18;" transform="matrix(&st16;  392.64  550.5 )">4</text><text style="&st18;" transform="matrix(&st16;  452.13  550.5 )">3</text><text style="&st18;" transform="matrix(&st16;  389.68  561.83 )">CANH</text><text style="&st18;" transform="matrix(&st17;  344.75  431.94 )">GR</text><text style="&st18;" transform="matrix(&st16;  287.48  392.41 )">14</text><text style="&st18;" transform="matrix(&st16;  92.73  561.83 )">CANL</text><text style="&st18;" transform="matrix(&st16;  95.19  550.5 )">2</text><text style="&st18;" transform="matrix(&st16;  95.19  392.41 )">6</text><text style="&st18;" transform="matrix(&st16;  40.16  237.75 )">A</text><text style="&st18;" transform="matrix(&st16;  29.21  237.75 )">11</text><text style="&st18;" transform="matrix(&st16;  99.65  237.75 )">A</text><text style="&st18;" transform="matrix(&st16;  87.15  237.75 )">25</text><text style="&st18;" transform="matrix(&st16;  444.09  237.75 )">22</text><text style="&st18;" transform="matrix(&st16;  456.59  237.75 )">A</text><text style="&st18;" transform="matrix(&st16;  385.38  237.75 )">13</text><text style="&st18;" transform="matrix(&st16;  397.1  237.75 )">A</text><text style="&st18;" transform="matrix(&st16;  122.75  635.48 )">LG</text><text style="&st18;" transform="matrix(&st16;  121.69  646.81 )">(*1)</text><text style="&st18;" transform="matrix(&st16;  124.12  660.98 )">W</text><text style="&st18;" transform="matrix(&st16;  121.69  672.31 )">(*1)</text><text style="&st18;" transform="matrix(&st16;  32.81  592.99 )">MSCL</text><text style="&st18;" transform="matrix(&st16;  91.81  592.99 )">MSCH</text><text style="&st18;" transform="matrix(&st16;  31.75  604.88 )">24</text><text style="&st18;" transform="matrix(&st16;  91.24  604.88 )">23</text><text ewd:textID="9" style="&st18;" transform="matrix(&st16;  286.43  329.53 )">Junction Connector</text><text style="&st18;" transform="matrix(&st16;  286.43  322.71 )">F59</text><text style="&st18;" transform="matrix(&st17;  98.29  506.56 )">W</text><text style="&st18;" transform="matrix(&st17;  38.8  505.18 )">L</text><text style="&st18;" transform="matrix(&st16;  92.73  227.55 )">CANL</text><text style="&st18;" transform="matrix(&st16;  35.7  392.41 )">3</text><text style="&st18;" transform="matrix(&st16;  95.19  329.54 )">4</text><text style="&st18;" transform="matrix(&st16;  32.74  561.83 )">CANH</text><text style="&st18;" transform="matrix(&st16;  448.96  392.41 )">18</text><text style="&st18;" transform="matrix(&st17;  38.8  428.69 )">L</text><text style="&st18;" transform="matrix(&st17;  98.29  430.07 )">W</text><text style="&st18;" transform="matrix(&st16;  83.21  466.93 )">30</text><text style="&st18;" transform="matrix(&st17;  38.8  284.57 )">B</text><text style="&st18;" transform="matrix(&st17;  98.29  285.59 )">W</text><text ewd:textID="6" style="&st18;" transform="matrix(&st17;  133.7  599.21 )">Combination Meter Assembly</text><text style="&st18;" transform="matrix(&st17;  126.59  599.21 )">F14</text><text style="&st18;" transform="matrix(&st16;  36.48  550.5 )">1</text><text style="&st18;" transform="matrix(&st16;  32.74  227.55 )">CANH</text><text style="&st18;" transform="matrix(&st16;  22.97  177.67 )">A6(A)</text><text ewd:textID="13" style="&st18;" transform="matrix(&st16;  22.97  184.77 )">Skid Control ECU with Actuator Assembly</text><text style="&st18;" transform="matrix(&st16;  23.72  466.93 )">29</text><text style="&st18;" transform="matrix(&st16;  36.48  329.54 )">1</text><text style="&st18;" transform="matrix(&st16;  197.18  392.41 )">5</text><text style="&st18;" transform="matrix(&st17;  157.78  431.94 )">GR</text><text style="&st18;" transform="matrix(&st17;  200.27  430.07 )">W</text><text style="&st18;" transform="matrix(&st17;  157.78  508.43 )">GR</text><text style="&st18;" transform="matrix(&st17;  200.27  506.56 )">W</text><text style="&st18;" transform="matrix(&st17;  220.08  386.75 )">A36</text><text ewd:textID="9" style="&st18;" transform="matrix(&st17;  227.18  386.75 )">Junction Connector</text><text style="&st18;" transform="matrix(&st16;  488.18  635.48 )">LG</text><text style="&st18;" transform="matrix(&st16;  489.56  660.98 )">W</text><text style="&st18;" transform="matrix(&st16;  487.12  646.81 )">(*1)</text><text style="&st18;" transform="matrix(&st16;  487.12  672.31 )">(*1)</text></svg>