﻿<?xml version="1.0" encoding="utf-8"?>
<!DOCTYPE svg PUBLIC "-//W3C//DTD SVG 1.0//EN" "http://www.w3.org/TR/2001/REC-SVG-20010904/DTD/svg10.dtd"[
	<!ENTITY ns_flows "http://ns.adobe.com/Flows/1.0/">
	<!ENTITY ns_svg "http://www.w3.org/2000/svg">
	<!ENTITY ns_xlink "http://www.w3.org/1999/xlink">
	<!ENTITY st0 "font-size:7px;font-family:'MS-PGothic';adobe-font-script:japanese;">
	<!ENTITY st1 "font-size:6px;font-family:'ArialMT';">
	<!-- White fill  -->
	<!ENTITY st2 "fill:#FFFFFF;stroke:#000000; stroke-width:1.41;stroke-linecap:round;stroke-linejoin:round;">
	<!-- Yellow fill  -->
	<!ENTITY st3 "fill:#FFFFCC;stroke:#FFFFCC; stroke-width:0.1;stroke-linecap:round;stroke-linejoin:round;">
	<!-- Gray fill  -->
	<!ENTITY st4 "fill:#CCCCCC;stroke:#CCCCCC; stroke-width:0.1;stroke-linecap:round;stroke-linejoin:round;">
	<!-- Light-blue fill -->
	<!ENTITY st5 "fill:#CCECF4;stroke:#000000; stroke-width:1.133;stroke-linecap:round;stroke-linejoin:round;">
	<!ENTITY st6 "fill:none;stroke-linecap:butt; stroke-linejoin:round;">
	<!ENTITY st7 "fill:none;stroke:#000000;stroke-linecap:round;stroke-linejoin:round;">
	<!ENTITY st8 "enable-background:new    ;">
	<!-- Black fill -->
	<!ENTITY st9 "fill:#000000;stroke:#000000; stroke-linecap:round;stroke-linejoin:round;">
	<!-- SRS note   -->
	<!ENTITY st10 "font-size:9px;font-family:'ArialMT';">
	<!ENTITY st11 "font-size:9px;font-family:'Svg Symbol';">
	<!ENTITY st12 "font-size:6px;font-family:'Svg Symbol';">
	<!ENTITY st13 "fill:none;stroke:#ff0000;stroke-linecap:round;stroke-linejoin:round;">
	<!-- Yellow fill  -->
	<!ENTITY st14 "fill:#FFFF00;stroke:#FFFF00; stroke-width:0.1;stroke-linecap:round;stroke-linejoin:round;">
	<!ENTITY st15 "font-size:6px;font-family:'MS-PGothic';adobe-font-script:japanese;">
	<!ENTITY st16 "1.00 0.00 0.00 1.00">
	<!ENTITY st17 "0.00 -1.00 1.00 0.00">
	<!ENTITY st18 "font-size:6px;font-family:'Arial';">
	<!ENTITY st19 "font-size:9px;font-family:'Arial';">
	<!ENTITY st20 "font-size:6px;font-family:'MS-PGothic','MS PGothic';adobe-font-script:japanese;">
	<!ENTITY st21 "font-size:7px;font-family:'MS-PGothic','MS PGothic';adobe-font-script:japanese;">
	<!ATTLIST svg
		xmlns:ewd CDATA #FIXED "http://shcl.co.jp/ewd"
		xmlns:a CDATA #FIXED "http://ns.adobe.com/AdobeSVGViewerExtensions/3.0/"
		ewd:ver CDATA #IMPLIED
	>
	<!ATTLIST a
		ewd:lineID CDATA #IMPLIED
		ewd:groupID CDATA #IMPLIED
		ewd:figtype CDATA #IMPLIED
		ewd:code CDATA #IMPLIED
		ewd:figID CDATA #IMPLIED
		ewd:pinNo CDATA #IMPLIED
		ewd:comment CDATA #IMPLIED >
	<!ATTLIST g
		ewd:lineID CDATA #IMPLIED
		ewd:groupID CDATA #IMPLIED
		ewd:figtype CDATA #IMPLIED
		ewd:code CDATA #IMPLIED
		ewd:figID CDATA #IMPLIED
		ewd:pinNo CDATA #IMPLIED
		ewd:comment CDATA #IMPLIED >
	<!ATTLIST text
		ewd:textID CDATA #IMPLIED >
	<!ATTLIST title
		ewd:textID CDATA #IMPLIED >
]>
<!-- Generator: Shintec Hozumi YS   -->
<svg onload="call_execInitLoadProc_svg('system')" style="overflow:visible;  enable-background:new 0 0 4572.236 710.000" viewBox="0 0 4572.236 710.000" height="710.000" width="4572.236" xml:space="preserve" ewd:ver="L2.1.2.8" xmlns="&ns_svg;" xmlns:a="http://ns.adobe.com/AdobeSVGViewerExtensions/3.0/" xmlns:ewd="http://shcl.co.jp/ewd" xmlns:xlink="&ns_xlink;">
<path d=" M 3509.91,  385.64  L 3504.25,  362.97 " style="stroke-width: 1.42 ;&st7; " /><path d=" M 3509.91,  392.72  L 3509.91,  388.47 " style="stroke-width: 0.85 ;&st7; " /><path d=" M 3509.91,  362.97  L 3509.91,  358.73 " style="stroke-width: 0.85 ;&st7; " /><path d=" M 3552.41,  385.64  L 3558.07,  362.97 " style="stroke-width: 1.42 ;&st7; " /><path d=" M 3552.41,  392.72  L 3552.41,  388.47 " style="stroke-width: 0.85 ;&st7; " /><path d=" M 3552.41,  362.97  L 3552.41,  358.73 " style="stroke-width: 0.85 ;&st7; " /><path d=" M 3671.39,  188.75  L 3679.89,  188.75 " style="stroke-width: 1.42 ;&st7; " /><path d=" M 3671.39,  239.75  L 3679.89,  239.75 " style="stroke-width: 1.42 ;&st7; " /><path d=" M 3688.38,  290.74  L 3679.89,  290.74 " style="stroke-width: 1.42 ;&st7; " /><path d=" M 3713.88,  188.75  L 3722.38,  188.75 " style="stroke-width: 1.42 ;&st7; " /><path d=" M 3713.88,  239.75  L 3722.38,  239.75 " style="stroke-width: 1.42 ;&st7; " /><path d=" M 3730.88,  290.74  L 3722.38,  290.74 " style="stroke-width: 1.42 ;&st7; " /><path d=" M 3756.37,  188.75  L 3764.87,  188.75 " style="stroke-width: 1.42 ;&st7; " /><path d=" M 3756.37,  239.75  L 3764.87,  239.75 " style="stroke-width: 1.42 ;&st7; " /><path d=" M 3773.37,  290.74  L 3764.87,  290.74 " style="stroke-width: 1.42 ;&st7; " /><path d=" M 3688.38,  137.76  L 3679.89,  137.76 " style="stroke-width: 1.42 ;&st7; " /><path d=" M 3798.87,  188.75  L 3807.36,  188.75 " style="stroke-width: 1.42 ;&st7; " /><path d=" M 3798.87,  239.75  L 3807.36,  239.75 " style="stroke-width: 1.42 ;&st7; " /><path d=" M 3815.86,  290.74  L 3807.36,  290.74 " style="stroke-width: 1.42 ;&st7; " /><path d=" M 3909.35,  137.76  L 3900.85,  137.76 " style="stroke-width: 1.42 ;&st7; " /><path d=" M 3798.87,  486.20  L 3807.36,  486.20 " style="stroke-width: 1.42 ;&st7; " /><path d=" M 3809.49,  545.69  L 3805.24,  545.69 " style="stroke-width: 1.42 ;&st7; " /><path d=" M 3809.49,  554.19  L 3805.24,  554.19 " style="stroke-width: 1.42 ;&st7; " /><path d=" M 3809.49,  588.19  L 3805.24,  588.19 " style="stroke-width: 1.42 ;&st7; " /><path d=" M 3809.49,  596.69  L 3805.24,  596.69 " style="stroke-width: 1.42 ;&st7; " /><path d=" M 3586.40,  477.71  L 3594.90,  477.71 " style="stroke-width: 1.42 ;&st7; " /><path d=" M 3730.88,  137.76  L 3722.38,  137.76 " style="stroke-width: 1.42 ;&st7; " /><path d=" M 3773.37,  137.76  L 3764.87,  137.76 " style="stroke-width: 1.42 ;&st7; " /><path d=" M 3815.86,  137.76  L 3807.36,  137.76 " style="stroke-width: 1.42 ;&st7; " /><path d=" M 3764.87,  371.47  L 3764.87,  367.22 " style="stroke-width: 0.85 ;&st7; " /><path d=" M 3764.87,  401.22  L 3764.87,  396.97 " style="stroke-width: 0.85 ;&st7; " /><path d=" M 3764.87,  394.14  L 3770.54,  371.47 " style="stroke-width: 1.42 ;&st7; " /><path d=" M 3679.89,  371.47  L 3679.89,  367.22 " style="stroke-width: 0.85 ;&st7; " /><path d=" M 3679.89,  401.22  L 3679.89,  396.97 " style="stroke-width: 0.85 ;&st7; " /><path d=" M 3679.89,  394.14  L 3674.22,  371.47 " style="stroke-width: 1.42 ;&st7; " /><path d=" M 3696.88,  371.47  L 3696.88,  367.22 " style="stroke-width: 0.85 ;&st7; " /><path d=" M 3696.88,  401.22  L 3696.88,  396.97 " style="stroke-width: 0.85 ;&st7; " /><path d=" M 3696.88,  394.14  L 3698.58,  370.02 " style="stroke-width: 1.42 ;&st7; " /><path d=" M 3722.38,  371.47  L 3722.38,  367.22 " style="stroke-width: 0.85 ;&st7; " /><path d=" M 3722.38,  401.22  L 3722.38,  396.97 " style="stroke-width: 0.85 ;&st7; " /><path d=" M 3722.38,  394.14  L 3716.71,  371.47 " style="stroke-width: 1.42 ;&st7; " /><path d=" M 3739.38,  371.47  L 3739.38,  367.22 " style="stroke-width: 0.85 ;&st7; " /><path d=" M 3739.38,  401.22  L 3739.38,  396.97 " style="stroke-width: 0.85 ;&st7; " /><path d=" M 3739.38,  394.14  L 3741.07,  370.02 " style="stroke-width: 1.42 ;&st7; " /><path d=" M 3794.62,  384.22  L 3786.12,  384.22 " style="stroke-width: 0.85 ;&st7; " /><path d=" M 3814.74,  382.27  L 3822.10,  378.03 " style="stroke-width: 0.85 ;&st7; " /><path d=" M 3820.10,  374.56  L 3812.73,  378.81 " style="stroke-width: 0.85 ;&st7; " /><path d=" M 3811.61,  384.22  L 3803.11,  384.22 " style="stroke-width: 0.85 ;&st7; " /><path d=" M 3599.15,  375.72  L 3590.65,  375.72 " style="stroke-width: 0.85 ;&st7; " /><path d=" M 3607.63,  366.06  L 3600.27,  370.31 " style="stroke-width: 0.85 ;&st7; " /><path d=" M 3602.28,  373.78  L 3609.64,  369.53 " style="stroke-width: 0.85 ;&st7; " /><path d=" M 3582.15,  375.72  L 3573.65,  375.72 " style="stroke-width: 0.85 ;&st7; " /><path d=" M 3526.91,  385.64  L 3528.60,  361.52 " style="stroke-width: 1.42 ;&st7; " /><path d=" M 3526.91,  392.72  L 3526.91,  388.47 " style="stroke-width: 0.85 ;&st7; " /><path d=" M 3526.91,  362.97  L 3526.91,  358.73 " style="stroke-width: 0.85 ;&st7; " /><path d=" M 3684.13,  143.43  L 3679.88,  139.18  L 3675.63,  143.43 " style="stroke-width: 1.42 ;&st7; " /><path d=" M 3684.13,  146.83  L 3679.88,  142.58  L 3675.63,  146.83 " style="stroke-width: 1.42 ;&st7; " /><path d=" M 3883.85,  231.25  L 3883.85,  316.23  L 4130.31,  316.23  L 4130.31,  231.25  L 3883.85,  231.25 " style="stroke-width: 1.42 ;&st7; " /><path d=" M 3807.36,  656.18  L 3807.36,  681.67 " style="stroke-width: 0.85 ;&st7; " /><path d=" M 3798.86,  656.18  L 3815.86,  656.18  L 3815.86,  673.17  L 3798.86,  673.17  L 3798.86,  656.18 " style="stroke-width: 1.42 ;&st7; " /><path d=" M 3662.89,  341.73  L 3662.89,  435.21  L 3832.86,  435.21  L 3832.86,  341.73  L 3662.89,  341.73 " style="stroke-width: 1.42 ;&st7; " /><path d=" M 3675.63,  179.69  L 3679.88,  183.94  L 3684.13,  179.69 " style="stroke-width: 1.42 ;&st7; " /><path d=" M 3684.13,  183.09  L 3679.88,  187.34  L 3675.63,  183.09 " style="stroke-width: 1.42 ;&st7; " /><path d=" M 3675.63,  230.68  L 3679.88,  234.93  L 3684.13,  230.68 " style="stroke-width: 1.42 ;&st7; " /><path d=" M 3684.13,  234.08  L 3679.88,  238.33  L 3675.63,  234.08 " style="stroke-width: 1.42 ;&st7; " /><path d=" M 3684.13,  299.80  L 3679.88,  295.55  L 3675.63,  299.80 " style="stroke-width: 1.42 ;&st7; " /><path d=" M 3684.13,  296.40  L 3679.88,  292.15  L 3675.63,  296.40 " style="stroke-width: 1.42 ;&st7; " /><path d=" M 3718.13,  179.69  L 3722.38,  183.94  L 3726.63,  179.69 " style="stroke-width: 1.42 ;&st7; " /><path d=" M 3726.63,  183.09  L 3722.38,  187.34  L 3718.13,  183.09 " style="stroke-width: 1.42 ;&st7; " /><path d=" M 3718.13,  230.68  L 3722.38,  234.93  L 3726.63,  230.68 " style="stroke-width: 1.42 ;&st7; " /><path d=" M 3726.63,  234.08  L 3722.38,  238.33  L 3718.13,  234.08 " style="stroke-width: 1.42 ;&st7; " /><path d=" M 3726.63,  299.80  L 3722.38,  295.55  L 3718.13,  299.80 " style="stroke-width: 1.42 ;&st7; " /><path d=" M 3726.63,  296.40  L 3722.38,  292.15  L 3718.13,  296.40 " style="stroke-width: 1.42 ;&st7; " /><path d=" M 3760.62,  179.69  L 3764.87,  183.94  L 3769.12,  179.69 " style="stroke-width: 1.42 ;&st7; " /><path d=" M 3769.12,  183.09  L 3764.87,  187.34  L 3760.62,  183.09 " style="stroke-width: 1.42 ;&st7; " /><path d=" M 3760.62,  230.68  L 3764.87,  234.93  L 3769.12,  230.68 " style="stroke-width: 1.42 ;&st7; " /><path d=" M 3769.12,  234.08  L 3764.87,  238.33  L 3760.62,  234.08 " style="stroke-width: 1.42 ;&st7; " /><path d=" M 3769.12,  299.80  L 3764.87,  295.55  L 3760.62,  299.80 " style="stroke-width: 1.42 ;&st7; " /><path d=" M 3769.12,  296.40  L 3764.87,  292.15  L 3760.62,  296.40 " style="stroke-width: 1.42 ;&st7; " /><path d=" M 3803.11,  179.69  L 3807.36,  183.94  L 3811.61,  179.69 " style="stroke-width: 1.42 ;&st7; " /><path d=" M 3811.61,  183.09  L 3807.36,  187.34  L 3803.11,  183.09 " style="stroke-width: 1.42 ;&st7; " /><path d=" M 3803.11,  230.68  L 3807.36,  234.93  L 3811.61,  230.68 " style="stroke-width: 1.42 ;&st7; " /><path d=" M 3811.61,  234.08  L 3807.36,  238.33  L 3803.11,  234.08 " style="stroke-width: 1.42 ;&st7; " /><path d=" M 3811.61,  299.80  L 3807.36,  295.55  L 3803.11,  299.80 " style="stroke-width: 1.42 ;&st7; " /><path d=" M 3811.61,  296.40  L 3807.36,  292.15  L 3803.11,  296.40 " style="stroke-width: 1.42 ;&st7; " /><path d=" M 3905.10,  146.83  L 3900.85,  142.58  L 3896.60,  146.83 " style="stroke-width: 1.42 ;&st7; " /><path d=" M 3905.10,  143.43  L 3900.85,  139.18  L 3896.60,  143.43 " style="stroke-width: 1.42 ;&st7; " /><path d=" M 3805.95,  710.00  L 3808.78,  710.00 " style="stroke-width: 0.85 ;&st7; " /><path d=" M 3804.53,  707.17  L 3810.20,  707.17 " style="stroke-width: 0.85 ;&st7; " /><path d=" M 3803.11,  704.33  L 3811.61,  704.33 " style="stroke-width: 0.85 ;&st7; " /><path d=" M 3798.86,  701.50  L 3815.86,  701.50 " style="stroke-width: 0.85 ;&st7; " /><path d=" M 3807.36,  697.25  L 3807.36,  701.50 " style="stroke-width: 0.85 ;&st7; " /><path d=" M 3803.11,  477.14  L 3807.36,  481.39  L 3811.61,  477.14 " style="stroke-width: 1.42 ;&st7; " /><path d=" M 3811.61,  480.54  L 3807.36,  484.79  L 3803.11,  480.54 " style="stroke-width: 1.42 ;&st7; " /><path d=" M 3807.36,  559.09  L 3810.20,  561.92  L 3810.20,  557.67  L 3807.36,  554.84  L 3804.53,  557.67  L 3804.53,  561.92  L 3807.36,  559.09 " style="stroke-width: 0.28 ;&st9;" /><path d=" M 3807.36,  583.29  L 3804.53,  580.46  L 3804.53,  584.71  L 3807.36,  587.54  L 3810.20,  584.71  L 3810.20,  580.46  L 3807.36,  583.29 " style="stroke-width: 0.28 ;&st9;" /><path d=" M 3807.36,  588.19  L 3807.36,  554.19 " style="stroke-width: 0.85 ;&st7; " /><path d=" M 3599.15,  472.04  L 3594.90,  476.29  L 3590.65,  472.04 " style="stroke-width: 1.42 ;&st7; " /><path d=" M 3590.65,  468.64  L 3594.90,  472.89  L 3599.15,  468.64 " style="stroke-width: 1.42 ;&st7; " /><path d=" M 3726.63,  146.83  L 3722.38,  142.58  L 3718.13,  146.83 " style="stroke-width: 1.42 ;&st7; " /><path d=" M 3726.63,  143.43  L 3722.38,  139.18  L 3718.13,  143.43 " style="stroke-width: 1.42 ;&st7; " /><path d=" M 3769.12,  146.83  L 3764.87,  142.58  L 3760.62,  146.83 " style="stroke-width: 1.42 ;&st7; " /><path d=" M 3769.12,  143.43  L 3764.87,  139.18  L 3760.62,  143.43 " style="stroke-width: 1.42 ;&st7; " /><path d=" M 3811.61,  146.83  L 3807.36,  142.58  L 3803.11,  146.83 " style="stroke-width: 1.42 ;&st7; " /><path d=" M 3811.61,  143.43  L 3807.36,  139.18  L 3803.11,  143.43 " style="stroke-width: 1.42 ;&st7; " /><path d=" M 3806.17,  417.21  L 3805.90,  417.68  L 3805.80,  418.22  L 3805.90,  418.75  L 3806.17,  419.22  L 3806.58,  419.56  L 3807.09,  419.75  L 3807.63,  419.75  L 3808.14,  419.56  L 3808.55,  419.22  L 3808.83,  418.75  L 3808.92,  418.22  L 3808.83,  417.68  L 3808.55,  417.21  L 3808.14,  416.87  L 3807.63,  416.68  L 3807.09,  416.68  L 3806.58,  416.87  L 3806.17,  417.21  L 3806.56,  417.92  L 3806.56,  418.51  L 3806.94,  418.95  L 3807.51,  419.05  L 3808.01,  418.76  L 3808.21,  418.22  L 3808.01,  417.67  L 3807.51,  417.38  L 3806.94,  417.48  L 3807.36,  418.22 " style="stroke-width: 0.85 ;&st7; " /><path d=" M 3806.17,  357.72  L 3805.90,  358.19  L 3805.80,  358.73  L 3805.90,  359.26  L 3806.17,  359.73  L 3806.58,  360.07  L 3807.09,  360.26  L 3807.63,  360.26  L 3808.14,  360.07  L 3808.55,  359.73  L 3808.83,  359.26  L 3808.92,  358.73  L 3808.83,  358.19  L 3808.55,  357.72  L 3808.14,  357.38  L 3807.63,  357.19  L 3807.09,  357.19  L 3806.58,  357.38  L 3806.17,  357.72  L 3806.56,  358.43  L 3806.56,  359.02  L 3806.94,  359.46  L 3807.51,  359.56  L 3808.01,  359.27  L 3808.21,  358.73  L 3808.01,  358.18  L 3807.51,  357.89  L 3806.94,  357.99  L 3807.36,  358.73 " style="stroke-width: 0.85 ;&st7; " /><path d=" M 3763.68,  417.21  L 3763.40,  417.68  L 3763.31,  418.22  L 3763.40,  418.75  L 3763.68,  419.22  L 3764.09,  419.56  L 3764.60,  419.75  L 3765.14,  419.75  L 3765.65,  419.56  L 3766.06,  419.22  L 3766.33,  418.75  L 3766.43,  418.22  L 3766.33,  417.68  L 3766.06,  417.21  L 3765.65,  416.87  L 3765.14,  416.68  L 3764.60,  416.68  L 3764.09,  416.87  L 3763.68,  417.21  L 3764.07,  417.92  L 3764.07,  418.51  L 3764.44,  418.95  L 3765.02,  419.05  L 3765.52,  418.76  L 3765.72,  418.22  L 3765.52,  417.67  L 3765.02,  417.38  L 3764.44,  417.48  L 3764.87,  418.22 " style="stroke-width: 0.85 ;&st7; " /><path d=" M 3721.18,  417.21  L 3720.91,  417.68  L 3720.82,  418.22  L 3720.91,  418.75  L 3721.18,  419.22  L 3721.60,  419.56  L 3722.11,  419.75  L 3722.65,  419.75  L 3723.16,  419.56  L 3723.57,  419.22  L 3723.84,  418.75  L 3723.93,  418.22  L 3723.84,  417.68  L 3723.57,  417.21  L 3723.16,  416.87  L 3722.65,  416.68  L 3722.11,  416.68  L 3721.60,  416.87  L 3721.18,  417.21  L 3721.58,  417.92  L 3721.58,  418.51  L 3721.95,  418.95  L 3722.52,  419.05  L 3723.03,  418.76  L 3723.23,  418.22  L 3723.03,  417.67  L 3722.52,  417.38  L 3721.95,  417.48  L 3722.38,  418.22 " style="stroke-width: 0.85 ;&st7; " /><path d=" M 3738.18,  408.71  L 3737.91,  409.18  L 3737.82,  409.72  L 3737.91,  410.25  L 3738.18,  410.72  L 3738.59,  411.07  L 3739.10,  411.25  L 3739.64,  411.25  L 3740.15,  411.07  L 3740.57,  410.72  L 3740.84,  410.25  L 3740.93,  409.72  L 3740.84,  409.18  L 3740.57,  408.71  L 3740.15,  408.37  L 3739.64,  408.18  L 3739.10,  408.18  L 3738.59,  408.37  L 3738.18,  408.71  L 3738.57,  409.43  L 3738.57,  410.01  L 3738.95,  410.45  L 3739.52,  410.55  L 3740.03,  410.26  L 3740.22,  409.72  L 3740.03,  409.17  L 3739.52,  408.88  L 3738.95,  408.98  L 3739.37,  409.72 " style="stroke-width: 0.85 ;&st7; " /><path d=" M 3721.18,  357.72  L 3720.91,  358.19  L 3720.82,  358.73  L 3720.91,  359.26  L 3721.18,  359.73  L 3721.60,  360.07  L 3722.11,  360.26  L 3722.65,  360.26  L 3723.16,  360.07  L 3723.57,  359.73  L 3723.84,  359.26  L 3723.93,  358.73  L 3723.84,  358.19  L 3723.57,  357.72  L 3723.16,  357.38  L 3722.65,  357.19  L 3722.11,  357.19  L 3721.60,  357.38  L 3721.18,  357.72  L 3721.58,  358.43  L 3721.58,  359.02  L 3721.95,  359.46  L 3722.52,  359.56  L 3723.03,  359.27  L 3723.23,  358.73  L 3723.03,  358.18  L 3722.52,  357.89  L 3721.95,  357.99  L 3722.38,  358.73 " style="stroke-width: 0.85 ;&st7; " /><path d=" M 3678.69,  357.72  L 3678.42,  358.19  L 3678.33,  358.73  L 3678.42,  359.26  L 3678.69,  359.73  L 3679.10,  360.07  L 3679.61,  360.26  L 3680.15,  360.26  L 3680.66,  360.07  L 3681.08,  359.73  L 3681.35,  359.26  L 3681.44,  358.73  L 3681.35,  358.19  L 3681.08,  357.72  L 3680.66,  357.38  L 3680.15,  357.19  L 3679.61,  357.19  L 3679.10,  357.38  L 3678.69,  357.72  L 3679.08,  358.43  L 3679.08,  359.02  L 3679.46,  359.46  L 3680.03,  359.56  L 3680.54,  359.27  L 3680.73,  358.73  L 3680.54,  358.18  L 3680.03,  357.89  L 3679.46,  357.99  L 3679.88,  358.73 " style="stroke-width: 0.85 ;&st7; " /><path d=" M 3807.36,  384.22  L 3807.36,  341.73 " style="stroke-width: 0.85 ;&st7; " /><path d=" M 3679.88,  418.22  L 3679.88,  401.22 " style="stroke-width: 0.85 ;&st7; " /><path d=" M 3722.38,  418.22  L 3722.38,  401.22 " style="stroke-width: 0.85 ;&st7; " /><path d=" M 3764.87,  418.22  L 3764.87,  401.22 " style="stroke-width: 0.85 ;&st7; " /><path d=" M 3739.37,  409.72  L 3739.37,  401.22 " style="stroke-width: 0.85 ;&st7; " /><path d=" M 3696.88,  401.22  L 3696.88,  409.72  L 3790.37,  409.72  L 3790.37,  358.73  L 3807.36,  358.73 " style="stroke-width: 0.85 ;&st7; " /><path d=" M 3722.38,  358.73  L 3739.37,  358.73  L 3739.37,  367.22 " style="stroke-width: 0.85 ;&st7; " /><path d=" M 3722.38,  341.73  L 3722.38,  367.22 " style="stroke-width: 0.85 ;&st7; " /><path d=" M 3679.88,  358.73  L 3696.88,  358.73  L 3696.88,  367.22 " style="stroke-width: 0.85 ;&st7; " /><path d=" M 3679.88,  341.73  L 3679.88,  367.22 " style="stroke-width: 0.85 ;&st7; " /><path d=" M 3679.88,  418.22  L 3807.36,  418.22 " style="stroke-width: 0.85 ;&st7; " /><path d=" M 3807.36,  435.21  L 3807.36,  418.22 " style="stroke-width: 0.85 ;&st7; " /><path d=" M 3764.87,  341.73  L 3764.87,  367.22 " style="stroke-width: 0.85 ;&st7; " /><path d=" M 3677.40,  384.22  L 3697.58,  384.22 " style="stroke-width: 0.85 ;&st7;stroke-dasharray:3, 1.5;" /><path d=" M 3719.90,  384.22  L 3740.07,  384.22 " style="stroke-width: 0.85 ;&st7;stroke-dasharray:3, 1.5;" /><path d=" M 3790.37,  384.22  L 3784.70,  375.72  L 3796.03,  375.72  L 3790.37,  384.22 " style="stroke-width: 0.28 ;&st9;" /><path d=" M 3807.36,  418.22  L 3807.36,  409.72  L 3804.53,  408.30  L 3810.20,  405.47  L 3804.53,  402.63  L 3810.20,  399.80  L 3804.53,  396.97  L 3810.20,  394.14  L 3807.36,  392.72  L 3807.36,  384.22 " style="stroke-width: 0.85 ;&st7; " /><path d=" M 3822.10,  378.03  L 3819.76,  381.07  L 3818.30,  378.53  L 3822.10,  378.03  L 3820.82,  378.77  L 3819.83,  380.05  L 3819.21,  378.98  L 3820.82,  378.77  L 3820.18,  379.14  L 3819.86,  379.54  L 3819.67,  379.20  L 3820.18,  379.14 " style="stroke-width: 0.85 ;&st7; " /><path d=" M 3820.10,  374.56  L 3817.76,  377.60  L 3816.29,  375.06  L 3820.10,  374.56  L 3818.81,  375.30  L 3817.83,  376.58  L 3817.21,  375.51  L 3818.81,  375.30  L 3818.17,  375.67  L 3817.86,  376.07  L 3817.67,  375.73  L 3818.17,  375.67 " style="stroke-width: 0.85 ;&st7; " /><path d=" M 3807.36,  384.22  L 3801.70,  375.72  L 3813.03,  375.72  L 3807.36,  384.22 " style="stroke-width: 0.28 ;&st9;" /><path d=" M 3594.90,  375.72  L 3589.23,  367.22  L 3600.56,  367.22  L 3594.90,  375.72 " style="stroke-width: 0.28 ;&st9;" /><path d=" M 3607.63,  366.06  L 3605.30,  369.10  L 3603.83,  366.56  L 3607.63,  366.06  L 3606.35,  366.80  L 3605.36,  368.08  L 3604.74,  367.01  L 3606.35,  366.80  L 3605.71,  367.17  L 3605.40,  367.57  L 3605.20,  367.24  L 3605.71,  367.17 " style="stroke-width: 0.85 ;&st7; " /><path d=" M 3609.63,  369.53  L 3607.30,  372.57  L 3605.83,  370.03  L 3609.63,  369.53  L 3608.35,  370.27  L 3607.37,  371.55  L 3606.75,  370.48  L 3608.35,  370.27  L 3607.71,  370.64  L 3607.40,  371.04  L 3607.20,  370.71  L 3607.71,  370.64 " style="stroke-width: 0.85 ;&st7; " /><path d=" M 3594.90,  409.72  L 3594.90,  401.22  L 3592.06,  399.80  L 3597.73,  396.97  L 3592.06,  394.14  L 3597.73,  391.30  L 3592.06,  388.47  L 3597.73,  385.64  L 3594.90,  384.22  L 3594.90,  375.72 " style="stroke-width: 0.85 ;&st7; " /><path d=" M 3577.90,  375.72  L 3572.23,  367.22  L 3583.57,  367.22  L 3577.90,  375.72 " style="stroke-width: 0.28 ;&st9;" /><path d=" M 3507.43,  375.72  L 3527.61,  375.72 " style="stroke-width: 0.85 ;&st7;stroke-dasharray:3, 1.5;" /><path d=" M 3552.40,  333.23  L 3552.40,  358.73 " style="stroke-width: 0.85 ;&st7; " /><path d=" M 3594.90,  426.71  L 3594.90,  409.72 " style="stroke-width: 0.85 ;&st7; " /><path d=" M 3509.91,  333.23  L 3509.91,  358.73 " style="stroke-width: 0.85 ;&st7; " /><path d=" M 3509.91,  350.23  L 3526.91,  350.23  L 3526.91,  358.73 " style="stroke-width: 0.85 ;&st7; " /><path d=" M 3526.91,  401.22  L 3526.91,  392.72 " style="stroke-width: 0.85 ;&st7; " /><path d=" M 3552.40,  409.72  L 3552.40,  392.72 " style="stroke-width: 0.85 ;&st7; " /><path d=" M 3509.91,  409.72  L 3509.91,  392.72 " style="stroke-width: 0.85 ;&st7; " /><path d=" M 3594.90,  375.72  L 3594.90,  333.23 " style="stroke-width: 0.85 ;&st7; " /><path d=" M 3508.72,  349.22  L 3508.45,  349.69  L 3508.35,  350.23  L 3508.45,  350.76  L 3508.72,  351.23  L 3509.13,  351.58  L 3509.64,  351.76  L 3510.18,  351.76  L 3510.69,  351.58  L 3511.10,  351.23  L 3511.38,  350.76  L 3511.47,  350.23  L 3511.38,  349.69  L 3511.10,  349.22  L 3510.69,  348.88  L 3510.18,  348.69  L 3509.64,  348.69  L 3509.13,  348.88  L 3508.72,  349.22  L 3509.11,  349.94  L 3509.11,  350.52  L 3509.49,  350.96  L 3510.06,  351.06  L 3510.56,  350.77  L 3510.76,  350.23  L 3510.56,  349.68  L 3510.06,  349.39  L 3509.49,  349.49  L 3509.91,  350.23 " style="stroke-width: 0.85 ;&st7; " /><path d=" M 3525.72,  400.22  L 3525.44,  400.69  L 3525.35,  401.22  L 3525.44,  401.75  L 3525.72,  402.22  L 3526.13,  402.57  L 3526.64,  402.75  L 3527.18,  402.75  L 3527.69,  402.57  L 3528.10,  402.22  L 3528.37,  401.75  L 3528.47,  401.22  L 3528.37,  400.69  L 3528.10,  400.22  L 3527.69,  399.87  L 3527.18,  399.68  L 3526.64,  399.68  L 3526.13,  399.87  L 3525.72,  400.22  L 3526.11,  400.93  L 3526.11,  401.51  L 3526.48,  401.95  L 3527.06,  402.05  L 3527.56,  401.77  L 3527.76,  401.22  L 3527.56,  400.67  L 3527.06,  400.38  L 3526.48,  400.48  L 3526.91,  401.22 " style="stroke-width: 0.85 ;&st7; " /><path d=" M 3508.72,  408.71  L 3508.45,  409.18  L 3508.35,  409.72  L 3508.45,  410.25  L 3508.72,  410.72  L 3509.13,  411.07  L 3509.64,  411.25  L 3510.18,  411.25  L 3510.69,  411.07  L 3511.10,  410.72  L 3511.38,  410.25  L 3511.47,  409.72  L 3511.38,  409.18  L 3511.10,  408.71  L 3510.69,  408.37  L 3510.18,  408.18  L 3509.64,  408.18  L 3509.13,  408.37  L 3508.72,  408.71  L 3509.11,  409.43  L 3509.11,  410.01  L 3509.49,  410.45  L 3510.06,  410.55  L 3510.56,  410.26  L 3510.76,  409.72  L 3510.56,  409.17  L 3510.06,  408.88  L 3509.49,  408.98  L 3509.91,  409.72 " style="stroke-width: 0.85 ;&st7; " /><path d=" M 3551.21,  408.71  L 3550.94,  409.18  L 3550.85,  409.72  L 3550.94,  410.25  L 3551.21,  410.72  L 3551.63,  411.07  L 3552.14,  411.25  L 3552.67,  411.25  L 3553.18,  411.07  L 3553.60,  410.72  L 3553.87,  410.25  L 3553.96,  409.72  L 3553.87,  409.18  L 3553.60,  408.71  L 3553.18,  408.37  L 3552.67,  408.18  L 3552.14,  408.18  L 3551.63,  408.37  L 3551.21,  408.71  L 3551.61,  409.43  L 3551.61,  410.01  L 3551.98,  410.45  L 3552.55,  410.55  L 3553.06,  410.26  L 3553.25,  409.72  L 3553.06,  409.17  L 3552.55,  408.88  L 3551.98,  408.98  L 3552.40,  409.72 " style="stroke-width: 0.85 ;&st7; " /><path d=" M 3593.71,  349.22  L 3593.43,  349.69  L 3593.34,  350.23  L 3593.43,  350.76  L 3593.71,  351.23  L 3594.12,  351.58  L 3594.63,  351.76  L 3595.17,  351.76  L 3595.68,  351.58  L 3596.09,  351.23  L 3596.36,  350.76  L 3596.46,  350.23  L 3596.36,  349.69  L 3596.09,  349.22  L 3595.68,  348.88  L 3595.17,  348.69  L 3594.63,  348.69  L 3594.12,  348.88  L 3593.71,  349.22  L 3594.10,  349.94  L 3594.10,  350.52  L 3594.47,  350.96  L 3595.05,  351.06  L 3595.55,  350.77  L 3595.75,  350.23  L 3595.55,  349.68  L 3595.05,  349.39  L 3594.47,  349.49  L 3594.90,  350.23 " style="stroke-width: 0.85 ;&st7; " /><path d=" M 3593.71,  408.71  L 3593.43,  409.18  L 3593.34,  409.72  L 3593.43,  410.25  L 3593.71,  410.72  L 3594.12,  411.07  L 3594.63,  411.25  L 3595.17,  411.25  L 3595.68,  411.07  L 3596.09,  410.72  L 3596.36,  410.25  L 3596.46,  409.72  L 3596.36,  409.18  L 3596.09,  408.71  L 3595.68,  408.37  L 3595.17,  408.18  L 3594.63,  408.18  L 3594.12,  408.37  L 3593.71,  408.71  L 3594.10,  409.43  L 3594.10,  410.01  L 3594.47,  410.45  L 3595.05,  410.55  L 3595.55,  410.26  L 3595.75,  409.72  L 3595.55,  409.17  L 3595.05,  408.88  L 3594.47,  408.98  L 3594.90,  409.72 " style="stroke-width: 0.85 ;&st7; " /><path d=" M 3805.24,  545.69  C 3802.89   545.69  3800.99   547.60  3800.99   549.94 " style="stroke-width: 1.42 ;&st7; " /><path d=" M 3800.99,  549.94  C 3800.99   552.29  3802.89   554.19  3805.24   554.19 " style="stroke-width: 1.42 ;&st7; " /><path d=" M 3809.49,  554.19  C 3811.84   554.19  3813.74   552.29  3813.74   549.94 " style="stroke-width: 1.42 ;&st7; " /><path d=" M 3813.74,  549.94  C 3813.74   547.60  3811.84   545.69  3809.49   545.69 " style="stroke-width: 1.42 ;&st7; " /><path d=" M 3805.24,  588.19  C 3802.89   588.19  3800.99   590.09  3800.99   592.44 " style="stroke-width: 1.42 ;&st7; " /><path d=" M 3800.99,  592.44  C 3800.99   594.78  3802.89   596.69  3805.24   596.69 " style="stroke-width: 1.42 ;&st7; " /><path d=" M 3809.49,  596.69  C 3811.84   596.69  3813.74   594.78  3813.74   592.44 " style="stroke-width: 1.42 ;&st7; " /><path d=" M 3813.74,  592.44  C 3813.74   590.09  3811.84   588.19  3809.49   588.19 " style="stroke-width: 1.42 ;&st7; " /><path d=" M 3766.29,  372.89  C 3766.29   372.11  3765.65   371.47  3764.87   371.47 " style="stroke-width: 0.85 ;&st7; " /><path d=" M 3764.87,  371.47  C 3764.09   371.47  3763.45   372.11  3763.45   372.89 " style="stroke-width: 0.85 ;&st7; " /><path d=" M 3763.45,  372.89  C 3763.45   373.67  3764.09   374.31  3764.87   374.31 " style="stroke-width: 0.85 ;&st7; " /><path d=" M 3764.87,  374.31  C 3765.65   374.31  3766.29   373.67  3766.29   372.89 " style="stroke-width: 0.85 ;&st7; " /><path d=" M 3766.29,  395.55  C 3766.29   394.77  3765.65   394.14  3764.87   394.14 " style="stroke-width: 0.85 ;&st7; " /><path d=" M 3764.87,  394.14  C 3764.09   394.14  3763.45   394.77  3763.45   395.55 " style="stroke-width: 0.85 ;&st7; " /><path d=" M 3763.45,  395.55  C 3763.45   396.33  3764.09   396.97  3764.87   396.97 " style="stroke-width: 0.85 ;&st7; " /><path d=" M 3764.87,  396.97  C 3765.65   396.97  3766.29   396.33  3766.29   395.55 " style="stroke-width: 0.85 ;&st7; " /><path d=" M 3681.30,  372.89  C 3681.30   372.11  3680.67   371.47  3679.89   371.47 " style="stroke-width: 0.85 ;&st7; " /><path d=" M 3679.89,  371.47  C 3679.10   371.47  3678.47   372.11  3678.47   372.89 " style="stroke-width: 0.85 ;&st7; " /><path d=" M 3678.47,  372.89  C 3678.47   373.67  3679.10   374.31  3679.89   374.31 " style="stroke-width: 0.85 ;&st7; " /><path d=" M 3679.89,  374.31  C 3680.67   374.31  3681.30   373.67  3681.30   372.89 " style="stroke-width: 0.85 ;&st7; " /><path d=" M 3681.30,  395.55  C 3681.30   394.77  3680.67   394.14  3679.89   394.14 " style="stroke-width: 0.85 ;&st7; " /><path d=" M 3679.89,  394.14  C 3679.10   394.14  3678.47   394.77  3678.47   395.55 " style="stroke-width: 0.85 ;&st7; " /><path d=" M 3678.47,  395.55  C 3678.47   396.33  3679.10   396.97  3679.89   396.97 " style="stroke-width: 0.85 ;&st7; " /><path d=" M 3679.89,  396.97  C 3680.67   396.97  3681.30   396.33  3681.30   395.55 " style="stroke-width: 0.85 ;&st7; " /><path d=" M 3698.30,  372.89  C 3698.30   372.11  3697.66   371.47  3696.88   371.47 " style="stroke-width: 0.85 ;&st7; " /><path d=" M 3696.88,  371.47  C 3696.10   371.47  3695.47   372.11  3695.47   372.89 " style="stroke-width: 0.85 ;&st7; " /><path d=" M 3695.47,  372.89  C 3695.47   373.67  3696.10   374.31  3696.88   374.31 " style="stroke-width: 0.85 ;&st7; " /><path d=" M 3696.88,  374.31  C 3697.66   374.31  3698.30   373.67  3698.30   372.89 " style="stroke-width: 0.85 ;&st7; " /><path d=" M 3698.30,  395.55  C 3698.30   394.77  3697.66   394.14  3696.88   394.14 " style="stroke-width: 0.85 ;&st7; " /><path d=" M 3696.88,  394.14  C 3696.10   394.14  3695.47   394.77  3695.47   395.55 " style="stroke-width: 0.85 ;&st7; " /><path d=" M 3695.47,  395.55  C 3695.47   396.33  3696.10   396.97  3696.88   396.97 " style="stroke-width: 0.85 ;&st7; " /><path d=" M 3696.88,  396.97  C 3697.66   396.97  3698.30   396.33  3698.30   395.55 " style="stroke-width: 0.85 ;&st7; " /><path d=" M 3723.79,  372.89  C 3723.79   372.11  3723.16   371.47  3722.38   371.47 " style="stroke-width: 0.85 ;&st7; " /><path d=" M 3722.38,  371.47  C 3721.60   371.47  3720.96   372.11  3720.96   372.89 " style="stroke-width: 0.85 ;&st7; " /><path d=" M 3720.96,  372.89  C 3720.96   373.67  3721.60   374.31  3722.38   374.31 " style="stroke-width: 0.85 ;&st7; " /><path d=" M 3722.38,  374.31  C 3723.16   374.31  3723.79   373.67  3723.79   372.89 " style="stroke-width: 0.85 ;&st7; " /><path d=" M 3723.79,  395.55  C 3723.79   394.77  3723.16   394.14  3722.38   394.14 " style="stroke-width: 0.85 ;&st7; " /><path d=" M 3722.38,  394.14  C 3721.60   394.14  3720.96   394.77  3720.96   395.55 " style="stroke-width: 0.85 ;&st7; " /><path d=" M 3720.96,  395.55  C 3720.96   396.33  3721.60   396.97  3722.38   396.97 " style="stroke-width: 0.85 ;&st7; " /><path d=" M 3722.38,  396.97  C 3723.16   396.97  3723.79   396.33  3723.79   395.55 " style="stroke-width: 0.85 ;&st7; " /><path d=" M 3740.79,  372.89  C 3740.79   372.11  3740.16   371.47  3739.38   371.47 " style="stroke-width: 0.85 ;&st7; " /><path d=" M 3739.38,  371.47  C 3738.59   371.47  3737.96   372.11  3737.96   372.89 " style="stroke-width: 0.85 ;&st7; " /><path d=" M 3737.96,  372.89  C 3737.96   373.67  3738.59   374.31  3739.38   374.31 " style="stroke-width: 0.85 ;&st7; " /><path d=" M 3739.38,  374.31  C 3740.16   374.31  3740.79   373.67  3740.79   372.89 " style="stroke-width: 0.85 ;&st7; " /><path d=" M 3740.79,  395.55  C 3740.79   394.77  3740.16   394.14  3739.38   394.14 " style="stroke-width: 0.85 ;&st7; " /><path d=" M 3739.38,  394.14  C 3738.59   394.14  3737.96   394.77  3737.96   395.55 " style="stroke-width: 0.85 ;&st7; " /><path d=" M 3737.96,  395.55  C 3737.96   396.33  3738.59   396.97  3739.38   396.97 " style="stroke-width: 0.85 ;&st7; " /><path d=" M 3739.38,  396.97  C 3740.16   396.97  3740.79   396.33  3740.79   395.55 " style="stroke-width: 0.85 ;&st7; " /><path d=" M 3528.33,  387.05  C 3528.33   386.27  3527.69   385.64  3526.91   385.64 " style="stroke-width: 0.85 ;&st7; " /><path d=" M 3526.91,  385.64  C 3526.13   385.64  3525.49   386.27  3525.49   387.05 " style="stroke-width: 0.85 ;&st7; " /><path d=" M 3525.49,  387.05  C 3525.49   387.84  3526.13   388.47  3526.91   388.47 " style="stroke-width: 0.85 ;&st7; " /><path d=" M 3526.91,  388.47  C 3527.69   388.47  3528.33   387.84  3528.33   387.05 " style="stroke-width: 0.85 ;&st7; " /><path d=" M 3528.33,  364.39  C 3528.33   363.61  3527.69   362.97  3526.91   362.97 " style="stroke-width: 0.85 ;&st7; " /><path d=" M 3526.91,  362.97  C 3526.13   362.97  3525.49   363.61  3525.49   364.39 " style="stroke-width: 0.85 ;&st7; " /><path d=" M 3525.49,  364.39  C 3525.49   365.17  3526.13   365.81  3526.91   365.81 " style="stroke-width: 0.85 ;&st7; " /><path d=" M 3526.91,  365.81  C 3527.69   365.81  3528.33   365.17  3528.33   364.39 " style="stroke-width: 0.85 ;&st7; " /><path d=" M 3511.33,  387.05  C 3511.33   386.27  3510.70   385.64  3509.91   385.64 " style="stroke-width: 0.85 ;&st7; " /><path d=" M 3509.91,  385.64  C 3509.13   385.64  3508.50   386.27  3508.50   387.05 " style="stroke-width: 0.85 ;&st7; " /><path d=" M 3508.50,  387.05  C 3508.50   387.84  3509.13   388.47  3509.91   388.47 " style="stroke-width: 0.85 ;&st7; " /><path d=" M 3509.91,  388.47  C 3510.70   388.47  3511.33   387.84  3511.33   387.05 " style="stroke-width: 0.85 ;&st7; " /><path d=" M 3511.33,  364.39  C 3511.33   363.61  3510.70   362.97  3509.91   362.97 " style="stroke-width: 0.85 ;&st7; " /><path d=" M 3509.91,  362.97  C 3509.13   362.97  3508.50   363.61  3508.50   364.39 " style="stroke-width: 0.85 ;&st7; " /><path d=" M 3508.50,  364.39  C 3508.50   365.17  3509.13   365.81  3509.91   365.81 " style="stroke-width: 0.85 ;&st7; " /><path d=" M 3509.91,  365.81  C 3510.70   365.81  3511.33   365.17  3511.33   364.39 " style="stroke-width: 0.85 ;&st7; " /><path d=" M 3553.82,  387.05  C 3553.82   386.27  3553.19   385.64  3552.41   385.64 " style="stroke-width: 0.85 ;&st7; " /><path d=" M 3552.41,  385.64  C 3551.62   385.64  3550.99   386.27  3550.99   387.05 " style="stroke-width: 0.85 ;&st7; " /><path d=" M 3550.99,  387.05  C 3550.99   387.84  3551.62   388.47  3552.41   388.47 " style="stroke-width: 0.85 ;&st7; " /><path d=" M 3552.41,  388.47  C 3553.19   388.47  3553.82   387.84  3553.82   387.05 " style="stroke-width: 0.85 ;&st7; " /><path d=" M 3553.82,  364.39  C 3553.82   363.61  3553.19   362.97  3552.41   362.97 " style="stroke-width: 0.85 ;&st7; " /><path d=" M 3552.41,  362.97  C 3551.62   362.97  3550.99   363.61  3550.99   364.39 " style="stroke-width: 0.85 ;&st7; " /><path d=" M 3550.99,  364.39  C 3550.99   365.17  3551.62   365.81  3552.41   365.81 " style="stroke-width: 0.85 ;&st7; " /><path d=" M 3552.41,  365.81  C 3553.19   365.81  3553.82   365.17  3553.82   364.39 " style="stroke-width: 0.85 ;&st7; " /><path d=" M 3947.87,   82.80  C 3947.87    80.30  3945.84    78.27  3943.34    78.27 " style="stroke-width: 1.42 ;&st7; " /><path d=" M 3943.34,   78.27  C 3940.84    78.27  3938.81    80.30  3938.81    82.80 " style="stroke-width: 1.42 ;&st7; " /><path d=" M 3938.81,   82.80  C 3938.81    85.31  3940.84    87.34  3943.34    87.34 " style="stroke-width: 1.42 ;&st7; " /><path d=" M 3943.34,   87.34  C 3945.84    87.34  3947.87    85.31  3947.87    82.80 " style="stroke-width: 1.42 ;&st7; " /><path d=" M 3981.87,   82.80  C 3981.87    80.30  3979.84    78.27  3977.34    78.27 " style="stroke-width: 1.42 ;&st7; " /><path d=" M 3977.34,   78.27  C 3974.83    78.27  3972.80    80.30  3972.80    82.80 " style="stroke-width: 1.42 ;&st7; " /><path d=" M 3972.80,   82.80  C 3972.80    85.31  3974.83    87.34  3977.34    87.34 " style="stroke-width: 1.42 ;&st7; " /><path d=" M 3977.34,   87.34  C 3979.84    87.34  3981.87    85.31  3981.87    82.80 " style="stroke-width: 1.42 ;&st7; " /><path d=" M 3769.40,   82.80  C 3769.40    80.30  3767.37    78.27  3764.87    78.27 " style="stroke-width: 1.42 ;&st7; " /><path d=" M 3764.87,   78.27  C 3762.37    78.27  3760.34    80.30  3760.34    82.80 " style="stroke-width: 1.42 ;&st7; " /><path d=" M 3760.34,   82.80  C 3760.34    85.31  3762.37    87.34  3764.87    87.34 " style="stroke-width: 1.42 ;&st7; " /><path d=" M 3764.87,   87.34  C 3767.37    87.34  3769.40    85.31  3769.40    82.80 " style="stroke-width: 1.42 ;&st7; " /><path d=" M 3726.91,   82.80  C 3726.91    80.30  3724.88    78.27  3722.38    78.27 " style="stroke-width: 1.42 ;&st7; " /><path d=" M 3722.38,   78.27  C 3719.87    78.27  3717.85    80.30  3717.85    82.80 " style="stroke-width: 1.42 ;&st7; " /><path d=" M 3717.85,   82.80  C 3717.85    85.31  3719.87    87.34  3722.38    87.34 " style="stroke-width: 1.42 ;&st7; " /><path d=" M 3722.38,   87.34  C 3724.88    87.34  3726.91    85.31  3726.91    82.80 " style="stroke-width: 1.42 ;&st7; " /><path d=" M 3684.42,   82.80  C 3684.42    80.30  3682.39    78.27  3679.89    78.27 " style="stroke-width: 1.42 ;&st7; " /><path d=" M 3679.89,   78.27  C 3677.38    78.27  3675.35    80.30  3675.35    82.80 " style="stroke-width: 1.42 ;&st7; " /><path d=" M 3675.35,   82.80  C 3675.35    85.31  3677.38    87.34  3679.89    87.34 " style="stroke-width: 1.42 ;&st7; " /><path d=" M 3679.89,   87.34  C 3682.39    87.34  3684.42    85.31  3684.42    82.80 " style="stroke-width: 1.42 ;&st7; " /><text style="&st18;" transform="matrix(&st16;  3941.01  238.88 )">B</text><text style="&st18;" transform="matrix(&st16;  3971.9  238.88 )">LIN</text><text ewd:textID="6" style="&st18;" transform="matrix(&st16;  3881.33  330.95 )">Back Door Power Window Regulator Sub-Assembly</text><text style="&st18;" transform="matrix(&st16;  3819.0  658.12 )">F64</text><text ewd:textID="15" style="&st18;" transform="matrix(&st16;  3819.0  665.23 )">Junction <tspan dy="6" x="0">Connector</tspan></text><text style="&st18;" transform="matrix(&st16;  3800.57  652.49 )">7</text><text style="&st18;" transform="matrix(&st16;  3881.33  323.84 )">W9</text><text style="&st18;" transform="matrix(&st17;  3939.65  168.49 )">GR</text><text style="&st18;" transform="matrix(&st17;  3973.64  167.92 )">SB</text><text style="&st18;" transform="matrix(&st16;  3934.09  74.58 )">BDR2</text><text style="&st18;" transform="matrix(&st16;  3967.8  74.58 )">MPX2</text><text style="&st18;" transform="matrix(&st16;  3936.55  227.56 )">2</text><text style="&st18;" transform="matrix(&st16;  3970.54  227.56 )">9</text><text style="&st18;" transform="matrix(&st16;  3997.3  84.77 )">14</text><text style="&st18;" transform="matrix(&st16;  3964.09  84.77 )">11</text><text style="&st18;" transform="matrix(&st16;  3975.0  84.77 )">B</text><text style="&st18;" transform="matrix(&st16;  3932.49  84.77 )">6</text><text style="&st18;" transform="matrix(&st16;  3941.01  84.77 )">B</text><text ewd:textID="7" style="&st18;" transform="matrix(&st16;  3677.36  449.93 )">Back Door Power Window <tspan dy="6" x="0">Regulator Switch Assembly</tspan></text><text style="&st18;" transform="matrix(&st17;  3718.68  114.74 )">R</text><text style="&st18;" transform="matrix(&st17;  3761.17  114.6 )">B</text><text style="&st18;" transform="matrix(&st16;  3661.89  135.48 )">19</text><text style="&st18;" transform="matrix(&st16;  3665.07  194.97 )">4</text><text style="&st18;" transform="matrix(&st16;  3665.07  245.96 )">7</text><text style="&st18;" transform="matrix(&st16;  3665.07  288.46 )">8</text><text style="&st18;" transform="matrix(&st17;  3676.19  165.59 )">P</text><text style="&st18;" transform="matrix(&st17;  3676.19  220.83 )">P</text><text style="&st18;" transform="matrix(&st17;  3676.19  267.57 )">P</text><text style="&st18;" transform="matrix(&st17;  3676.19  318.56 )">P</text><text style="&st18;" transform="matrix(&st16;  3704.38  135.48 )">18</text><text style="&st18;" transform="matrix(&st16;  3707.56  194.97 )">3</text><text style="&st18;" transform="matrix(&st16;  3707.56  245.96 )">6</text><text style="&st18;" transform="matrix(&st16;  3707.56  288.46 )">9</text><text style="&st18;" transform="matrix(&st17;  3718.68  165.73 )">R</text><text style="&st18;" transform="matrix(&st17;  3718.68  220.97 )">R</text><text style="&st18;" transform="matrix(&st17;  3718.68  267.71 )">R</text><text style="&st18;" transform="matrix(&st17;  3718.68  318.7 )">R</text><text style="&st18;" transform="matrix(&st16;  3746.1  135.48 )">20</text><text style="&st18;" transform="matrix(&st16;  3750.06  194.97 )">2</text><text style="&st18;" transform="matrix(&st16;  3750.06  245.96 )">5</text><text style="&st18;" transform="matrix(&st16;  3746.88  288.46 )">10</text><text style="&st18;" transform="matrix(&st17;  3761.17  165.59 )">B</text><text style="&st18;" transform="matrix(&st17;  3761.17  220.83 )">B</text><text style="&st18;" transform="matrix(&st17;  3761.17  267.57 )">B</text><text style="&st18;" transform="matrix(&st17;  3761.17  318.56 )">B</text><text style="&st18;" transform="matrix(&st16;  3800.57  338.04 )">4</text><text style="&st18;" transform="matrix(&st16;  3792.55  135.48 )">7</text><text style="&st18;" transform="matrix(&st16;  3793.33  194.97 )">1</text><text style="&st18;" transform="matrix(&st16;  3792.55  245.96 )">4</text><text style="&st18;" transform="matrix(&st16;  3790.15  288.46 )">11</text><text style="&st18;" transform="matrix(&st17;  3803.67  165.24 )">L</text><text style="&st18;" transform="matrix(&st17;  3803.67  220.48 )">L</text><text style="&st18;" transform="matrix(&st17;  3803.67  267.57 )">V</text><text style="&st18;" transform="matrix(&st17;  3803.67  318.56 )">V</text><text style="&st18;" transform="matrix(&st16;  3894.05  227.56 )">5</text><text style="&st18;" transform="matrix(&st16;  3894.07  238.88 )">LED</text><text style="&st18;" transform="matrix(&st16;  3883.63  135.48 )">11</text><text style="&st18;" transform="matrix(&st17;  3897.15  165.24 )">L</text><text style="&st18;" transform="matrix(&st16;  3801.35  443.41 )">1</text><text style="&st18;" transform="matrix(&st16;  3789.37  492.42 )">14</text><text style="&st18;" transform="matrix(&st16;  3802.91  551.91 )">5C</text><text style="&st18;" transform="matrix(&st16;  3790.72  551.91 )">44</text><text style="&st18;" transform="matrix(&st16;  3803.05  594.41 )">5A</text><text style="&st18;" transform="matrix(&st16;  3790.72  594.41 )">65</text><text style="&st18;" transform="matrix(&st17;  3803.67  642.63 )">W-B</text><text style="&st18;" transform="matrix(&st17;  3803.67  519.4 )">W-B</text><text style="&st18;" transform="matrix(&st17;  3803.67  468.41 )">W-B</text><text style="&st18;" transform="matrix(&st16;  3503.12  329.54 )">6</text><text style="&st18;" transform="matrix(&st16;  3545.61  329.54 )">8</text><text style="&st18;" transform="matrix(&st17;  3506.22  309.71 )">L</text><text style="&st18;" transform="matrix(&st17;  3548.71  310.06 )">P</text><text style="&st18;" transform="matrix(&st16;  3588.11  329.54 )">4</text><text style="&st18;" transform="matrix(&st17;  3591.2  310.06 )">V</text><text style="&st18;" transform="matrix(&st16;  3588.89  434.91 )">1</text><text style="&st18;" transform="matrix(&st17;  3591.2  459.91 )">W-B</text><text style="&st18;" transform="matrix(&st16;  3580.09  483.92 )">6</text><text style="&st18;" transform="matrix(&st16;  3856.38  108.57 )">L</text><text style="&st18;" transform="matrix(&st16;  3682.72  349.92 )">UP</text><text style="&st18;" transform="matrix(&st16;  3725.21  349.92 )">DOWN</text><text style="&st18;" transform="matrix(&st16;  3767.7  349.92 )">AUTO</text><text style="&st18;" transform="matrix(&st16;  3810.2  349.92 )">ILL+</text><text style="&st18;" transform="matrix(&st16;  3810.2  431.52 )">E</text><text style="&st18;" transform="matrix(&st16;  3597.73  423.02 )">GND</text><text style="&st18;" transform="matrix(&st16;  3597.73  341.42 )">LED</text><text style="&st18;" transform="matrix(&st16;  3555.24  341.42 )">AUTO</text><text style="&st18;" transform="matrix(&st16;  3512.75  341.42 )">UP</text><text ewd:textID="18" style="&st18;" transform="matrix(&st16;  3872.83  40.58 )">Multiplex Network Door ECU</text><text style="&st18;" transform="matrix(&st16;  3872.83  33.47 )">V2(A),W10(B)</text><text style="&st18;" transform="matrix(&st16;  3677.36  442.82 )">f1</text><text style="&st18;" transform="matrix(&st16;  3672.75  74.58 )">BUP</text><text style="&st18;" transform="matrix(&st16;  3715.1  74.58 )">BDN</text><text style="&st18;" transform="matrix(&st16;  3755.19  74.58 )">AUTO</text><text style="&st18;" transform="matrix(&st16;  3673.09  338.04 )">6</text><text style="&st18;" transform="matrix(&st16;  3715.58  338.04 )">7</text><text style="&st18;" transform="matrix(&st16;  3758.08  338.04 )">8</text><text style="&st18;" transform="matrix(&st16;  3762.54  84.77 )">A</text><text style="&st18;" transform="matrix(&st16;  3750.84  84.77 )">21</text><text style="&st18;" transform="matrix(&st16;  3707.57  84.77 )">23</text><text style="&st18;" transform="matrix(&st16;  3720.05  84.77 )">A</text><text style="&st18;" transform="matrix(&st16;  3665.08  84.77 )">22</text><text style="&st18;" transform="matrix(&st16;  3677.55  84.77 )">A</text><text style="&st18;" transform="matrix(&st17;  3676.19  114.6 )">P</text></svg>