﻿<?xml version="1.0" encoding="utf-8"?>
<!DOCTYPE svg PUBLIC "-//W3C//DTD SVG 1.0//EN" "http://www.w3.org/TR/2001/REC-SVG-20010904/DTD/svg10.dtd"[
	<!ENTITY ns_flows "http://ns.adobe.com/Flows/1.0/">
	<!ENTITY ns_svg "http://www.w3.org/2000/svg">
	<!ENTITY ns_xlink "http://www.w3.org/1999/xlink">
	<!ENTITY st0 "font-size:7px;font-family:'MS-PGothic';adobe-font-script:japanese;">
	<!ENTITY st1 "font-size:6px;font-family:'ArialMT';">
	<!-- White fill  -->
	<!ENTITY st2 "fill:#FFFFFF;stroke:#000000; stroke-width:1.41;stroke-linecap:round;stroke-linejoin:round;">
	<!-- Yellow fill  -->
	<!ENTITY st3 "fill:#FFFFCC;stroke:#FFFFCC; stroke-width:0.1;stroke-linecap:round;stroke-linejoin:round;">
	<!-- Gray fill  -->
	<!ENTITY st4 "fill:#CCCCCC;stroke:#CCCCCC; stroke-width:0.1;stroke-linecap:round;stroke-linejoin:round;">
	<!-- Light-blue fill -->
	<!ENTITY st5 "fill:#CCECF4;stroke:#000000; stroke-width:1.133;stroke-linecap:round;stroke-linejoin:round;">
	<!ENTITY st6 "fill:none;stroke-linecap:butt; stroke-linejoin:round;">
	<!ENTITY st7 "fill:none;stroke:#000000;stroke-linecap:round;stroke-linejoin:round;">
	<!ENTITY st8 "enable-background:new    ;">
	<!-- Black fill -->
	<!ENTITY st9 "fill:#000000;stroke:#000000; stroke-linecap:round;stroke-linejoin:round;">
	<!-- SRS note   -->
	<!ENTITY st10 "font-size:9px;font-family:'ArialMT';">
	<!ENTITY st11 "font-size:9px;font-family:'Svg Symbol';">
	<!ENTITY st12 "font-size:6px;font-family:'Svg Symbol';">
	<!ENTITY st13 "fill:none;stroke:#ff0000;stroke-linecap:round;stroke-linejoin:round;">
	<!-- Yellow fill  -->
	<!ENTITY st14 "fill:#FFFF00;stroke:#FFFF00; stroke-width:0.1;stroke-linecap:round;stroke-linejoin:round;">
	<!ENTITY st15 "font-size:6px;font-family:'MS-PGothic';adobe-font-script:japanese;">
	<!ENTITY st16 "1.00 0.00 0.00 1.00">
	<!ENTITY st17 "0.00 -1.00 1.00 0.00">
	<!ENTITY st18 "font-size:6px;font-family:'Arial';">
	<!ENTITY st19 "font-size:9px;font-family:'Arial';">
	<!ENTITY st20 "font-size:6px;font-family:'MS-PGothic','MS PGothic';adobe-font-script:japanese;">
	<!ENTITY st21 "font-size:7px;font-family:'MS-PGothic','MS PGothic';adobe-font-script:japanese;">
	<!ATTLIST svg
		xmlns:ewd CDATA #FIXED "http://shcl.co.jp/ewd"
		xmlns:a CDATA #FIXED "http://ns.adobe.com/AdobeSVGViewerExtensions/3.0/"
		ewd:ver CDATA #IMPLIED
	>
	<!ATTLIST a
		ewd:lineID CDATA #IMPLIED
		ewd:groupID CDATA #IMPLIED
		ewd:figtype CDATA #IMPLIED
		ewd:code CDATA #IMPLIED
		ewd:figID CDATA #IMPLIED
		ewd:pinNo CDATA #IMPLIED
		ewd:comment CDATA #IMPLIED >
	<!ATTLIST g
		ewd:lineID CDATA #IMPLIED
		ewd:groupID CDATA #IMPLIED
		ewd:figtype CDATA #IMPLIED
		ewd:code CDATA #IMPLIED
		ewd:figID CDATA #IMPLIED
		ewd:pinNo CDATA #IMPLIED
		ewd:comment CDATA #IMPLIED >
	<!ATTLIST text
		ewd:textID CDATA #IMPLIED >
	<!ATTLIST title
		ewd:textID CDATA #IMPLIED >
]>
<!-- Generator: Shintec Hozumi YS   -->
<svg onload="call_execInitLoadProc_svg('system')" style="overflow:visible;  enable-background:new 0 0 2915.721 710.000" viewBox="0 0 2915.721 710.000" height="710.000" width="2915.721" xml:space="preserve" ewd:ver="L2.1.2.8" xmlns="&ns_svg;" xmlns:a="http://ns.adobe.com/AdobeSVGViewerExtensions/3.0/" xmlns:ewd="http://shcl.co.jp/ewd" xmlns:xlink="&ns_xlink;">
<path d=" M 1971.67,  562.69  L 1980.17,  562.69 " style="stroke-width: 1.42 ;&st7; " /><path d=" M 1920.68,  562.69  L 1929.18,  562.69 " style="stroke-width: 1.42 ;&st7; " /><path d=" M 1878.19,  562.69  L 1886.68,  562.69 " style="stroke-width: 1.42 ;&st7; " /><path d=" M 1750.71,  460.71  L 1750.71,  486.20  L 1818.70,  486.20  L 1818.70,  460.71  L 1750.71,  460.71 " style="stroke-width: 1.42 ;&st7; " /><path d=" M 1810.20,  460.71  L 1810.20,  435.21 " style="stroke-width: 0.85 ;&st7; " /><path d=" M 1759.21,  460.71  L 1759.21,  435.21 " style="stroke-width: 0.85 ;&st7; " /><path d=" M 1742.21,  435.21  L 1742.21,  503.20  L 1835.69,  503.20  L 1835.69,  435.21  L 1742.21,  435.21 " style="stroke-width: 1.42 ;&st7; " /><path d=" M 1589.23,  435.21  L 1589.23,  477.71  L 1674.22,  477.71  L 1674.22,  435.21  L 1589.23,  435.21 " style="stroke-width: 1.42 ;&st7; " /><path d=" M 1975.92,  553.63  L 1980.17,  557.88  L 1984.42,  553.63 " style="stroke-width: 1.42 ;&st7; " /><path d=" M 1878.19,  435.21  L 1878.19,  486.20  L 2031.16,  486.20  L 2031.16,  435.21  L 1878.19,  435.21 " style="stroke-width: 1.42 ;&st7; " /><path d=" M 1924.93,  553.63  L 1929.18,  557.88  L 1933.43,  553.63 " style="stroke-width: 1.42 ;&st7; " /><path d=" M 1984.42,  557.03  L 1980.17,  561.27  L 1975.92,  557.03 " style="stroke-width: 1.42 ;&st7; " /><path d=" M 1929.18,  469.21  L 1929.18,  486.20 " style="stroke-width: 0.85 ;&st7; " /><path d=" M 1890.93,  557.03  L 1886.68,  561.27  L 1882.43,  557.03 " style="stroke-width: 1.42 ;&st7; " /><path d=" M 1882.43,  553.63  L 1886.68,  557.88  L 1890.93,  553.63 " style="stroke-width: 1.42 ;&st7; " /><path d=" M 1933.43,  557.03  L 1929.18,  561.27  L 1924.93,  557.03 " style="stroke-width: 1.42 ;&st7; " /><path d=" M 1886.68,  452.21  L 1886.68,  486.20 " style="stroke-width: 0.85 ;&st7; " /><path d=" M 1886.68,  452.21  L 2022.66,  452.21  L 2022.66,  486.20 " style="stroke-width: 0.85 ;&st7; " /><path d=" M 1929.18,  469.21  L 1980.17,  469.21  L 1980.17,  486.20 " style="stroke-width: 0.85 ;&st7; " /><path d=" M 1610.76,  363.26  C 1610.76   360.75  1608.73   358.73  1606.23   358.73 " style="stroke-width: 1.42 ;&st7; " /><path d=" M 1606.23,  358.73  C 1603.73   358.73  1601.70   360.75  1601.70   363.26 " style="stroke-width: 1.42 ;&st7; " /><path d=" M 1601.70,  363.26  C 1601.70   365.76  1603.73   367.79  1606.23   367.79 " style="stroke-width: 1.42 ;&st7; " /><path d=" M 1606.23,  367.79  C 1608.73   367.79  1610.76   365.76  1610.76   363.26 " style="stroke-width: 1.42 ;&st7; " /><path d=" M 1661.76,  363.26  C 1661.76   360.75  1659.73   358.73  1657.22   358.73 " style="stroke-width: 1.42 ;&st7; " /><path d=" M 1657.22,  358.73  C 1654.72   358.73  1652.69   360.75  1652.69   363.26 " style="stroke-width: 1.42 ;&st7; " /><path d=" M 1652.69,  363.26  C 1652.69   365.76  1654.72   367.79  1657.22   367.79 " style="stroke-width: 1.42 ;&st7; " /><path d=" M 1657.22,  367.79  C 1659.73   367.79  1661.76   365.76  1661.76   363.26 " style="stroke-width: 1.42 ;&st7; " /><path d=" M 1763.74,  363.26  C 1763.74   360.75  1761.71   358.73  1759.21   358.73 " style="stroke-width: 1.42 ;&st7; " /><path d=" M 1759.21,  358.73  C 1756.70   358.73  1754.67   360.75  1754.67   363.26 " style="stroke-width: 1.42 ;&st7; " /><path d=" M 1754.67,  363.26  C 1754.67   365.76  1756.70   367.79  1759.21   367.79 " style="stroke-width: 1.42 ;&st7; " /><path d=" M 1759.21,  367.79  C 1761.71   367.79  1763.74   365.76  1763.74   363.26 " style="stroke-width: 1.42 ;&st7; " /><path d=" M 1814.73,  363.26  C 1814.73   360.75  1812.70   358.73  1810.20   358.73 " style="stroke-width: 1.42 ;&st7; " /><path d=" M 1810.20,  358.73  C 1807.69   358.73  1805.66   360.75  1805.66   363.26 " style="stroke-width: 1.42 ;&st7; " /><path d=" M 1805.66,  363.26  C 1805.66   365.76  1807.69   367.79  1810.20   367.79 " style="stroke-width: 1.42 ;&st7; " /><path d=" M 1810.20,  367.79  C 1812.70   367.79  1814.73   365.76  1814.73   363.26 " style="stroke-width: 1.42 ;&st7; " /><path d=" M 1814.73,  303.20  C 1814.73   300.70  1812.70   298.67  1810.20   298.67 " style="stroke-width: 1.42 ;&st7; " /><path d=" M 1810.20,  298.67  C 1807.69   298.67  1805.66   300.70  1805.66   303.20 " style="stroke-width: 1.42 ;&st7; " /><path d=" M 1805.66,  303.20  C 1805.66   305.70  1807.69   307.73  1810.20   307.73 " style="stroke-width: 1.42 ;&st7; " /><path d=" M 1810.20,  307.73  C 1812.70   307.73  1814.73   305.70  1814.73   303.20 " style="stroke-width: 1.42 ;&st7; " /><path d=" M 1763.74,  303.20  C 1763.74   300.70  1761.71   298.67  1759.21   298.67 " style="stroke-width: 1.42 ;&st7; " /><path d=" M 1759.21,  298.67  C 1756.70   298.67  1754.67   300.70  1754.67   303.20 " style="stroke-width: 1.42 ;&st7; " /><path d=" M 1754.67,  303.20  C 1754.67   305.70  1756.70   307.73  1759.21   307.73 " style="stroke-width: 1.42 ;&st7; " /><path d=" M 1759.21,  307.73  C 1761.71   307.73  1763.74   305.70  1763.74   303.20 " style="stroke-width: 1.42 ;&st7; " /><text ewd:textID="17" style="&st18;" transform="matrix(&st16;  1762.59  493.84 )">Buckle Switch</text><text style="&st18;" transform="matrix(&st16;  1813.03  443.41 )">LBE-</text><text style="&st18;" transform="matrix(&st16;  1762.04  443.41 )">LBE+</text><text style="&st18;" transform="matrix(&st16;  1800.94  315.37 )">CANL</text><text style="&st18;" transform="matrix(&st16;  1749.46  315.37 )">CANH</text><text style="&st18;" transform="matrix(&st16;  1756.87  305.17 )">A</text><text style="&st18;" transform="matrix(&st16;  1807.87  305.17 )">A</text><text style="&st18;" transform="matrix(&st16;  1795.36  305.17 )">22</text><text style="&st18;" transform="matrix(&st16;  1745.15  305.17 )">13</text><text style="&st18;" transform="matrix(&st16;  1739.68  510.81 )">O3</text><text ewd:textID="31" style="&st18;" transform="matrix(&st16;  1739.68  517.92 )">Front Seat Inner Belt <tspan dy="6" x="0">Assembly LH</tspan></text><text style="&st18;" transform="matrix(&st16;  1586.71  485.32 )">N6</text><text style="&st18;" transform="matrix(&st17;  1755.51  403.97 )">G</text><text style="&st18;" transform="matrix(&st16;  1745.15  365.23 )">10</text><text style="&st18;" transform="matrix(&st17;  1806.5  403.2 )">L</text><text style="&st18;" transform="matrix(&st16;  1801.54  355.03 )">LBE-</text><text style="&st18;" transform="matrix(&st16;  1807.72  365.23 )">C</text><text style="&st18;" transform="matrix(&st16;  1796.14  365.23 )">18</text><text style="&st18;" transform="matrix(&st16;  1804.18  431.52 )">1</text><text style="&st18;" transform="matrix(&st16;  1752.41  431.52 )">2</text><text style="&st18;" transform="matrix(&st16;  1756.73  365.23 )">C</text><text style="&st18;" transform="matrix(&st16;  1750.55  355.03 )">LBE+</text><text style="&st18;" transform="matrix(&st17;  1602.54  403.97 )">G</text><text style="&st18;" transform="matrix(&st16;  1592.18  365.23 )">21</text><text style="&st18;" transform="matrix(&st17;  1653.53  403.69 )">R</text><text style="&st18;" transform="matrix(&st16;  1647.93  355.03 )">BDR-</text><text style="&st18;" transform="matrix(&st16;  1654.89  365.23 )">B</text><text style="&st18;" transform="matrix(&st16;  1642.39  365.23 )">22</text><text style="&st18;" transform="matrix(&st16;  1648.07  442.85 )">BER-</text><text style="&st18;" transform="matrix(&st16;  1597.08  442.85 )">BER+</text><text style="&st18;" transform="matrix(&st16;  1651.21  431.52 )">1</text><text style="&st18;" transform="matrix(&st16;  1599.44  431.52 )">2</text><text style="&st18;" transform="matrix(&st16;  1603.9  365.23 )">B</text><text style="&st18;" transform="matrix(&st16;  1596.94  355.03 )">BDR+</text><text ewd:textID="45" style="&st18;" transform="matrix(&st16;  1586.71  492.42 )">Rear Floor Side Airbag Sensor</text><text style="&st18;" transform="matrix(&st16;  1629.2  332.34 )">F33(A),N1(B),O1(C)</text><text ewd:textID="15" style="&st18;" transform="matrix(&st16;  1629.2  339.45 )">Airbag Sensor Assembly</text><text ewd:textID="44" style="&st18;" transform="matrix(&st17;  1501.97  463.23 )">Rear Airbag Sensor RH</text><text style="&st18;" transform="matrix(&st16;  1973.38  494.4 )">2</text><text style="&st18;" transform="matrix(&st16;  1966.13  568.91 )">1</text><text style="&st18;" transform="matrix(&st16;  1879.9  494.4 )">6</text><text style="&st18;" transform="matrix(&st16;  1922.39  494.4 )">3</text><text style="&st18;" transform="matrix(&st17;  1806.5  268.6 )">W</text><text style="&st18;" transform="matrix(&st17;  1925.48  530.67 )">L</text><text style="&st18;" transform="matrix(&st17;  1882.99  532.05 )">W</text><text style="&st18;" transform="matrix(&st16;  1867.91  568.91 )">30</text><text style="&st18;" transform="matrix(&st17;  1755.51  267.57 )">Y</text><text style="&st18;" transform="matrix(&st16;  1910.41  568.91 )">29</text><text style="&st18;" transform="matrix(&st17;  1976.47  533.92 )">GR</text></svg>