﻿<?xml version="1.0" encoding="utf-8"?>
<!DOCTYPE svg PUBLIC "-//W3C//DTD SVG 1.0//EN" "http://www.w3.org/TR/2001/REC-SVG-20010904/DTD/svg10.dtd"[
	<!ENTITY ns_flows "http://ns.adobe.com/Flows/1.0/">
	<!ENTITY ns_svg "http://www.w3.org/2000/svg">
	<!ENTITY ns_xlink "http://www.w3.org/1999/xlink">
	<!ENTITY st0 "font-size:7px;font-family:'MS-PGothic';adobe-font-script:japanese;">
	<!ENTITY st1 "font-size:6px;font-family:'ArialMT';">
	<!-- White fill  -->
	<!ENTITY st2 "fill:#FFFFFF;stroke:#000000; stroke-width:1.41;stroke-linecap:round;stroke-linejoin:round;">
	<!-- Yellow fill  -->
	<!ENTITY st3 "fill:#FFFFCC;stroke:#FFFFCC; stroke-width:0.1;stroke-linecap:round;stroke-linejoin:round;">
	<!-- Gray fill  -->
	<!ENTITY st4 "fill:#CCCCCC;stroke:#CCCCCC; stroke-width:0.1;stroke-linecap:round;stroke-linejoin:round;">
	<!-- Light-blue fill -->
	<!ENTITY st5 "fill:#CCECF4;stroke:#000000; stroke-width:1.133;stroke-linecap:round;stroke-linejoin:round;">
	<!ENTITY st6 "fill:none;stroke-linecap:butt; stroke-linejoin:round;">
	<!ENTITY st7 "fill:none;stroke:#000000;stroke-linecap:round;stroke-linejoin:round;">
	<!ENTITY st8 "enable-background:new    ;">
	<!-- Black fill -->
	<!ENTITY st9 "fill:#000000;stroke:#000000; stroke-linecap:round;stroke-linejoin:round;">
	<!-- SRS note   -->
	<!ENTITY st10 "font-size:9px;font-family:'ArialMT';">
	<!ENTITY st11 "font-size:9px;font-family:'Svg Symbol';">
	<!ENTITY st12 "font-size:6px;font-family:'Svg Symbol';">
	<!ENTITY st13 "fill:none;stroke:#ff0000;stroke-linecap:round;stroke-linejoin:round;">
	<!-- Yellow fill  -->
	<!ENTITY st14 "fill:#FFFF00;stroke:#FFFF00; stroke-width:0.1;stroke-linecap:round;stroke-linejoin:round;">
	<!ENTITY st15 "font-size:6px;font-family:'MS-PGothic';adobe-font-script:japanese;">
	<!ENTITY st16 "1.00 0.00 0.00 1.00">
	<!ENTITY st17 "0.00 -1.00 1.00 0.00">
	<!ENTITY st18 "font-size:6px;font-family:'Arial';">
	<!ENTITY st19 "font-size:9px;font-family:'Arial';">
	<!ENTITY st20 "font-size:6px;font-family:'MS-PGothic','MS PGothic';adobe-font-script:japanese;">
	<!ENTITY st21 "font-size:7px;font-family:'MS-PGothic','MS PGothic';adobe-font-script:japanese;">
	<!ATTLIST svg
		xmlns:ewd CDATA #FIXED "http://shcl.co.jp/ewd"
		xmlns:a CDATA #FIXED "http://ns.adobe.com/AdobeSVGViewerExtensions/3.0/"
		ewd:ver CDATA #IMPLIED
	>
	<!ATTLIST a
		ewd:lineID CDATA #IMPLIED
		ewd:groupID CDATA #IMPLIED
		ewd:figtype CDATA #IMPLIED
		ewd:code CDATA #IMPLIED
		ewd:figID CDATA #IMPLIED
		ewd:pinNo CDATA #IMPLIED
		ewd:comment CDATA #IMPLIED >
	<!ATTLIST g
		ewd:lineID CDATA #IMPLIED
		ewd:groupID CDATA #IMPLIED
		ewd:figtype CDATA #IMPLIED
		ewd:code CDATA #IMPLIED
		ewd:figID CDATA #IMPLIED
		ewd:pinNo CDATA #IMPLIED
		ewd:comment CDATA #IMPLIED >
	<!ATTLIST text
		ewd:textID CDATA #IMPLIED >
	<!ATTLIST title
		ewd:textID CDATA #IMPLIED >
]>
<!-- Generator: Shintec Hozumi YS   -->
<svg onload="call_execInitLoadProc_svg('system')" style="overflow:visible;  enable-background:new 0 0 4631.726 710.000" viewBox="0 0 4631.726 710.000" height="710.000" width="4631.726" xml:space="preserve" ewd:ver="L2.1.2.8" xmlns="&ns_svg;" xmlns:a="http://ns.adobe.com/AdobeSVGViewerExtensions/3.0/" xmlns:ewd="http://shcl.co.jp/ewd" xmlns:xlink="&ns_xlink;">
<path d=" M 1257.79,  146.26  L 1257.79,  154.76 " style="stroke-width: 0.85 ;&st7; " /><path d=" M 1283.29,  204.33  L 1288.95,  227.00 " style="stroke-width: 1.42 ;&st7; " /><path d=" M 1283.29,  231.25  L 1283.29,  227.00 " style="stroke-width: 0.85 ;&st7; " /><path d=" M 1283.29,  197.25  L 1283.29,  201.50 " style="stroke-width: 0.85 ;&st7; " /><path d=" M 1257.79,  197.25  L 1257.79,  205.75 " style="stroke-width: 0.85 ;&st7; " /><path d=" M 1257.79,  222.75  L 1257.79,  231.25 " style="stroke-width: 0.85 ;&st7; " /><path d=" M 1259.91,  256.74  L 1255.67,  256.74 " style="stroke-width: 1.42 ;&st7; " /><path d=" M 1259.91,  265.24  L 1255.67,  265.24 " style="stroke-width: 1.42 ;&st7; " /><path d=" M 1285.41,  256.74  L 1281.16,  256.74 " style="stroke-width: 1.42 ;&st7; " /><path d=" M 1285.41,  265.24  L 1281.16,  265.24 " style="stroke-width: 1.42 ;&st7; " /><path d=" M 1387.39,  188.75  L 1383.14,  188.75 " style="stroke-width: 1.42 ;&st7; " /><path d=" M 1387.39,  180.26  L 1383.14,  180.26 " style="stroke-width: 1.42 ;&st7; " /><path d=" M 1387.39,  222.75  L 1383.14,  222.75 " style="stroke-width: 1.42 ;&st7; " /><path d=" M 1387.39,  231.25  L 1383.14,  231.25 " style="stroke-width: 1.42 ;&st7; " /><path d=" M 1208.92,  112.27  L 1204.67,  112.27 " style="stroke-width: 1.42 ;&st7; " /><path d=" M 1208.92,  120.77  L 1204.67,  120.77 " style="stroke-width: 1.42 ;&st7; " /><path d=" M 1087.82,  210.72  L 1082.85,  205.75 " style="stroke-width: 1.42 ;&st7; " /><path d=" M 1070.82,  217.78  L 1075.79,  222.75 " style="stroke-width: 1.42 ;&st7; " /><path d=" M 1082.85,  222.75  L 1087.82,  217.78 " style="stroke-width: 1.42 ;&st7; " /><path d=" M 1075.79,  205.75  L 1070.82,  210.72 " style="stroke-width: 1.42 ;&st7; " /><path d=" M 1079.32,  146.26  L 1079.32,  154.76 " style="stroke-width: 0.85 ;&st7; " /><path d=" M 1079.32,  300.65  L 1073.65,  277.99 " style="stroke-width: 1.42 ;&st7; " /><path d=" M 1079.32,  307.73  L 1079.32,  303.48 " style="stroke-width: 0.85 ;&st7; " /><path d=" M 1079.32,  277.99  L 1079.32,  273.74 " style="stroke-width: 0.85 ;&st7; " /><path d=" M 1104.82,  273.74  L 1104.82,  282.24 " style="stroke-width: 0.85 ;&st7; " /><path d=" M 1104.82,  299.24  L 1104.82,  307.73 " style="stroke-width: 0.85 ;&st7; " /><path d=" M 1081.44,  324.73  L 1077.20,  324.73 " style="stroke-width: 1.42 ;&st7; " /><path d=" M 1081.44,  333.23  L 1077.20,  333.23 " style="stroke-width: 1.42 ;&st7; " /><path d=" M 1106.94,  324.73  L 1102.69,  324.73 " style="stroke-width: 1.42 ;&st7; " /><path d=" M 1106.94,  333.23  L 1102.69,  333.23 " style="stroke-width: 1.42 ;&st7; " /><path d=" M 1166.43,  112.27  L 1162.18,  112.27 " style="stroke-width: 1.42 ;&st7; " /><path d=" M 1166.43,  120.77  L 1162.18,  120.77 " style="stroke-width: 1.42 ;&st7; " /><path d=" M 1081.44,  180.26  L 1077.20,  180.26 " style="stroke-width: 1.42 ;&st7; " /><path d=" M 1081.44,  171.76  L 1077.20,  171.76 " style="stroke-width: 1.42 ;&st7; " /><path d=" M 1081.44,  256.74  L 1077.20,  256.74 " style="stroke-width: 1.42 ;&st7; " /><path d=" M 1081.44,  248.24  L 1077.20,  248.24 " style="stroke-width: 1.42 ;&st7; " /><path d=" M 1106.94,  256.74  L 1102.69,  256.74 " style="stroke-width: 1.42 ;&st7; " /><path d=" M 1106.94,  248.24  L 1102.69,  248.24 " style="stroke-width: 1.42 ;&st7; " /><path d=" M 1487.25,  350.23  L 1504.25,  350.23 " style="stroke-width: 0.85 ;&st7; " /><path d=" M 1504.25,  316.23  L 1487.25,  316.23 " style="stroke-width: 0.85 ;&st7; " /><path d=" M 1066.57,  112.27  L 1066.57,  154.76  L 1092.07,  154.76  L 1092.07,  112.27  L 1066.57,  112.27 " style="stroke-width: 1.42 ;&st7; " /><path d=" M 1113.31,  273.74  L 1070.82,  273.74  L 1070.82,  307.73  L 1113.31,  307.73  L 1113.31,  273.74 " style="stroke-width: 1.42 ;&st7; " /><path d=" M 1079.32,  166.86  L 1076.49,  164.03  L 1076.49,  168.28  L 1079.32,  171.11  L 1082.15,  168.28  L 1082.15,  164.03  L 1079.32,  166.86 " style="stroke-width: 0.28 ;&st9;" /><path d=" M 1079.32,  319.84  L 1076.49,  317.00  L 1076.49,  321.25  L 1079.32,  324.09  L 1082.15,  321.25  L 1082.15,  317.00  L 1079.32,  319.84 " style="stroke-width: 0.28 ;&st9;" /><path d=" M 1104.81,  319.84  L 1101.98,  317.00  L 1101.98,  321.25  L 1104.81,  324.09  L 1107.65,  321.25  L 1107.65,  317.00  L 1104.81,  319.84 " style="stroke-width: 0.28 ;&st9;" /><path d=" M 1079.32,  307.73  L 1079.32,  324.73 " style="stroke-width: 0.85 ;&st7; " /><path d=" M 1104.81,  307.73  L 1104.81,  324.73 " style="stroke-width: 0.85 ;&st7; " /><path d=" M 1164.30,  107.37  L 1161.47,  104.54  L 1161.47,  108.79  L 1164.30,  111.62  L 1167.14,  108.79  L 1167.14,  104.54  L 1164.30,  107.37 " style="stroke-width: 0.28 ;&st9;" /><path d=" M 1164.30,   78.27  L 1164.30,  112.27 " style="stroke-width: 0.85 ;&st7; " /><path d=" M 1079.32,  469.21  L 1079.32,  477.71 " style="stroke-width: 0.85 ;&st7; " /><path d=" M 1070.82,  477.71  L 1087.82,  477.71 " style="stroke-width: 0.85 ;&st7; " /><path d=" M 1075.07,  480.54  L 1083.57,  480.54 " style="stroke-width: 0.85 ;&st7; " /><path d=" M 1076.49,  483.37  L 1082.15,  483.37 " style="stroke-width: 0.85 ;&st7; " /><path d=" M 1077.90,  486.20  L 1080.74,  486.20 " style="stroke-width: 0.85 ;&st7; " /><path d=" M 1073.03,  455.04  L 1062.32,  455.04  L 1062.32,  469.21  L 1071.36,  463.54 " style="stroke-width: 1.42 ;&st7; " /><path d=" M 1487.25,  350.23  L 1487.25,  341.73  L 1484.42,  340.31  L 1490.08,  337.48  L 1484.42,  334.65  L 1490.08,  331.81  L 1484.42,  328.98  L 1490.08,  326.15  L 1487.25,  324.73  L 1487.25,  316.23 " style="stroke-width: 0.85 ;&st7; " /><path d=" M 1478.75,  358.73  L 1478.75,  307.73  L 1512.75,  307.73  L 1512.75,  358.73  L 1478.75,  358.73 " style="stroke-width: 1.42 ;&st7; " /><path d=" M 1495.75,  701.50  L 1512.75,  701.50 " style="stroke-width: 0.85 ;&st7; " /><path d=" M 1079.32,  154.76  L 1079.32,  171.76 " style="stroke-width: 0.85 ;&st7; " /><path d=" M 1079.32,  256.74  L 1079.32,  273.74 " style="stroke-width: 0.85 ;&st7; " /><path d=" M 1079.32,  261.64  L 1082.15,  264.47  L 1082.15,  260.22  L 1079.32,  257.39  L 1076.49,  260.22  L 1076.49,  264.47  L 1079.32,  261.64 " style="stroke-width: 0.28 ;&st9;" /><path d=" M 1104.81,  256.74  L 1104.81,  273.74 " style="stroke-width: 0.85 ;&st7; " /><path d=" M 1104.81,  261.64  L 1107.65,  264.47  L 1107.65,  260.22  L 1104.81,  257.39  L 1101.98,  260.22  L 1101.98,  264.47  L 1104.81,  261.64 " style="stroke-width: 0.28 ;&st9;" /><path d=" M 1270.54,  154.76  L 1270.54,  112.27  L 1245.04,  112.27  L 1245.04,  154.76  L 1270.54,  154.76 " style="stroke-width: 1.42 ;&st7; " /><path d=" M 1291.78,  197.25  L 1249.29,  197.25  L 1249.29,  231.25  L 1291.78,  231.25  L 1291.78,  197.25 " style="stroke-width: 1.42 ;&st7; " /><path d=" M 1256.60,  179.25  L 1256.32,  179.72  L 1256.23,  180.26  L 1256.32,  180.79  L 1256.60,  181.26  L 1257.01,  181.60  L 1257.52,  181.79  L 1258.06,  181.79  L 1258.57,  181.60  L 1258.98,  181.26  L 1259.25,  180.79  L 1259.35,  180.26  L 1259.25,  179.72  L 1258.98,  179.25  L 1258.57,  178.91  L 1258.06,  178.72  L 1257.52,  178.72  L 1257.01,  178.91  L 1256.60,  179.25  L 1256.99,  179.96  L 1256.99,  180.55  L 1257.36,  180.99  L 1257.94,  181.09  L 1258.44,  180.80  L 1258.64,  180.26  L 1258.44,  179.71  L 1257.94,  179.42  L 1257.36,  179.52  L 1257.79,  180.26 " style="stroke-width: 0.85 ;&st7; " /><path d=" M 1257.79,  251.85  L 1254.96,  249.01  L 1254.96,  253.26  L 1257.79,  256.10  L 1260.62,  253.26  L 1260.62,  249.01  L 1257.79,  251.85 " style="stroke-width: 0.28 ;&st9;" /><path d=" M 1283.29,  251.85  L 1280.45,  249.01  L 1280.45,  253.26  L 1283.29,  256.10  L 1286.12,  253.26  L 1286.12,  249.01  L 1283.29,  251.85 " style="stroke-width: 0.28 ;&st9;" /><path d=" M 1257.79,  154.76  L 1257.79,  197.25 " style="stroke-width: 0.85 ;&st7; " /><path d=" M 1257.79,  180.26  L 1283.29,  180.26  L 1283.29,  197.25 " style="stroke-width: 0.85 ;&st7; " /><path d=" M 1257.79,  231.25  L 1257.79,  256.74 " style="stroke-width: 0.85 ;&st7; " /><path d=" M 1283.29,  231.25  L 1283.29,  256.74 " style="stroke-width: 0.85 ;&st7; " /><path d=" M 1283.29,  469.21  L 1283.29,  477.71 " style="stroke-width: 0.85 ;&st7; " /><path d=" M 1274.79,  477.71  L 1291.78,  477.71 " style="stroke-width: 0.85 ;&st7; " /><path d=" M 1279.04,  480.54  L 1287.53,  480.54 " style="stroke-width: 0.85 ;&st7; " /><path d=" M 1280.45,  483.37  L 1286.12,  483.37 " style="stroke-width: 0.85 ;&st7; " /><path d=" M 1281.87,  486.20  L 1284.70,  486.20 " style="stroke-width: 0.85 ;&st7; " /><path d=" M 1277.00,  455.04  L 1266.29,  455.04  L 1266.29,  469.21  L 1275.32,  463.54 " style="stroke-width: 1.42 ;&st7; " /><path d=" M 1385.27,  469.21  L 1385.27,  477.71 " style="stroke-width: 0.85 ;&st7; " /><path d=" M 1376.77,  477.71  L 1393.77,  477.71 " style="stroke-width: 0.85 ;&st7; " /><path d=" M 1381.02,  480.54  L 1389.52,  480.54 " style="stroke-width: 0.85 ;&st7; " /><path d=" M 1382.44,  483.37  L 1388.10,  483.37 " style="stroke-width: 0.85 ;&st7; " /><path d=" M 1383.85,  486.20  L 1386.68,  486.20 " style="stroke-width: 0.85 ;&st7; " /><path d=" M 1378.98,  455.04  L 1368.27,  455.04  L 1368.27,  469.21  L 1377.31,  463.54 " style="stroke-width: 1.42 ;&st7; " /><path d=" M 1206.80,   78.27  L 1206.80,  112.27 " style="stroke-width: 0.85 ;&st7; " /><path d=" M 1385.27,  193.65  L 1388.10,  196.48  L 1388.10,  192.23  L 1385.27,  189.40  L 1382.44,  192.23  L 1382.44,  196.48  L 1385.27,  193.65 " style="stroke-width: 0.28 ;&st9;" /><path d=" M 1368.27,  282.24  L 1368.27,  316.23  L 1402.27,  316.23  L 1402.27,  282.24  L 1368.27,  282.24 " style="stroke-width: 1.42 ;&st7; " /><path d=" M 1385.27,  188.75  L 1385.27,  222.75 " style="stroke-width: 0.85 ;&st7; " /><path d=" M 1385.27,  217.85  L 1382.44,  215.02  L 1382.44,  219.27  L 1385.27,  222.10  L 1388.10,  219.27  L 1388.10,  215.02  L 1385.27,  217.85 " style="stroke-width: 0.28 ;&st9;" /><path d=" M 1206.80,  107.37  L 1203.96,  104.54  L 1203.96,  108.79  L 1206.80,  111.62  L 1209.63,  108.79  L 1209.63,  104.54  L 1206.80,  107.37 " style="stroke-width: 0.28 ;&st9;" /><path d=" M 1080.74,  144.84  C 1080.74   144.06  1080.10   143.43  1079.32   143.43 " style="stroke-width: 0.85 ;&st7; " /><path d=" M 1079.32,  143.43  C 1078.54   143.43  1077.90   144.06  1077.90   144.84 " style="stroke-width: 0.85 ;&st7; " /><path d=" M 1077.90,  144.84  C 1077.90   145.63  1078.54   146.26  1079.32   146.26 " style="stroke-width: 0.85 ;&st7; " /><path d=" M 1079.32,  146.26  C 1080.10   146.26  1080.74   145.63  1080.74   144.84 " style="stroke-width: 0.85 ;&st7; " /><path d=" M 1080.74,  302.07  C 1080.74   301.29  1080.10   300.65  1079.32   300.65 " style="stroke-width: 0.85 ;&st7; " /><path d=" M 1079.32,  300.65  C 1078.54   300.65  1077.90   301.29  1077.90   302.07 " style="stroke-width: 0.85 ;&st7; " /><path d=" M 1077.90,  302.07  C 1077.90   302.85  1078.54   303.48  1079.32   303.48 " style="stroke-width: 0.85 ;&st7; " /><path d=" M 1079.32,  303.48  C 1080.10   303.48  1080.74   302.85  1080.74   302.07 " style="stroke-width: 0.85 ;&st7; " /><path d=" M 1080.74,  279.41  C 1080.74   278.62  1080.10   277.99  1079.32   277.99 " style="stroke-width: 0.85 ;&st7; " /><path d=" M 1079.32,  277.99  C 1078.54   277.99  1077.90   278.62  1077.90   279.41 " style="stroke-width: 0.85 ;&st7; " /><path d=" M 1077.90,  279.41  C 1077.90   280.19  1078.54   280.82  1079.32   280.82 " style="stroke-width: 0.85 ;&st7; " /><path d=" M 1079.32,  280.82  C 1080.10   280.82  1080.74   280.19  1080.74   279.41 " style="stroke-width: 0.85 ;&st7; " /><path d=" M 1102.29,  288.26  C 1103.65   289.66  1105.90   289.68  1107.29   288.31 " style="stroke-width: 0.85 ;&st7; " /><path d=" M 1107.29,  288.31  C 1108.69   286.94  1108.71   284.70  1107.35   283.30 " style="stroke-width: 0.85 ;&st7; " /><path d=" M 1107.35,  283.30  C 1106.65   282.59  1105.81   282.24  1104.82   282.24 " style="stroke-width: 0.85 ;&st7; " /><path d=" M 1102.29,  293.22  C 1103.65   294.61  1105.90   294.64  1107.29   293.27 " style="stroke-width: 0.85 ;&st7; " /><path d=" M 1107.29,  293.27  C 1108.69   291.90  1108.71   289.66  1107.35   288.26 " style="stroke-width: 0.85 ;&st7; " /><path d=" M 1107.35,  288.26  C 1105.98   286.86  1103.73   286.84  1102.34   288.21 " style="stroke-width: 0.85 ;&st7; " /><path d=" M 1102.34,  288.21  C 1102.32   288.22  1102.30   288.24  1102.29   288.26 " style="stroke-width: 0.85 ;&st7; " /><path d=" M 1104.82,  299.24  C 1106.77   299.24  1108.36   297.65  1108.36   295.69 " style="stroke-width: 0.85 ;&st7; " /><path d=" M 1108.36,  295.69  C 1108.36   293.74  1106.77   292.15  1104.82   292.15 " style="stroke-width: 0.85 ;&st7; " /><path d=" M 1104.82,  292.15  C 1103.82   292.15  1102.98   292.51  1102.29   293.22 " style="stroke-width: 0.85 ;&st7; " /><path d=" M 1077.20,  324.73  C 1074.85   324.73  1072.95   326.63  1072.95   328.98 " style="stroke-width: 1.42 ;&st7; " /><path d=" M 1072.95,  328.98  C 1072.95   331.33  1074.85   333.23  1077.20   333.23 " style="stroke-width: 1.42 ;&st7; " /><path d=" M 1081.44,  333.23  C 1083.79   333.23  1085.69   331.33  1085.69   328.98 " style="stroke-width: 1.42 ;&st7; " /><path d=" M 1085.69,  328.98  C 1085.69   326.63  1083.79   324.73  1081.44   324.73 " style="stroke-width: 1.42 ;&st7; " /><path d=" M 1102.69,  324.73  C 1100.34   324.73  1098.44   326.63  1098.44   328.98 " style="stroke-width: 1.42 ;&st7; " /><path d=" M 1098.44,  328.98  C 1098.44   331.33  1100.34   333.23  1102.69   333.23 " style="stroke-width: 1.42 ;&st7; " /><path d=" M 1106.94,  333.23  C 1109.29   333.23  1111.19   331.33  1111.19   328.98 " style="stroke-width: 1.42 ;&st7; " /><path d=" M 1111.19,  328.98  C 1111.19   326.63  1109.29   324.73  1106.94   324.73 " style="stroke-width: 1.42 ;&st7; " /><path d=" M 1162.18,  112.27  C 1159.83   112.27  1157.93   114.17  1157.93   116.52 " style="stroke-width: 1.42 ;&st7; " /><path d=" M 1157.93,  116.52  C 1157.93   118.86  1159.83   120.77  1162.18   120.77 " style="stroke-width: 1.42 ;&st7; " /><path d=" M 1166.43,  120.77  C 1168.78   120.77  1170.68   118.86  1170.68   116.52 " style="stroke-width: 1.42 ;&st7; " /><path d=" M 1170.68,  116.52  C 1170.68   114.17  1168.78   112.27  1166.43   112.27 " style="stroke-width: 1.42 ;&st7; " /><path d=" M 1071.32,  463.57  C 1072.90   467.99  1077.76   470.29  1082.18   468.71 " style="stroke-width: 1.42 ;&st7; " /><path d=" M 1082.18,  468.71  C 1086.60   467.13  1088.90   462.27  1087.32   457.85 " style="stroke-width: 1.42 ;&st7; " /><path d=" M 1087.32,  457.85  C 1085.74   453.43  1080.88   451.13  1076.46   452.71 " style="stroke-width: 1.42 ;&st7; " /><path d=" M 1076.46,  452.71  C 1075.06   453.21  1073.98   453.93  1072.99   455.04 " style="stroke-width: 1.42 ;&st7; " /><path d=" M 1072.99,  455.04  C 1070.85   457.43  1070.24   460.55  1071.32   463.57 " style="stroke-width: 1.42 ;&st7; " /><path d=" M 1085.69,  176.01  C 1085.69   173.66  1083.79   171.76  1081.44   171.76 " style="stroke-width: 1.42 ;&st7; " /><path d=" M 1081.44,  180.26  C 1083.79   180.26  1085.69   178.35  1085.69   176.01 " style="stroke-width: 1.42 ;&st7; " /><path d=" M 1072.95,  176.01  C 1072.95   178.35  1074.85   180.26  1077.20   180.26 " style="stroke-width: 1.42 ;&st7; " /><path d=" M 1077.20,  171.76  C 1074.85   171.76  1072.95   173.66  1072.95   176.01 " style="stroke-width: 1.42 ;&st7; " /><path d=" M 1085.69,  252.49  C 1085.69   250.15  1083.79   248.24  1081.44   248.24 " style="stroke-width: 1.42 ;&st7; " /><path d=" M 1081.44,  256.74  C 1083.79   256.74  1085.69   254.84  1085.69   252.49 " style="stroke-width: 1.42 ;&st7; " /><path d=" M 1072.95,  252.49  C 1072.95   254.84  1074.85   256.74  1077.20   256.74 " style="stroke-width: 1.42 ;&st7; " /><path d=" M 1077.20,  248.24  C 1074.85   248.24  1072.95   250.15  1072.95   252.49 " style="stroke-width: 1.42 ;&st7; " /><path d=" M 1111.19,  252.49  C 1111.19   250.15  1109.29   248.24  1106.94   248.24 " style="stroke-width: 1.42 ;&st7; " /><path d=" M 1106.94,  256.74  C 1109.29   256.74  1111.19   254.84  1111.19   252.49 " style="stroke-width: 1.42 ;&st7; " /><path d=" M 1098.44,  252.49  C 1098.44   254.84  1100.34   256.74  1102.69   256.74 " style="stroke-width: 1.42 ;&st7; " /><path d=" M 1102.69,  248.24  C 1100.34   248.24  1098.44   250.15  1098.44   252.49 " style="stroke-width: 1.42 ;&st7; " /><path d=" M 1497.87,  116.52  C 1497.87   118.86  1499.78   120.77  1502.12   120.77 " style="stroke-width: 1.42 ;&st7; " /><path d=" M 1257.79,  123.60  C 1255.05   125.21  1254.14   128.74  1255.75   131.48 " style="stroke-width: 1.42 ;&st7; " /><path d=" M 1255.75,  131.48  C 1256.27   132.36  1256.91   132.99  1257.79   133.51 " style="stroke-width: 1.42 ;&st7; " /><path d=" M 1257.79,  143.43  C 1260.53   141.81  1261.44   138.29  1259.83   135.55 " style="stroke-width: 1.42 ;&st7; " /><path d=" M 1259.83,  135.55  C 1259.31   134.67  1258.67   134.03  1257.79   133.51 " style="stroke-width: 1.42 ;&st7; " /><path d=" M 1259.21,  122.18  C 1259.21   121.40  1258.57   120.77  1257.79   120.77 " style="stroke-width: 0.85 ;&st7; " /><path d=" M 1257.79,  120.77  C 1257.01   120.77  1256.37   121.40  1256.37   122.18 " style="stroke-width: 0.85 ;&st7; " /><path d=" M 1256.37,  122.18  C 1256.37   122.96  1257.01   123.60  1257.79   123.60 " style="stroke-width: 0.85 ;&st7; " /><path d=" M 1257.79,  123.60  C 1258.57   123.60  1259.21   122.96  1259.21   122.18 " style="stroke-width: 0.85 ;&st7; " /><path d=" M 1259.21,  144.84  C 1259.21   144.06  1258.57   143.43  1257.79   143.43 " style="stroke-width: 0.85 ;&st7; " /><path d=" M 1257.79,  143.43  C 1257.01   143.43  1256.37   144.06  1256.37   144.84 " style="stroke-width: 0.85 ;&st7; " /><path d=" M 1256.37,  144.84  C 1256.37   145.63  1257.01   146.26  1257.79   146.26 " style="stroke-width: 0.85 ;&st7; " /><path d=" M 1257.79,  146.26  C 1258.57   146.26  1259.21   145.63  1259.21   144.84 " style="stroke-width: 0.85 ;&st7; " /><path d=" M 1284.70,  225.58  C 1284.70   224.80  1284.07   224.16  1283.29   224.16 " style="stroke-width: 0.85 ;&st7; " /><path d=" M 1283.29,  224.16  C 1282.50   224.16  1281.87   224.80  1281.87   225.58 " style="stroke-width: 0.85 ;&st7; " /><path d=" M 1281.87,  225.58  C 1281.87   226.36  1282.50   227.00  1283.29   227.00 " style="stroke-width: 0.85 ;&st7; " /><path d=" M 1283.29,  227.00  C 1284.07   227.00  1284.70   226.36  1284.70   225.58 " style="stroke-width: 0.85 ;&st7; " /><path d=" M 1284.70,  202.92  C 1284.70   202.14  1284.07   201.50  1283.29   201.50 " style="stroke-width: 0.85 ;&st7; " /><path d=" M 1283.29,  201.50  C 1282.50   201.50  1281.87   202.14  1281.87   202.92 " style="stroke-width: 0.85 ;&st7; " /><path d=" M 1281.87,  202.92  C 1281.87   203.70  1282.50   204.33  1283.29   204.33 " style="stroke-width: 0.85 ;&st7; " /><path d=" M 1283.29,  204.33  C 1284.07   204.33  1284.70   203.70  1284.70   202.92 " style="stroke-width: 0.85 ;&st7; " /><path d=" M 1255.26,  211.77  C 1256.63   213.17  1258.87   213.19  1260.27   211.82 " style="stroke-width: 0.85 ;&st7; " /><path d=" M 1260.27,  211.82  C 1261.67   210.45  1261.69   208.21  1260.32   206.81 " style="stroke-width: 0.85 ;&st7; " /><path d=" M 1260.32,  206.81  C 1259.63   206.11  1258.78   205.75  1257.79   205.75 " style="stroke-width: 0.85 ;&st7; " /><path d=" M 1255.26,  216.73  C 1256.63   218.13  1258.87   218.15  1260.27   216.78 " style="stroke-width: 0.85 ;&st7; " /><path d=" M 1260.27,  216.78  C 1261.67   215.41  1261.69   213.17  1260.32   211.77 " style="stroke-width: 0.85 ;&st7; " /><path d=" M 1260.32,  211.77  C 1258.95   210.37  1256.71   210.35  1255.31   211.72 " style="stroke-width: 0.85 ;&st7; " /><path d=" M 1255.31,  211.72  C 1255.29   211.74  1255.28   211.75  1255.26   211.77 " style="stroke-width: 0.85 ;&st7; " /><path d=" M 1257.79,  222.75  C 1259.75   222.75  1261.33   221.16  1261.33   219.21 " style="stroke-width: 0.85 ;&st7; " /><path d=" M 1261.33,  219.21  C 1261.33   217.25  1259.75   215.67  1257.79   215.67 " style="stroke-width: 0.85 ;&st7; " /><path d=" M 1257.79,  215.67  C 1256.80   215.67  1255.95   216.02  1255.26   216.73 " style="stroke-width: 0.85 ;&st7; " /><path d=" M 1255.67,  256.74  C 1253.32   256.74  1251.42   258.64  1251.42   260.99 " style="stroke-width: 1.42 ;&st7; " /><path d=" M 1251.42,  260.99  C 1251.42   263.34  1253.32   265.24  1255.67   265.24 " style="stroke-width: 1.42 ;&st7; " /><path d=" M 1259.91,  265.24  C 1262.26   265.24  1264.16   263.34  1264.16   260.99 " style="stroke-width: 1.42 ;&st7; " /><path d=" M 1264.16,  260.99  C 1264.16   258.64  1262.26   256.74  1259.91   256.74 " style="stroke-width: 1.42 ;&st7; " /><path d=" M 1281.16,  256.74  C 1278.81   256.74  1276.91   258.64  1276.91   260.99 " style="stroke-width: 1.42 ;&st7; " /><path d=" M 1276.91,  260.99  C 1276.91   263.34  1278.81   265.24  1281.16   265.24 " style="stroke-width: 1.42 ;&st7; " /><path d=" M 1285.41,  265.24  C 1287.76   265.24  1289.66   263.34  1289.66   260.99 " style="stroke-width: 1.42 ;&st7; " /><path d=" M 1289.66,  260.99  C 1289.66   258.64  1287.76   256.74  1285.41   256.74 " style="stroke-width: 1.42 ;&st7; " /><path d=" M 1275.28,  463.57  C 1276.86   467.99  1281.72   470.29  1286.14   468.71 " style="stroke-width: 1.42 ;&st7; " /><path d=" M 1286.14,  468.71  C 1290.56   467.13  1292.87   462.27  1291.29   457.85 " style="stroke-width: 1.42 ;&st7; " /><path d=" M 1291.29,  457.85  C 1289.71   453.43  1284.85   451.13  1280.43   452.71 " style="stroke-width: 1.42 ;&st7; " /><path d=" M 1280.43,  452.71  C 1279.03   453.21  1277.94   453.93  1276.95   455.04 " style="stroke-width: 1.42 ;&st7; " /><path d=" M 1276.95,  455.04  C 1274.81   457.43  1274.20   460.55  1275.28   463.57 " style="stroke-width: 1.42 ;&st7; " /><path d=" M 1377.27,  463.57  C 1378.84   467.99  1383.71   470.29  1388.13   468.71 " style="stroke-width: 1.42 ;&st7; " /><path d=" M 1388.13,  468.71  C 1392.55   467.13  1394.85   462.27  1393.27   457.85 " style="stroke-width: 1.42 ;&st7; " /><path d=" M 1393.27,  457.85  C 1391.69   453.43  1386.83   451.13  1382.41   452.71 " style="stroke-width: 1.42 ;&st7; " /><path d=" M 1382.41,  452.71  C 1381.01   453.21  1379.93   453.93  1378.93   455.04 " style="stroke-width: 1.42 ;&st7; " /><path d=" M 1378.93,  455.04  C 1376.80   457.43  1376.19   460.55  1377.27   463.57 " style="stroke-width: 1.42 ;&st7; " /><path d=" M 1389.80,   82.80  C 1389.80    80.30  1387.77    78.27  1385.27    78.27 " style="stroke-width: 1.42 ;&st7; " /><path d=" M 1385.27,   78.27  C 1382.77    78.27  1380.74    80.30  1380.74    82.80 " style="stroke-width: 1.42 ;&st7; " /><path d=" M 1380.74,   82.80  C 1380.74    85.31  1382.77    87.34  1385.27    87.34 " style="stroke-width: 1.42 ;&st7; " /><path d=" M 1385.27,   87.34  C 1387.77    87.34  1389.80    85.31  1389.80    82.80 " style="stroke-width: 1.42 ;&st7; " /><path d=" M 1383.14,  222.75  C 1380.80   222.75  1378.89   224.65  1378.89   227.00 " style="stroke-width: 1.42 ;&st7; " /><path d=" M 1378.89,  227.00  C 1378.89   229.34  1380.80   231.25  1383.14   231.25 " style="stroke-width: 1.42 ;&st7; " /><path d=" M 1387.39,  231.25  C 1389.74   231.25  1391.64   229.34  1391.64   227.00 " style="stroke-width: 1.42 ;&st7; " /><path d=" M 1391.64,  227.00  C 1391.64   224.65  1389.74   222.75  1387.39   222.75 " style="stroke-width: 1.42 ;&st7; " /><path d=" M 1391.64,  184.50  C 1391.64   182.16  1389.74   180.26  1387.39   180.26 " style="stroke-width: 1.42 ;&st7; " /><path d=" M 1387.39,  188.75  C 1389.74   188.75  1391.64   186.85  1391.64   184.50 " style="stroke-width: 1.42 ;&st7; " /><path d=" M 1378.89,  184.50  C 1378.89   186.85  1380.80   188.75  1383.14   188.75 " style="stroke-width: 1.42 ;&st7; " /><path d=" M 1383.14,  180.26  C 1380.80   180.26  1378.89   182.16  1378.89   184.50 " style="stroke-width: 1.42 ;&st7; " /><path d=" M 1204.67,  112.27  C 1202.33   112.27  1200.42   114.17  1200.42   116.52 " style="stroke-width: 1.42 ;&st7; " /><path d=" M 1200.42,  116.52  C 1200.42   118.86  1202.33   120.77  1204.67   120.77 " style="stroke-width: 1.42 ;&st7; " /><path d=" M 1208.92,  120.77  C 1211.27   120.77  1213.17   118.86  1213.17   116.52 " style="stroke-width: 1.42 ;&st7; " /><path d=" M 1213.17,  116.52  C 1213.17   114.17  1211.27   112.27  1208.92   112.27 " style="stroke-width: 1.42 ;&st7; " /><path d=" M 1079.32,  123.60  C 1076.58   125.21  1075.67   128.74  1077.28   131.48 " style="stroke-width: 1.42 ;&st7; " /><path d=" M 1077.28,  131.48  C 1077.80   132.36  1078.44   132.99  1079.32   133.51 " style="stroke-width: 1.42 ;&st7; " /><path d=" M 1079.32,  143.43  C 1082.06   141.81  1082.97   138.29  1081.36   135.55 " style="stroke-width: 1.42 ;&st7; " /><path d=" M 1081.36,  135.55  C 1080.84   134.67  1080.20   134.03  1079.32   133.51 " style="stroke-width: 1.42 ;&st7; " /><path d=" M 1080.74,  122.18  C 1080.74   121.40  1080.10   120.77  1079.32   120.77 " style="stroke-width: 0.85 ;&st7; " /><path d=" M 1079.32,  120.77  C 1078.54   120.77  1077.90   121.40  1077.90   122.18 " style="stroke-width: 0.85 ;&st7; " /><path d=" M 1077.90,  122.18  C 1077.90   122.96  1078.54   123.60  1079.32   123.60 " style="stroke-width: 0.85 ;&st7; " /><path d=" M 1079.32,  123.60  C 1080.10   123.60  1080.74   122.96  1080.74   122.18 " style="stroke-width: 0.85 ;&st7; " /><text style="&st18;" transform="matrix(&st16;  1498.23  304.04 )">1</text><text style="&st18;" transform="matrix(&st16;  1497.46  366.92 )">2</text><text style="&st18;" transform="matrix(&st16;  1494.28  86.47 )">21</text><text style="&st18;" transform="matrix(&st16;  1488.38  118.49 )">13</text><text style="&st18;" transform="matrix(&st16;  1499.8  118.49 )">2D</text><text style="&st18;" transform="matrix(&st16;  1497.33  74.58 )">BZR</text><text style="&st18;" transform="matrix(&st16;  1098.8  315.93 )">1</text><text style="&st18;" transform="matrix(&st16;  1072.53  162.95 )">2</text><text ewd:textID="19" style="&st18;" transform="matrix(&st16;  1294.93  213.39 )">HORN <tspan dy="6" x="0">Relay</tspan></text><text style="&st18;" transform="matrix(&st16;  1248.68  108.57 )">(BAT)</text><text style="&st18;" transform="matrix(&st16;  1275.09  132.66 )">10A <tspan dy="6" x="0">HORN</tspan></text><text style="&st18;" transform="matrix(&st16;  1251.0  162.95 )">2</text><text style="&st18;" transform="matrix(&st16;  1253.73  262.96 )">1C</text><text style="&st18;" transform="matrix(&st16;  1245.1  262.96 )">7</text><text style="&st18;" transform="matrix(&st16;  1279.22  262.96 )">1C</text><text style="&st18;" transform="matrix(&st16;  1270.6  262.96 )">8</text><text style="&st18;" transform="matrix(&st17;  1203.1  155.48 )">GR-L</text><text ewd:textID="23" style="&st18;" transform="matrix(&st16;  1294.93  462.68 )">Low Pitched Horn <tspan dy="6" x="0">Assembly</tspan></text><text style="&st18;" transform="matrix(&st16;  1294.93  455.57 )">A21</text><text ewd:textID="20" style="&st18;" transform="matrix(&st16;  1396.91  462.68 )">High Pitched Horn <tspan dy="6" x="0">Assembly</tspan></text><text style="&st18;" transform="matrix(&st16;  1396.91  455.57 )">A20</text><text style="&st18;" transform="matrix(&st17;  1279.59  314.97 )">G-R</text><text style="&st18;" transform="matrix(&st16;  1335.53  423.02 )">G-R</text><text style="&st18;" transform="matrix(&st16;  1378.35  74.58 )">HAZ</text><text style="&st18;" transform="matrix(&st16;  1382.94  84.77 )">B</text><text style="&st18;" transform="matrix(&st16;  1374.39  84.77 )">3</text><text style="&st18;" transform="matrix(&st17;  1381.57  141.12 )">W</text><text style="&st18;" transform="matrix(&st16;  1196.63  74.58 )">HORN</text><text style="&st18;" transform="matrix(&st16;  1196.05  86.47 )">28</text><text style="&st18;" transform="matrix(&st16;  1372.58  186.47 )">3</text><text style="&st18;" transform="matrix(&st16;  1380.96  228.97 )">4A</text><text style="&st18;" transform="matrix(&st16;  1369.4  228.97 )">61</text><text style="&st18;" transform="matrix(&st16;  1380.96  186.47 )">4A</text><text style="&st18;" transform="matrix(&st17;  1381.57  255.57 )">W</text><text style="&st18;" transform="matrix(&st16;  1378.35  289.87 )">HAZ</text><text style="&st18;" transform="matrix(&st16;  1378.47  278.55 )">8</text><text style="&st18;" transform="matrix(&st16;  1365.75  323.84 )">F67</text><text ewd:textID="42" style="&st18;" transform="matrix(&st16;  1365.75  330.95 )">Turn Signal <tspan dy="6" x="0">Flasher Assembly</tspan></text><text style="&st18;" transform="matrix(&st16;  1202.35  118.49 )">2D</text><text style="&st18;" transform="matrix(&st16;  1190.15  118.49 )">29</text><text style="&st18;" transform="matrix(&st16;  1272.26  33.47 )">F8(A),F9(B),F10(C)</text><text ewd:textID="24" style="&st18;" transform="matrix(&st16;  1272.26  40.58 )">Main Body ECU</text><text style="&st18;" transform="matrix(&st16;  1277.27  448.52 )">1</text><text style="&st18;" transform="matrix(&st16;  1379.26  448.52 )">1</text><text style="&st18;" transform="matrix(&st16;  1159.5  74.58 )">SH</text><text style="&st18;" transform="matrix(&st16;  1154.34  86.47 )">17</text><text style="&st18;" transform="matrix(&st16;  1096.62  132.66 )">10A <tspan dy="6" x="0">SECURITY</tspan></text><text style="&st18;" transform="matrix(&st16;  1070.21  108.57 )">(BAT)</text><text style="&st18;" transform="matrix(&st16;  1077.73  330.95 )">1</text><text style="&st18;" transform="matrix(&st16;  1103.23  330.95 )">1</text><text style="&st18;" transform="matrix(&st16;  1159.85  118.49 )">2D</text><text style="&st18;" transform="matrix(&st16;  1147.66  118.49 )">25</text><text style="&st18;" transform="matrix(&st16;  1073.31  448.52 )">1</text><text ewd:textID="39" style="&st18;" transform="matrix(&st17;  1102.54  471.73 )">Security Horn Assembly</text><text style="&st18;" transform="matrix(&st17;  1095.43  471.73 )">A32</text><text style="&st18;" transform="matrix(&st17;  1075.62  395.05 )">B</text><text style="&st18;" transform="matrix(&st17;  1160.61  148.73 )">R</text><text ewd:textID="38" style="&st18;" transform="matrix(&st16;  1116.45  289.88 )">S-HORN <tspan dy="6" x="0">Relay</tspan></text><text style="&st18;" transform="matrix(&st16;  1077.73  177.98 )">1</text><text style="&st18;" transform="matrix(&st16;  1077.73  254.46 )">1</text><text style="&st18;" transform="matrix(&st16;  1103.23  254.46 )">1</text><text style="&st18;" transform="matrix(&st17;  1075.62  199.58 )">P</text><text style="&st18;" transform="matrix(&st17;  1075.62  233.58 )">P</text><text style="&st18;" transform="matrix(&st17;  1101.12  233.58 )">P</text><text style="&st18;" transform="matrix(&st16;  1072.53  270.05 )">5</text><text style="&st18;" transform="matrix(&st16;  1098.03  270.05 )">2</text><text style="&st18;" transform="matrix(&st16;  1072.53  315.93 )">3</text></svg>