﻿<?xml version="1.0"?>
<!-- Generator: Adobe Illustrator 10.0, SVG Export Plug-In . SVG Version: 3.0.0 Build 77)  -->
<!DOCTYPE svg PUBLIC "-//W3C//DTD SVG 1.0//EN" "http://www.w3.org/TR/2001/REC-SVG-20010904/DTD/svg10.dtd"[
	<!ENTITY ns_flows "http://ns.adobe.com/Flows/1.0/">
	<!ENTITY ns_svg "http://www.w3.org/2000/svg">
	<!ENTITY ns_xlink "http://www.w3.org/1999/xlink">
	<!ENTITY st0 "fill:none;stroke:#000000;stroke-width:0.45;stroke-linecap:round;stroke-linejoin:round;">
	<!ENTITY st1 "fill:none;stroke:#FFFFFF;stroke-width:0.9;stroke-linecap:round;stroke-linejoin:round;">
	<!ENTITY st2 "fill:#99CF16;stroke:#000000;stroke-width:0.3965;stroke-linecap:round;stroke-linejoin:round;">
	<!ENTITY st3 "fill:none;stroke:#000000;stroke-width:0.1982;stroke-linecap:round;stroke-linejoin:round;">
	<!ENTITY st4 "fill:#FFFFFF;stroke:#000000;stroke-width:0.3965;stroke-linecap:round;stroke-linejoin:round;">
	<!ENTITY st5 "fill:#80CFE2;">
	<!ENTITY st6 "fill:none;stroke:#FFFFFF;stroke-width:2;stroke-linejoin:round;">
	<!ENTITY st7 "fill:#FF0000;stroke:#000000;stroke-width:0.45;stroke-linecap:round;stroke-linejoin:round;">
	<!ENTITY st8 "fill:none;stroke:#000000;stroke-width:0.225;stroke-linecap:round;stroke-linejoin:round;">
	<!ENTITY st9 "fill:#80CFE2;stroke:#000000;stroke-width:0.45;stroke-linecap:round;stroke-linejoin:round;">
	<!ENTITY st10 "font-family:'Arial';font-weight:bold;">
	<!ENTITY st11 "fill:#FFFFFF;stroke:#000000;stroke-width:0.45;stroke-linecap:round;stroke-linejoin:round;">
	<!ENTITY st12 "fill:none;stroke:#000000;stroke-width:0.5;stroke-linejoin:round;">
	<!ENTITY st13 "fill:none;">
	<!ENTITY st14 "fill:#34AB8F;stroke:#000000;stroke-width:0.45;stroke-linecap:round;stroke-linejoin:round;">
	<!ENTITY st15 "font-family:'Arial';">
	<!ENTITY st16 "fill:#99CF16;stroke:#000000;stroke-width:0.45;stroke-linecap:round;stroke-linejoin:round;">
	<!ENTITY st17 "font-size:10px;">
	<!ENTITY st18 "fill:#FFFF00;stroke:#000000;stroke-width:0.45;stroke-linecap:round;stroke-linejoin:round;">
	<!ENTITY st19 "fill:#FFFFFF;stroke:#000000;stroke-width:1.5;">
	<!ENTITY st20 "fill:#6A2990;stroke:#000000;stroke-width:0.45;stroke-linecap:round;stroke-linejoin:round;">
	<!ATTLIST svg
		xmlns:ewd CDATA #FIXED "http://shcl.co.jp/ewd"
		xmlns:a CDATA #FIXED "http://ns.adobe.com/AdobeSVGViewerExtensions/3.0/"
		ewd:ver CDATA #IMPLIED>
	<!ATTLIST a
		ewd:innerGroupID CDATA #IMPLIED
		ewd:figtype CDATA #IMPLIED
		ewd:code CDATA #IMPLIED
		ewd:pinNo CDATA #IMPLIED>
]>
<svg width="518.74" height="311.811" viewBox="0 0 518.74 311.811" style="overflow:visible;enable-background:new 0 0 518.74 311.811" xml:space="preserve" onload="call_execInitLoadProc_svg('location')" ewd:ver="L2.1.2.8" xmlns="&ns_svg;" xmlns:ewd="http://shcl.co.jp/ewd" xmlns:a="http://ns.adobe.com/AdobeSVGViewerExtensions/3.0/" xmlns:xlink="&ns_xlink;">
<script type="text/javascript" xlink:href="../../../../../system/js/ewd/fig/svgfig.js"/>
<g id="waku">
	<path style="&st13;" d="M518.74,311.811V0H0v311.811H518.74z"/>
</g>
<g id="イラスト">
	<g>
		<path style="&st16;" d="M189.024,215.694l-2.543-1.691l-1.982,0.418v2.354l2.542,1.691l1.984-0.418V215.694z"/>
		<path style="&st8;" d="M187.04,218.466v-2.354"/>
		<path style="&st8;" d="M187.04,216.112l1.984-0.418"/>
		<path style="&st8;" d="M184.499,214.421l2.542,1.691"/>
	</g>
	<path style="&st16;" d="M174.233,211.878l2.271,1.625c3.064,2.201,6.877,4.939,9.561,6.596c2.61,1.613,4.322,1.25,4.996,0.449    c0.444-0.529,0.432-1.236-0.032-1.758c-0.839-0.943-2.441-2.049-2.508-2.096c-0.273-0.188-0.646-0.119-0.834,0.154    s-0.119,0.646,0.154,0.834c0.015,0.012,1.55,1.07,2.292,1.904c0.073,0.082,0.061,0.127,0.01,0.188    c-0.258,0.309-1.44,0.543-3.446-0.695c-2.648-1.637-6.442-4.361-9.491-6.551l-2.277-1.629"/>
	<path style="&st9;" d="M287.962,143.805c-0.396,0.123-0.616,0.543-0.493,0.938c0.122,0.396,0.543,0.617,0.938,0.494    c2.977-0.924,5.93,0.012,8.539,2.705c1.13,1.167,2.693,2.916,4.349,4.766c2.929,3.274,5.957,6.66,7.524,7.9    c0.324,0.258,0.796,0.202,1.054-0.122c0.257-0.325,0.202-0.796-0.123-1.054c-1.466-1.161-4.585-4.648-7.337-7.724    c-1.665-1.862-3.238-3.621-4.39-4.81C295.037,143.817,291.465,142.718,287.962,143.805z"/>
	<g>
		<path style="&st9;" d="M289.839,144.397l-3.209-1.749l-3.133,0.826l-0.076,2.496l3.207,1.75l3.135-0.827L289.839,144.397z"/>
		<path style="&st8;" d="M286.628,147.72l0.076-2.496"/>
		<path style="&st8;" d="M286.704,145.224l3.135-0.827"/>
		<path style="&st8;" d="M283.497,143.474l3.207,1.75"/>
	</g>
	<g>
		<path style="&st18;" d="M286.704,145.224l-3.208-1.75l-3.133,0.826l-0.076,2.496l3.206,1.75l3.135-0.826L286.704,145.224z"/>
		<path style="&st8;" d="M283.493,148.546l0.076-2.496"/>
		<path style="&st8;" d="M283.569,146.05l3.135-0.826"/>
		<path style="&st8;" d="M280.363,144.301l3.206,1.75"/>
	</g>
	<g>
		<path style="&st18;" d="M296.204,152.424l-1.72-0.903l-3.133,0.826l-0.076,2.496l1.718,0.903l3.135-0.826L296.204,152.424z"/>
		<path style="&st8;" d="M292.993,155.746l0.076-2.495"/>
		<path style="&st8;" d="M293.069,153.251l3.135-0.827"/>
		<path style="&st8;" d="M291.352,152.348l1.718,0.903"/>
	</g>
	<g>
		<path style="&st18;" d="M299.004,154.124l-1.719-0.902l-3.133,0.826l-0.076,2.496l1.718,0.903l3.134-0.826L299.004,154.124z"/>
		<path style="&st8;" d="M295.794,157.446l0.076-2.495"/>
		<path style="&st8;" d="M295.87,154.951l3.134-0.827"/>
		<path style="&st8;" d="M294.152,154.047l1.718,0.903"/>
	</g>
	<path style="&st18;" d="M293.08,158.285c-0.024-0.016-0.647-0.403-1.602-1.006c1.364-0.064,2.651-0.409,3.475-0.821    c0.296-0.148,0.416-0.508,0.269-0.805c-0.148-0.297-0.509-0.417-0.806-0.269c-0.975,0.487-3.305,1.003-5.168,0.474    c-0.145-0.092-0.29-0.187-0.438-0.282c1.354-0.068,2.627-0.411,3.443-0.819c0.297-0.148,0.417-0.509,0.269-0.805    s-0.509-0.417-0.806-0.269c-0.948,0.475-3.185,0.98-5.021,0.518c-2.486-1.634-4.943-3.318-5.793-4.125    c-0.647-0.616-0.958-1.168-0.874-1.556c0.104-0.48,0.833-0.987,2.002-1.392c0.393-0.135,0.6-0.563,0.464-0.954    c-0.136-0.391-0.563-0.599-0.954-0.463c-1.749,0.605-2.751,1.443-2.979,2.492c-0.204,0.946,0.235,1.942,1.308,2.96    c1.704,1.62,8.992,6.244,11.546,7.846L293.08,158.285z"/>
	<path style="&st18;" d="M294.568,159.487l-1.64,0.439l1.713,0.989l1.639-0.439L294.568,159.487z"/>
	<path style="&st18;" d="M299.451,162.306l-1.64,0.439l0.884,0.51l1.64-0.439L299.451,162.306z"/>
	<path style="&st18;" d="M297.185,160.998l-1.639,0.439l1.361,0.785l1.64-0.438L297.185,160.998z"/>
	<path style="&st9;" d="M316.533,171.661c-2.411-1.371-4.771-2.645-6-3.217c-2.581-1.197-3.602-3.33-3.196-4.33    c0.124-0.307-0.024-0.656-0.332-0.781c-0.307-0.125-0.656,0.023-0.781,0.33c-0.675,1.67,0.693,4.426,3.805,5.871    c1.123,0.521,3.197,1.635,5.383,2.867C315.78,172.188,316.533,171.661,316.533,171.661z"/>
	<g>
		<g>
			<path style="&st18;" d="M313.119,172.263l-1.888-1.09l-2.837,0.76v1.559l1.886,1.09l2.839-0.76V172.263z"/>
			<path style="&st8;" d="M310.28,174.581v-1.559"/>
			<path style="&st8;" d="M310.28,173.022l2.839-0.76"/>
			<path style="&st8;" d="M308.395,171.933l1.886,1.09"/>
		</g>
		<g>
			<path style="&st18;" d="M292.298,176.478c-0.946-0.547-1.395-1.088-1.333-1.611c0.163-1.367,3.529-3.281,8.186-4.652      c3.791-1.117,7.626,0.422,9.836,1.561l1.682-0.451c-1.931-1.104-6.854-3.734-11.857-2.26c-2.605,0.768-8.702,2.855-9.037,5.66      c-0.124,1.045,0.523,1.984,1.924,2.793l13.648,7.879l1.639-0.438L292.298,176.478z"/>
			<path style="&st18;" d="M307.89,185.479l-1.64,0.439l1.712,0.988l1.64-0.439L307.89,185.479z"/>
			<path style="&st18;" d="M312.771,188.298l-1.64,0.439l0.885,0.51l1.639-0.439L312.771,188.298z"/>
			<path style="&st18;" d="M310.506,186.989l-1.64,0.439l1.361,0.787l1.64-0.439L310.506,186.989z"/>
			<path style="&st18;" d="M292.298,176.478c-0.43-0.248-0.932-0.623-0.886-1.006c0.109-0.914,2.557-2.275,5.819-3.236      c2.715-0.799,5.475,0.322,7.051,1.141l1.646-0.441c-0.032-0.031-0.067-0.059-0.107-0.08c-1.248-0.721-5.046-2.914-8.929-1.77      c-1.921,0.564-6.418,2.111-6.672,4.244c-0.099,0.83,0.398,1.564,1.477,2.188"/>
			<path style="&st18;" d="M292.298,176.478c-0.31-0.178-0.351-0.293-0.351-0.293c0.034-0.229,0.945-0.926,2.987-1.527      c1.739-0.514,3.556,0.535,4.152,0.879l0.132,0.078l1.64-0.439l-1.172-0.678c-0.706-0.408-2.858-1.65-5.092-0.992      c-1.671,0.492-3.693,1.334-3.838,2.549c-0.047,0.393,0.078,0.965,0.94,1.463"/>
		</g>
		<g>
			<path style="&st18;" d="M308.45,173.647l-1.646-0.949l-2.925,0.785v1.629l1.644,0.949l2.927-0.785V173.647z"/>
			<path style="&st8;" d="M305.523,176.062v-1.629"/>
			<path style="&st8;" d="M305.523,174.433l2.927-0.785"/>
			<path style="&st8;" d="M303.88,173.483l1.644,0.949"/>
		</g>
		<g>
			<path style="&st18;" d="M303.25,176.128l-1.888-1.088l-2.837,0.76v2.371l1.886,1.09l2.839-0.76V176.128z"/>
			<path style="&st8;" d="M300.411,179.261v-2.371"/>
			<path style="&st8;" d="M300.411,176.89l2.839-0.762"/>
			<path style="&st8;" d="M298.525,175.8l1.886,1.09"/>
		</g>
		<g>
			<path style="&st9;" d="M305.138,177.218l-1.888-1.09l-2.837,0.76v2.373l1.886,1.09l2.839-0.76V177.218z"/>
			<path style="&st8;" d="M302.299,180.351v-2.373"/>
			<path style="&st8;" d="M302.299,177.978l2.839-0.76"/>
			<path style="&st8;" d="M300.413,176.888l1.886,1.09"/>
		</g>
	</g>
	<g>
		<path style="&st20;" d="M191.43,203.692c-6.216-3.59-12.081-4.467-18.455-2.758c-2.704,0.725-3.432,2.09-3.566,3.109     c-0.217,1.648,0.941,3.387,2.196,4.541l1.422-0.381c-1.245-0.91-2.607-2.65-2.429-4.004c0.125-0.953,1.029-1.662,2.687-2.107     c6.046-1.619,11.622-0.781,17.544,2.639l13.428,7.752l1.64-0.439L191.43,203.692z"/>
		<path style="&st20;" d="M191.43,203.692c-2.241-1.295-5.241-1.621-8.026-0.875c-1.371,0.367-1.675,1.18-1.734,1.631     c-0.032,0.246-0.007,0.496,0.059,0.74l1.158-0.309c-0.025-0.096-0.039-0.189-0.027-0.275c0.045-0.342,0.49-0.529,0.855-0.627     c2.485-0.666,5.145-0.385,7.116,0.754c0.287,0.164,0.654,0.066,0.82-0.221C191.815,204.224,191.717,203.856,191.43,203.692z"/>
		<path style="&st20;" d="M191.43,203.692c-3.374-1.949-7.912-2.436-12.139-1.303c-1.821,0.488-2.319,1.477-2.417,2.221     c-0.113,0.859,0.262,1.707,0.767,2.357l1.296-0.346c-0.49-0.465-0.957-1.221-0.873-1.855c0.073-0.555,0.591-0.963,1.539-1.219     c3.926-1.051,8.124-0.609,11.228,1.184c0.287,0.164,0.654,0.066,0.82-0.221C191.815,204.224,191.717,203.858,191.43,203.692z"/>
		<path style="&st20;" d="M206.8,212.565l-1.639,0.439l1.712,0.988l1.64-0.439L206.8,212.565z"/>
		<path style="&st20;" d="M211.683,215.384l-1.639,0.439l0.884,0.512l1.639-0.439L211.683,215.384z"/>
		<path style="&st20;" d="M209.417,214.077l-1.64,0.439l1.362,0.785l1.639-0.439L209.417,214.077z"/>
	</g>
	<path style="&st16;" d="M159.761,200.616c-0.331,0.016-0.587,0.297-0.572,0.627c0.015,0.326-0.039,0.484-0.617,0.639l-1.828,0.49    v1.242l2.139-0.572c0.389-0.105,1.571-0.422,1.505-1.854C160.372,200.858,160.091,200.603,159.761,200.616z"/>
	<g>
		<path style="&st16;" d="M156.744,201.765l-1.158-0.668l-2.77,0.744v3.246l1.157,0.668l2.771-0.742V201.765z"/>
		<path style="&st8;" d="M153.973,205.755v-3.246"/>
		<path style="&st8;" d="M153.973,202.509l2.771-0.744"/>
		<path style="&st8;" d="M152.816,201.841l1.157,0.668"/>
	</g>
	<g>
		<g>
			<path style="&st11;" d="M183.959,211.88l-1.908-1.102l-1.014,0.271v1.455l1.907,1.102l1.015-0.271V211.88z"/>
			<path style="&st8;" d="M182.945,213.606v-1.455"/>
			<path style="&st8;" d="M182.945,212.151l1.015-0.271"/>
			<path style="&st8;" d="M181.038,211.05l1.907,1.102"/>
		</g>
		<g>
			<path style="&st16;" d="M182.945,212.151l-1.908-1.102l-1.722,0.461v1.455l1.907,1.102l1.723-0.461V212.151z"/>
			<path style="&st8;" d="M181.222,214.067v-1.455"/>
			<path style="&st8;" d="M181.222,212.612l1.723-0.461"/>
			<path style="&st8;" d="M179.315,211.511l1.907,1.102"/>
		</g>
	</g>
	<g>
		<g>
			<path style="&st16;" d="M180.932,189.825l-2.349-1.357l-4.78,1.281v2.752l2.348,1.355l4.78-1.281V189.825z"/>
			<path style="&st8;" d="M176.151,193.856v-2.75"/>
			<path style="&st8;" d="M176.151,191.106l4.78-1.281"/>
			<path style="&st8;" d="M173.803,189.749l2.348,1.357"/>
		</g>
		<g>
			<path style="&st11;" d="M182.093,190.495l-1.162-0.672l-4.78,1.283v2.75l1.161,0.67l4.781-1.281V190.495z"/>
			<path style="&st8;" d="M177.313,194.526v-2.75"/>
			<path style="&st8;" d="M177.313,191.776l4.781-1.281"/>
			<path style="&st8;" d="M176.151,191.106l1.161,0.67"/>
		</g>
	</g>
	<g>
		<path style="&st16;" d="M145.931,205.081l-3.025-1.746l-2.094,0.561v4.613l3.024,1.746l2.095-0.563V205.081z"/>
		<path style="&st8;" d="M143.836,210.255v-4.613"/>
		<path style="&st8;" d="M143.836,205.642l2.095-0.561"/>
		<path style="&st8;" d="M140.812,203.896l3.024,1.746"/>
	</g>
	<g>
		<path style="&st16;" d="M169.583,222.993l-1.604-0.928l-3.459,0.928v2.295l1.604,0.928l3.459-0.928V222.993z"/>
		<path style="&st8;" d="M166.123,226.216v-2.297"/>
		<path style="&st8;" d="M166.123,223.919l3.459-0.926"/>
		<path style="&st8;" d="M164.52,222.993l1.604,0.926"/>
	</g>
	<g>
		<path style="&st14;" d="M171.186,223.919l-1.604-0.928l-3.459,0.928v2.295l1.604,0.928l3.459-0.928V223.919z"/>
		<path style="&st8;" d="M167.727,227.142v-2.297"/>
		<path style="&st8;" d="M167.727,224.845l3.459-0.926"/>
		<path style="&st8;" d="M166.123,223.919l1.604,0.926"/>
	</g>
	<g>
		<path style="&st16;" d="M169.254,219.44l-1.299-0.752l-2.801,0.752v1.859l1.299,0.75l2.802-0.75V219.44z"/>
		<path style="&st8;" d="M166.452,222.05v-1.859"/>
		<path style="&st8;" d="M166.452,220.19l2.802-0.75"/>
		<path style="&st8;" d="M165.153,219.44l1.299,0.75"/>
	</g>
	<g>
		<path style="&st14;" d="M170.553,220.19l-1.299-0.752l-2.801,0.752v1.859l1.299,0.75l2.802-0.752V220.19z"/>
		<path style="&st8;" d="M167.751,222.8v-1.859"/>
		<path style="&st8;" d="M167.751,220.94l2.802-0.75"/>
		<path style="&st8;" d="M166.452,220.19l1.299,0.75"/>
	</g>
	<g>
		<path style="&st16;" d="M195.672,201.96l-2.86-1.652l-3.738,1.002v2.496l2.858,1.652l3.74-1.002V201.96z"/>
		<path style="&st8;" d="M191.933,205.458v-2.496"/>
		<path style="&st8;" d="M191.933,202.962l3.74-1.002"/>
		<path style="&st8;" d="M189.074,201.31l2.858,1.652"/>
	</g>
	<g>
		<path style="&st20;" d="M186.693,205.925l-2.444-1.41l-3.738,1v3.002l2.443,1.412l3.74-1.002V205.925z"/>
		<path style="&st8;" d="M182.953,209.929v-3.002"/>
		<path style="&st8;" d="M182.953,206.927l3.74-1.002"/>
		<path style="&st8;" d="M180.51,205.515l2.443,1.412"/>
	</g>
	<g>
		<path style="&st16;" d="M189.137,207.335l-2.444-1.41l-3.738,1.002v3l2.443,1.412l3.74-1.002V207.335z"/>
		<path style="&st8;" d="M185.397,211.339v-3.002"/>
		<path style="&st8;" d="M185.397,208.337l3.74-1.002"/>
		<path style="&st8;" d="M182.955,206.927l2.443,1.41"/>
	</g>
	<g>
		<path style="&st20;" d="M176.177,208.956l-1.888-1.09l-2.837,0.76v1.559l1.886,1.09l2.839-0.76V208.956z"/>
		<path style="&st8;" d="M173.338,211.274v-1.559"/>
		<path style="&st8;" d="M173.338,209.716l2.839-0.76"/>
		<path style="&st8;" d="M171.452,208.626l1.886,1.09"/>
	</g>
	<g>
		<path style="&st20;" d="M181.592,207.505l-1.888-1.09l-2.837,0.76v1.729l1.886,1.09l2.839-0.762V207.505z"/>
		<path style="&st8;" d="M178.753,209.993v-1.729"/>
		<path style="&st8;" d="M178.753,208.265l2.839-0.76"/>
		<path style="&st8;" d="M176.867,207.175l1.886,1.09"/>
	</g>
	<g>
		<path style="&st14;" d="M203.187,194.771l-2.015-2.262l-1.832,0.49l-1.014,3.275l2.016,2.264l1.831-0.492L203.187,194.771z"/>
		<path style="&st8;" d="M200.342,198.538l1.014-3.277"/>
		<path style="&st8;" d="M201.356,195.261l1.831-0.49"/>
		<path style="&st8;" d="M199.34,192.999l2.016,2.262"/>
	</g>
	<g>
		<path style="&st16;" d="M135.262,190.524c-1.644,0.441-3.481,3.428-3.481,6.764c0,0.416,0.358,0.641,0.772,0.641     s0.728-0.225,0.728-0.641c0-2.857,1.556-5.096,2.37-5.314c1.123-0.301,2.645-0.178,3.788,0.307     c2.596,1.098,8.614,1.984,10.517,2.207c1.56,0.184,2.958,0.898,4,1.5l0.181,0.105c0.932,0.535,1.28,0.736,2.036,1.785     c0.883,1.225,2.092,2.904,3.828,4.641c1.734,1.734,6.419,5.184,8.052,6.127l0.334,0.193c3.074,1.777,5.745,3.25,7.294,3.25     c0.769,0,2.618-0.207,4.759-0.447c2.21-0.246,4.715-0.527,5.728-0.527c0.99,0,2.156-0.109,2.387-0.975     c0.155-0.58-0.19-1.117-1.027-1.602c-0.358-0.207-0.817-0.084-1.024,0.275c-0.068,0.117-0.101,0.246-0.101,0.375     c0,0.148,0.057,0.289,0.141,0.414c-0.115,0.006-0.224,0.012-0.376,0.012c-1.096,0-3.535,0.273-5.894,0.537     c-1.921,0.215-3.907,0.438-4.592,0.438c-1.272,0-4.572-1.908-6.543-3.049l-0.335-0.193c-1.534-0.887-6.11-4.258-7.742-5.889     c-1.65-1.65-2.818-3.273-3.671-4.457c-0.944-1.311-1.499-1.631-2.505-2.209l-0.178-0.104c-1.168-0.674-2.743-1.475-4.575-1.689     c-2.325-0.275-7.854-1.148-10.108-2.102C138.573,190.284,136.704,190.138,135.262,190.524z"/>
		<path style="&st0;" d="M186.543,209.603c0.26,0.012,0.912-0.145,0.615-0.316"/>
	</g>
	<path style="&st16;" d="M159.413,199.792c1.713-1.91,8.045-7.213,9.421-8.256c1.428-1.084,2.328-1.594,3.32-1.883    c0.001,0,2.208-0.59,2.208-0.59c0.335-0.09,0.672,0.014,1.102,0.242l2.056-0.553l-1.064-0.613    c-0.732-0.424-1.54-0.779-2.483-0.525l-2.223,0.596c-1.202,0.35-2.233,0.926-3.823,2.131c-1.371,1.041-8.798,7.211-10.037,8.947"/>
	<path style="&st16;" d="M159.454,200.767c1.473-1.473,4.44-3.426,6.352-4.18c1.769-0.699,2.488-0.648,4.623-0.5    c6.083,0.424,12.351,2.4,18.646,5.873v-0.65l1.291-0.346c-6.677-3.775-13.347-5.922-19.833-6.373    c-2.258-0.158-3.192-0.223-5.277,0.6c-2.102,0.83-5.244,2.898-6.861,4.516"/>
	<g>
		<g>
			<path style="&st16;" d="M153.256,215.532l-3.025-1.746l-1.397,0.375v3.725l3.024,1.746l1.398-0.375V215.532z"/>
			<path style="&st8;" d="M151.858,219.632v-3.725"/>
			<path style="&st8;" d="M151.858,215.907l1.398-0.375"/>
			<path style="&st8;" d="M148.834,214.161l3.024,1.746"/>
		</g>
		<g>
			<path style="&st16;" d="M155.417,209.589l-3.025-1.748l-2.094,0.563v4.984l3.025,1.746l2.095-0.561V209.589z"/>
			<path style="&st8;" d="M153.322,215.134v-4.984"/>
			<path style="&st8;" d="M153.322,210.149l2.095-0.561"/>
			<path style="&st8;" d="M150.297,208.403l3.025,1.746"/>
		</g>
		<g>
			<path style="&st16;" d="M162.241,217.081l-2.52,0.072l-2.273,0.609l0.181,1.613l2.52-0.07l2.274-0.611L162.241,217.081z"/>
			<path style="&st8;" d="M160.148,219.306l-0.182-1.615"/>
			<path style="&st8;" d="M159.966,217.69l2.274-0.609"/>
			<path style="&st8;" d="M157.447,217.763l2.519-0.072"/>
		</g>
		<path style="&st16;" d="M166.516,222.458c-1.279-0.535-2.37-0.508-3.257-0.48l-0.528,0.012c-1.154,0-2.278-0.164-3.645-0.529     l-8.85-2.4c-1.154-0.309-2.212-0.92-4.132-2.029l-5.296-3.057c-3.756-2.17-7.586-8.078-7.675-16.391     c-0.003-0.332-0.275-0.496-0.606-0.492c-0.331,0.004-0.597,0.174-0.593,0.504c0.083,7.727,3.331,14.564,8.275,17.418l5.296,3.057     c1.942,1.121,3.115,1.799,4.422,2.148l8.85,2.4c1.472,0.395,2.692,0.57,3.956,0.57l0.565-0.012     c0.397-0.012,0.801-0.021,1.224,0.014v-0.197L166.516,222.458z"/>
		<path style="&st16;" d="M152.386,220.073c1.294-0.861,2.273-1.863,2.915-2.986c0.49-0.857,0.708-1.344,1.01-2.018l0.257-0.57     c0.77-1.688-0.403-2.363-1.538-3.02c-0.287-0.166-0.654-0.066-0.82,0.221c-0.166,0.285-0.067,0.652,0.22,0.818     c1.363,0.787,1.309,0.908,1.046,1.482l-0.261,0.578c-0.298,0.666-0.496,1.105-0.957,1.912c-0.647,1.133-1.717,2.135-3.179,2.979"/>
		<path style="&st16;" d="M146.768,217.761c0-0.15,0.014-0.256,0.031-0.33c0.011-0.051,0.127-0.082,0.231-0.021l2.363,1.363     c0.419,0.242,0.846,0.283,1.187,0.121l-1.746-1.008v-0.822l-1.204-0.695c-0.657-0.379-1.123-0.268-1.398-0.109     c-0.227,0.133-0.487,0.391-0.603,0.902"/>
		<path style="&st16;" d="M154.661,220.743c0.403-0.293,0.682-0.566,0.921-0.801c0.35-0.342,0.533-0.51,0.866-0.6l0.205-0.055     c0.33-0.088,0.642-0.172,0.939-0.242l-0.135-1.197c-0.365,0.08-0.735,0.178-1.116,0.281l-0.204,0.055     c-0.651,0.174-1.012,0.527-1.394,0.9c-0.315,0.307-0.671,0.656-1.311,1.025"/>
	</g>
	<path style="&st16;" d="M135.3,190.515c-2.856,0.766-4.157,2.617-4.157,3.869c0,0.861,0.552,1.523,1.478,1.771    c1.908,0.512,3.333,1.285,4.744,2.1l11.034,6.371c0.992,0.574,0.771,1.299,0.551,1.68c-0.504,0.873-2.074,1.691-3.842,0.67    c-0.287-0.164-0.654-0.066-0.82,0.221c-0.166,0.287-0.067,0.654,0.22,0.82c2.242,1.293,4.591,0.43,5.481-1.111    c0.204-0.354,0.326-0.756,0.339-1.164l2.604,1.502c2.111,1.219,2.645,2.092,3.937,4.199l0.835,1.348    c1.458,2.307,3.904,4.557,7.449,6.852v-0.201l1.351-0.361c-3.777-2.355-6.329-4.627-7.785-6.93l-0.826-1.332    c-1.322-2.158-1.985-3.242-4.36-4.613l-4.534-2.617c0,0-0.001-0.002-0.002-0.002c0,0,0,0-0.001,0l-11.03-6.369    c-1.483-0.855-2.984-1.67-5.034-2.219c-0.588-0.158-0.588-0.502-0.588-0.613c0-0.463,0.45-1.24,1.57-1.879"/>
	<path style="&st14;" d="M209.032,194.741c-0.077,0.949,0.31,1.482,0.647,1.766c1.004,0.836,2.793,0.477,3.515,0.283    c0.32-0.086,0.51-0.414,0.424-0.734c-0.085-0.32-0.415-0.51-0.735-0.424c-1.094,0.293-2.05,0.273-2.436-0.047    c-0.065-0.055-0.262-0.219-0.219-0.746c0.027-0.332-0.219-0.621-0.55-0.648C209.349,194.165,209.059,194.411,209.032,194.741z"/>
	<g>
		<path style="&st14;" d="M212.56,191.067l-1.11-1.248l-2.66,1.67l-1.015,3.275l1.11,1.246l2.661-1.67L212.56,191.067z"/>
		<path style="&st8;" d="M208.885,196.011l1.015-3.275"/>
		<path style="&st8;" d="M209.9,192.735l2.66-1.668"/>
		<path style="&st8;" d="M208.79,191.489l1.11,1.246"/>
	</g>
	<path style="&st16;" d="M175.614,211.374c-0.08,0.1-0.146,0.209-0.198,0.328c-0.25,0.564-0.129,1.258,0.306,1.766    c0.47,0.549,1.187,0.76,1.917,0.563c0.693-0.186,1.212-0.318,2.563-0.592c0.325-0.066,0.535-0.383,0.469-0.707    c-0.066-0.326-0.382-0.535-0.707-0.469c-1.386,0.281-1.92,0.418-2.636,0.609c-0.379,0.102-0.599-0.072-0.695-0.186    c-0.132-0.154-0.182-0.359-0.12-0.5c0.073-0.166,0.323-0.268,0.686-0.277"/>
	<path style="&st14;" d="M213.194,196.79l4.466-1.197c1.12-0.299,1.467-1.42,1.226-2.32c-0.242-0.902-1.105-1.711-2.429-1.357    l-3.608,0.967c-0.898,0.24-1.48,0.643-1.78,1.229c-0.453,0.885-0.149,1.975,0.248,3.02c0.166,0.438,0.231,0.998,0.204,1.643    c-0.607-0.201-1.382-0.055-2.096,0.137l-10.963,2.938c-0.571,0.154-1.114,0.043-1.416-0.287c-0.3-0.33-0.338-0.854-0.108-1.479    c0.476-1.291,1.104-3.262,1.71-5.168l0.852-2.652c0.108-0.328,0.333-0.691,0.801-0.564c0.461,0.125,1.013,0.756,0.793,1.766    c-0.07,0.322,0.135,0.643,0.459,0.713c0.324,0.07,0.644-0.135,0.714-0.459c0.351-1.613-0.564-2.883-1.651-3.178    c-0.829-0.227-1.848,0.104-2.255,1.35l-0.855,2.66c-0.604,1.895-1.227,3.854-1.693,5.119c-0.387,1.049-0.26,2.035,0.348,2.701    c0.605,0.662,1.606,0.908,2.613,0.639l10.963-2.939c1.183-0.316,1.435-0.156,1.473-0.121c0.046,0.041,0.104,0.23,0.031,0.666    l-1.361,5.707l-0.382,1.607c-1.642,6.871-4.207,13.332-17.383,16.863c-2.715,0.727-4.16,1.738-5.728,4.008    c-0.045,0.066-0.09,0.125-0.135,0.189c-0.427,0.541-1.211,1.102-3.069,0.029l-13.305-7.682c-0.287-0.166-0.654-0.068-0.82,0.219    c-0.166,0.287-0.067,0.654,0.22,0.82l13.305,7.682c0.853,0.492,1.575,0.713,2.19,0.76c-1.341,1.371-2.477,1.643-3.669,0.953    l-11.172-6.449c-0.287-0.166-0.653-0.068-0.819,0.219c-0.166,0.287-0.067,0.654,0.22,0.82l11.172,6.449    c3.27,1.889,5.793-1.768,6.872-3.328c1.397-2.023,2.624-2.881,5.05-3.531c12.51-3.352,16.161-9.043,18.239-17.742l0.383-1.609    l1.365-5.723c0.291-1.17,0.531-2.842,0.028-4.168c-0.397-1.049-0.49-1.68-0.301-2.049c0.137-0.266,0.471-0.469,1.022-0.615    l3.607-0.967c0.693-0.186,0.902,0.293,0.959,0.508c0.065,0.242,0.069,0.732-0.377,0.852l-4.466,1.197"/>
	<g>
		<path style="&st9;" d="M314.516,162.333l-1.101-0.635l-2.837,0.76v1.918l1.099,0.635l2.839-0.76V162.333z"/>
		<path style="&st8;" d="M311.677,165.011v-1.918"/>
		<path style="&st8;" d="M311.677,163.093l2.839-0.76"/>
		<path style="&st8;" d="M310.578,162.458l1.099,0.635"/>
	</g>
	<path style="&st9;" d="M310.805,164.608l-2.785,0.746c-0.675,0.182-1.181,0.09-1.502-0.273c-0.563-0.635-0.129-1.711,0.013-2.064    c0.529-1.313,2.11-3.004,3.064-3.785c0.256-0.21,0.634-0.172,0.844,0.084c0.092,0.112,0.136,0.246,0.136,0.38    c0,0.174-0.074,0.346-0.22,0.464c-0.863,0.707-2.285,2.25-2.711,3.306c-0.067,0.166-0.113,0.303-0.144,0.414    c-0.051,0.18,0.075,0.352,0.209,0.316l0.284-0.076l2.501-0.67c0.319-0.086,0.648,0.104,0.734,0.424    S311.124,164.522,310.805,164.608z"/>
	<g>
		<path style="&st9;" d="M345.518,155.817l-3.025-1.746l-2.094,0.562v4.985l3.024,1.746l2.095-0.562V155.817z"/>
		<path style="&st8;" d="M343.423,161.364v-4.985"/>
		<path style="&st8;" d="M343.423,156.379l2.095-0.562"/>
		<path style="&st8;" d="M340.398,154.633l3.024,1.746"/>
	</g>
	<g>
		<g>
			<path style="&st9;" d="M289.438,160.75l-2.349-1.355l-4.779,1.281v2.751l2.348,1.355l4.78-1.281V160.75z"/>
			<path style="&st8;" d="M284.658,164.782v-2.752"/>
			<path style="&st8;" d="M284.658,162.03l4.78-1.281"/>
			<path style="&st8;" d="M282.311,160.675l2.348,1.355"/>
		</g>
		<g>
			<path style="&st11;" d="M290.601,161.421l-1.162-0.671l-4.78,1.281v2.752l1.161,0.67l4.781-1.281V161.421z"/>
			<path style="&st8;" d="M285.819,165.452v-2.75"/>
			<path style="&st8;" d="M285.819,162.702l4.781-1.281"/>
			<path style="&st8;" d="M284.658,162.03l1.161,0.672"/>
		</g>
	</g>
	<g>
		<path style="&st9;" d="M365.681,172.532l-1.604-0.926l-3.459,0.926v2.297l1.604,0.926l3.46-0.928V172.532z"/>
		<path style="&st8;" d="M362.221,175.755v-2.297"/>
		<path style="&st8;" d="M362.221,173.458l3.46-0.926"/>
		<path style="&st8;" d="M360.617,172.532l1.604,0.926"/>
	</g>
	<g>
		<path style="&st7;" d="M367.284,173.458l-1.604-0.926l-3.459,0.926v2.297l1.604,0.926l3.46-0.928V173.458z"/>
		<path style="&st8;" d="M363.824,176.681v-2.297"/>
		<path style="&st8;" d="M363.824,174.384l3.46-0.926"/>
		<path style="&st8;" d="M362.221,173.458l1.604,0.926"/>
	</g>
	<g>
		<path style="&st9;" d="M293.969,177.767l-2.439-1.408l-2.838,0.762v2.371l2.438,1.41l2.839-0.762V177.767z"/>
		<path style="&st8;" d="M291.13,180.901v-2.373"/>
		<path style="&st8;" d="M291.13,178.528l2.839-0.762"/>
		<path style="&st8;" d="M288.691,177.12l2.438,1.408"/>
	</g>
	<path style="&st9;" d="M358.809,170.679c-0.686-0.184-3.333-0.738-5.894-1.273c-1.494-0.313-2.932-0.613-3.93-0.83l-0.828-2.057    c-0.45-1.129-0.875-2.195-1.061-2.604c-0.274-0.604-0.376-1.252-0.376-2.396c0-1.568-0.592-2.579-1.978-3.379    c-0.287-0.166-0.653-0.067-0.819,0.22s-0.067,0.654,0.22,0.819c1.151,0.665,1.377,1.362,1.377,2.34    c0,1.334,0.131,2.117,0.483,2.893c0.175,0.383,0.613,1.486,1.038,2.551l0.517,1.283c-1.623-0.416-2.85-0.893-3.929-1.525    c-1.305-0.766-3.372-2.037-7.233-4.422c-2.922-1.804-5.342-7.53-6.788-10.952l-0.763-1.769c-0.715-1.58-1.409-2.757-2.186-3.705    c-0.211-0.256-0.589-0.293-0.845-0.083c-0.257,0.21-0.294,0.588-0.084,0.845c0.709,0.864,1.351,1.957,2.021,3.438l0.751,1.742    c1.6,3.784,4.016,9.501,7.264,11.506c3.869,2.391,5.941,3.662,7.256,4.436c1.26,0.74,2.675,1.277,4.59,1.742    c0.186,0.045,0.455,0.105,0.788,0.18c0.014,0.004,0.027,0.006,0.041,0.008c1.009,0.223,2.584,0.551,4.229,0.895    c2.544,0.533,5.175,1.082,5.828,1.258c0.811,0.217,1.377,0.422,2.119,0.797v-0.102l1.563-0.418    C360.776,171.317,360.037,171.007,358.809,170.679z"/>
	<path style="&st9;" d="M326.775,145.776c-1.518-1.85-3.412-2.907-5.792-3.231c-7.563-1.03-13.034,5.615-14.531,7.676    c-0.579,0.798-0.791,1.587-0.63,2.345c0.187,0.879,0.849,1.636,2.022,2.314c0.925,0.534,1.207,1.852,1.334,3.906    c-3.748-0.268-16.874-0.963-19.024-0.963c-2.25,0-4.396,0.215-5.74,0.575c-0.814,0.218-1.33,0.711-1.415,1.354    c-0.031,0.243,0.004,0.484,0.098,0.712l1.2-0.322c-0.079-0.091-0.115-0.176-0.107-0.233c0.014-0.104,0.187-0.258,0.535-0.352    c1.23-0.33,3.311-0.534,5.43-0.534c1.024,0,4.552,0.159,8.358,0.353c-1.072,0.459-1.842,1.221-2.771,2.212    c-1.446,1.547-5.037,5.459-6.284,7.012c-1.345,1.674-2.513,4.371-2.091,6.623c0.178,0.949,0.632,1.752,1.324,2.361v-0.465    l0.999-0.268c-0.612-0.455-0.998-1.074-1.144-1.85c-0.35-1.867,0.712-4.238,1.847-5.65c1.227-1.527,4.788-5.406,6.226-6.943    c1.467-1.568,2.279-2.322,4.694-2.322c2.368,0,5.266,0.001,7.928,0.064c0.005,0.133,0.009,0.266,0.014,0.402    c0.085,2.663,1.57,4.612,2.817,5.473l1.778,1.199l3.568,2.43c0.585,0.412,0.874,0.842,0.858,1.275    c-0.027,0.73-0.848,1.633-2.253,2.479c-2.253,1.355-7.23,3.711-9.104,4.598l-0.659,0.314c-0.668,0.322-1.462,0.268-2.18-0.146    c-0.359-0.207-0.817-0.084-1.025,0.275c-0.207,0.357-0.084,0.816,0.275,1.023c1.154,0.666,2.46,0.74,3.581,0.199l0.65-0.309    c1.892-0.896,6.918-3.275,9.235-4.67c1.901-1.145,2.932-2.426,2.979-3.709c0.024-0.668-0.215-1.654-1.492-2.555l-3.6-2.451    l-1.76-1.188c-1.035-0.715-2.108-2.318-2.171-4.287c-0.114-3.599-0.317-5.861-2.159-6.924c-0.764-0.44-1.215-0.899-1.306-1.327    c-0.069-0.324,0.058-0.712,0.377-1.151c1.373-1.891,6.376-7.988,13.115-7.071c2.015,0.274,3.551,1.131,4.835,2.696    c0.262,0.32,0.629,0.261,0.949-0.001S327.038,146.097,326.775,145.776z"/>
	<g>
		<path style="&st5;" d="M310.033,160.439c-0.859,0.781-2.014,2.093-2.39,3.027l-1.113-0.449c0.495-1.23,1.915-2.792,2.877-3.626     L310.033,160.439z"/>
		<path style="&st0;" d="M310.033,160.439c-0.859,0.781-2.014,2.093-2.39,3.027"/>
		<path style="&st0;" d="M306.53,163.017c0.495-1.23,1.915-2.792,2.877-3.626"/>
	</g>
	<g>
		<g>
			<path style="&st16;" d="M171.955,213.952l-1.604-0.926l-1.943,2.744l0.909,1.18l1.604,0.926l1.944-2.746L171.955,213.952z"/>
			<path style="&st8;" d="M170.92,217.876l-0.909-1.18"/>
			<path style="&st8;" d="M170.011,216.696l1.944-2.744"/>
			<path style="&st8;" d="M168.407,215.771l1.604,0.926"/>
		</g>
		<path style="&st16;" d="M166.372,206.247c0.225-0.422,0.424-0.543,0.529-0.576c0.044-0.016,0.178-0.057,0.429,0.088l2.014,1.162     c0.705,0.406,0.699,1.313,0.632,1.816c-0.231,1.752-1.809,3.922-4.051,4.521c-0.815,0.219-1.661,0.537-1.755,1.248     c-0.06,0.453,0.213,0.857,0.81,1.201c0.877,0.506,1.686,1.316,3.026,2.654c1.027,1.027,2.223,2.053,3.308,1.861     c0.362-0.064,0.866-0.295,1.21-1.031c1.138-2.439-0.036-3.451-0.594-3.773c-0.287-0.166-0.654-0.066-0.819,0.221     s-0.067,0.652,0.22,0.818c0.599,0.346,0.634,1.096,0.106,2.227c-0.151,0.324-0.286,0.35-0.33,0.355     c-0.23,0.041-0.829-0.104-2.252-1.525c-1.361-1.361-2.26-2.26-3.274-2.846c-0.014-0.008-0.015-0.01-0.027-0.018     c0.139-0.064,0.344-0.143,0.682-0.232c2.83-0.76,4.652-3.412,4.93-5.525c0.026-0.197,0.039-0.391,0.039-0.576     c0-1.094-0.444-1.965-1.261-2.436l-2.014-1.162c-0.466-0.27-0.948-0.336-1.395-0.193c-0.458,0.146-0.849,0.5-1.167,1.055"/>
		<path style="&st0;" d="M165.581,214.669c-0.319-0.184-0.339-0.348-0.163-0.395"/>
	</g>
	<g>
		<path style="&st7;" d="M368.973,155.053l-0.954-1.488l-2.286,0.613l-0.924,2.272l0.954,1.488l2.286-0.613L368.973,155.053z"/>
		<path style="&st8;" d="M365.763,157.939l0.923-2.272"/>
		<path style="&st8;" d="M366.686,155.667l2.287-0.613"/>
		<path style="&st8;" d="M365.732,154.178l0.953,1.488"/>
	</g>
	<path style="&st7;" d="M365.73,174.669c-0.287-0.166-0.654-0.066-0.82,0.221c-0.165,0.287-0.067,0.652,0.22,0.818l3.739,2.16    c0.963,0.555,1.896,0.711,2.771,0.463c1.033-0.295,1.93-1.135,2.665-2.5l0.082-0.152c1.017-1.887,1.576-2.926,2.299-5.604    c0.47-1.742,0.38-2.861-0.281-3.525c-0.591-0.59-1.532-0.701-2.88-0.34l-20.244,5.424c-4.077,1.092-8.078,0.602-10.191-1.25    c-1.384-1.213-1.941-2.932-1.655-5.111c0.812-6.205,6.839-10.5,12.451-12.004c7.19-1.927,11.465-2.266,12.703-1.007    c0.138,0.14,0.557,0.566,0.215,1.763c-0.092,0.319,0.093,0.651,0.412,0.742c0.318,0.091,0.65-0.093,0.741-0.412    c0.354-1.241,0.182-2.228-0.513-2.934c-2.089-2.124-8.509-0.747-13.869,0.689c-5.998,1.607-12.446,6.253-13.331,13.009    c-0.336,2.563,0.375,4.695,2.055,6.168c2.443,2.141,6.771,2.719,11.293,1.506l20.244-5.424c0.859-0.23,1.471-0.219,1.72,0.029    c0.18,0.18,0.414,0.727-0.028,2.365c-0.686,2.543-1.222,3.539-2.196,5.348l-0.082,0.152c-0.567,1.053-1.236,1.715-1.937,1.914    c-0.56,0.158-1.162,0.045-1.843-0.35L365.73,174.669z"/>
	<g>
		<path style="&st7;" d="M353.784,129.357l-1.604-0.926l-3.459,0.927v2.754l1.604,0.926l3.46-0.927V129.357z"/>
		<path style="&st8;" d="M350.324,133.039v-2.755"/>
		<path style="&st8;" d="M350.324,130.284l3.46-0.927"/>
		<path style="&st8;" d="M348.721,129.358l1.604,0.926"/>
	</g>
	<path style="&st7;" d="M362.458,151.532c2.26,0,4.483-1.729,5.492-4.806c0.726-2.213,1.837-6.653,1.124-11.523    c-0.595-4.06-4.117-9.038-8.772-10.001c-3.998-0.827-7.928-0.341-11.68,1.446c-2.11,1.005-2.671,2.666-2.3,3.783    c0.292,0.879,1.3,1.772,3.176,1.397c0.325-0.065,0.535-0.381,0.471-0.706c-0.065-0.325-0.381-0.536-0.706-0.471    c-0.927,0.186-1.617-0.044-1.802-0.599c-0.217-0.653,0.289-1.66,1.678-2.321c3.51-1.671,7.184-2.127,10.92-1.354    c4.017,0.831,7.29,5.324,7.828,8.999c0.677,4.627-0.384,8.862-1.076,10.977c-0.84,2.559-2.638,3.979-4.353,3.979"/>
	<g>
		<path style="&st16;" d="M161.885,210.458l-2.171-1.342l-2.094,0.561v3.395l2.17,1.34l2.095-0.561V210.458z"/>
		<path style="&st8;" d="M159.791,214.411v-3.393"/>
		<path style="&st8;" d="M159.791,211.019l2.095-0.561"/>
		<path style="&st8;" d="M157.62,209.677l2.17,1.342"/>
	</g>
	<g>
		<path style="&st16;" d="M161.885,206.169l-2.171-1.342l-2.094,0.561v3.393l2.17,1.342l2.095-0.561V206.169z"/>
		<path style="&st8;" d="M159.791,210.122v-3.393"/>
		<path style="&st8;" d="M159.791,206.729l2.095-0.561"/>
		<path style="&st8;" d="M157.62,205.388l2.17,1.342"/>
	</g>
	<path style="&st16;" d="M152.386,220.073c0.75-0.479,3.458-1.5,4.882-2.129l1.708-0.76c0.747-0.34,1.404-0.814,1.909-1.35    c0.035-0.012,0.068-0.027,0.1-0.049c1.089-0.709,1.769-1.971,1.863-3.459c0.104-1.641-0.518-3.242-1.622-4.182    c-0.189-0.16-0.474-0.137-0.634,0.053c-0.161,0.189-0.138,0.473,0.051,0.633c0.893,0.76,1.393,2.076,1.307,3.439    c-0.016,0.25-0.056,0.49-0.11,0.721c-0.107-0.346-0.306-0.66-0.599-0.934c-0.182-0.168-0.467-0.158-0.636,0.023    c-0.169,0.184-0.159,0.467,0.023,0.637c0.326,0.303,0.455,0.678,0.384,1.113c-0.148,0.914-1.139,1.957-2.409,2.535l-1.699,0.756    c-1.458,0.641-4.194,1.678-5.002,2.191"/>
	<g>
		<path style="&st9;" d="M325.98,180.835l-3.044-1.74l-1.838,0.527v2.354l3.042,1.74l1.84-0.527V180.835z"/>
		<path style="&st8;" d="M324.141,183.716v-2.354"/>
		<path style="&st8;" d="M324.141,181.362l1.84-0.527"/>
		<path style="&st8;" d="M321.099,179.622l3.042,1.74"/>
	</g>
	<path style="&st9;" d="M319.931,173.39c2.785,1.855,7.259,4.746,9.192,5.883c1.331,0.781,2.479,1.457,3.184,1.912    c1.285,0.832,1.125,1.723,0.996,2.066c-0.299,0.799-1.334,1.285-2.407,1.131c-1.431-0.203-5.52-1.467-5.692-1.52    c-0.316-0.098-0.494-0.434-0.396-0.75c0.098-0.316,0.434-0.494,0.75-0.396c0.042,0.012,4.171,1.289,5.508,1.479    c0.566,0.082,1.038-0.16,1.113-0.363c0.044-0.115-0.102-0.365-0.524-0.639c-0.682-0.441-1.821-1.111-3.14-1.887    c-1.947-1.145-6.771-4.191-9.584-6.066L319.931,173.39z"/>
	<path style="&st20;" d="M189.612,184.749c-2.419-1.445-15.169-9.045-18.569-10.699c-3.676-1.789-7.904-1.818-10.635-1.248    c-0.324,0.066-0.532,0.385-0.465,0.709c0.068,0.324,0.385,0.533,0.71,0.465c2.537-0.527,6.461-0.504,9.865,1.152    c0.951,0.463,2.687,1.424,4.732,2.59c0.204,0.289,0.288,0.639,0.229,1.008c-0.112,0.709-0.706,1.301-1.587,1.584    c-0.236,0.076-0.367,0.33-0.291,0.566s0.33,0.367,0.566,0.291c1.211-0.389,2.034-1.25,2.201-2.301    c0.026-0.168,0.029-0.334,0.021-0.498c0.423,0.244,0.855,0.494,1.292,0.746c0.627,0.609,0.967,1.355,0.861,1.965    c-0.113,0.65-0.71,0.959-1.191,1.104c-0.238,0.072-0.373,0.322-0.302,0.561s0.322,0.373,0.561,0.301    c1.023-0.307,1.669-0.949,1.819-1.809c0.065-0.373,0.029-0.768-0.091-1.158c3.469,2.021,6.975,4.104,8.782,5.18L189.612,184.749z"/>
	<g>
		<path style="&st20;" d="M161.848,173.718l-3.26-1.65l-3.106,0.922v2.496l3.258,1.65l3.108-0.922V173.718z"/>
		<path style="&st8;" d="M158.74,177.136v-2.496"/>
		<path style="&st8;" d="M158.74,174.64l3.108-0.922"/>
		<path style="&st8;" d="M155.482,172.989l3.258,1.65"/>
	</g>
	<g>
		<path style="&st20;" d="M175.348,179.917l-2.168-1.129l-3.106,0.922v2.496l2.166,1.131l3.108-0.922V179.917z"/>
		<path style="&st8;" d="M172.24,183.337v-2.498"/>
		<path style="&st8;" d="M172.24,180.839l3.108-0.922"/>
		<path style="&st8;" d="M170.074,179.71l2.166,1.129"/>
	</g>
	<g>
		<path style="&st20;" d="M178.688,181.87l-2.167-1.129l-3.106,0.922v2.496l2.166,1.129l3.108-0.92V181.87z"/>
		<path style="&st8;" d="M175.58,185.288v-2.496"/>
		<path style="&st8;" d="M175.58,182.792l3.108-0.922"/>
		<path style="&st8;" d="M173.414,181.663l2.166,1.129"/>
	</g>
	<path style="&st20;" d="M190.75,185.491l-1.64,0.439l1.712,0.988l1.639-0.439L190.75,185.491z"/>
	<path style="&st20;" d="M195.633,188.31l-1.64,0.439l0.884,0.51l1.64-0.439L195.633,188.31z"/>
	<path style="&st20;" d="M193.367,187.001l-1.64,0.439l1.361,0.787l1.64-0.439L193.367,187.001z"/>
	<g>
		<path style="&st2;" d="M162.005,180.868l3.407-1.045l2.247,1.455l-0.022,2.223l-3.407,1.045l-2.248-1.455L162.005,180.868z"/>
		<path style="&st3;" d="M164.23,184.546l0.022-2.223"/>
		<path style="&st3;" d="M164.253,182.323l-2.248-1.455"/>
		<path style="&st3;" d="M167.66,181.278l-3.407,1.045"/>
	</g>
	<g>
		<path style="&st4;" d="M164.253,182.323l3.407-1.045l1.102,0.662l-0.022,2.223l-3.407,1.045l-1.102-0.662L164.253,182.323z"/>
		<path style="&st3;" d="M165.333,185.208l0.023-2.223"/>
		<path style="&st3;" d="M165.355,182.985l-1.103-0.662"/>
		<path style="&st3;" d="M168.762,181.94l-3.407,1.045"/>
	</g>
	<g>
		<path style="&st16;" d="M158.74,174.64l-3.26-1.65l-3.106,0.92v2.498l3.258,1.65l3.108-0.922V174.64z"/>
		<path style="&st8;" d="M155.632,178.058v-2.496"/>
		<path style="&st8;" d="M155.632,175.562l3.108-0.922"/>
		<path style="&st8;" d="M152.374,173.909l3.258,1.652"/>
	</g>
	<g>
		<path style="&st2;" d="M165.355,182.985l3.407-1.045l2.248,1.455l-0.022,2.223l-3.407,1.045l-2.248-1.455L165.355,182.985z"/>
		<path style="&st3;" d="M167.581,186.663l0.022-2.223"/>
		<path style="&st3;" d="M167.603,184.44l-2.248-1.455"/>
		<path style="&st3;" d="M171.01,183.396l-3.407,1.045"/>
	</g>
	<path style="&st16;" d="M158.028,198.323c0.976-1.152,1.485-3.238,1.978-5.256c0.387-1.586,0.788-3.225,1.307-3.801    c0.135-0.15,0.197-0.34,0.19-0.527c0.9-0.488,2.932-0.801,5.402-0.801c1.317,0,2.496-0.605,2.934-1.508    c0.28-0.574,0.214-1.193-0.18-1.695c-0.154-0.195-0.437-0.229-0.632-0.076c-0.195,0.154-0.229,0.438-0.076,0.633    c0.181,0.23,0.207,0.48,0.078,0.746c-0.234,0.482-0.999,1-2.125,1c-1.241,0-3.809,0.086-5.397,0.719    c0.118-1.016-0.066-2.193-0.236-3.271c-0.156-0.992-0.304-1.928-0.16-2.42c0.203-0.697,0.61-1.17,1.146-1.33    c0.119-0.037,0.241-0.055,0.362-0.057l1.404-0.43c-0.581-0.443-1.328-0.586-2.025-0.377c-0.826,0.25-1.464,0.957-1.751,1.941    c-0.2,0.686-0.045,1.67,0.135,2.813c0.186,1.178,0.39,2.486,0.162,3.42c-0.129,0.037-0.251,0.109-0.348,0.217    c-0.771,0.857-1.178,2.521-1.649,4.449c-0.431,1.762-0.919,3.76-1.666,4.643"/>
	<path style="&st16;" d="M155.53,196.288c0-1.77-2.535-9.57-3.954-13.441c-0.874-2.383-1.609-5.758,2.079-7.533    c0.374-0.18,0.822-0.023,1.001,0.35s0.022,0.822-0.351,1.002c-2.052,0.988-2.435,2.629-1.321,5.666    c0.803,2.189,4.046,11.555,4.046,13.957l-0.147,1.066"/>
	<g>
		<path style="&st14;" d="M234.034,159.657l-1.604-0.926l-3.458,0.927v2.754l1.604,0.926l3.459-0.928V159.657z"/>
		<path style="&st8;" d="M230.575,163.339v-2.754"/>
		<path style="&st8;" d="M230.575,160.584l3.459-0.927"/>
		<path style="&st8;" d="M228.971,159.659l1.604,0.926"/>
	</g>
	<g>
		<path style="&st14;" d="M254.134,171.808l-1.604-0.926l-2.409,0.777l0.3,4.104l1.604,0.926l2.41-0.777L254.134,171.808z"/>
		<path style="&st8;" d="M252.024,176.688l-0.3-4.104"/>
		<path style="&st8;" d="M251.725,172.585l2.409-0.777"/>
		<path style="&st8;" d="M250.121,171.659l1.604,0.926"/>
	</g>
	<path style="&st14;" d="M211.845,198.978c-0.019-0.012-1.953-1.203-3.42-2.23c-1.282-0.898-2.144-2.629-2.144-4.309    c0-1.533,0.232-5.557,0.449-8.811c0.141-2.113,2.472-6.789,4.551-9.906c1.718-2.576,7.312-9.846,9.225-11.758    c2.07-2.071,3.72-3.29,5.517-4.076c1.531-0.669,4.82-1.685,7.514-2.376c-0.155,0.312-0.425,0.651-0.894,0.808    c-1.305,0.435-3.179,1.153-3.313,1.205c-0.951,0.245-1.625,0.875-1.849,1.742c-0.23,0.888,0.053,1.911,0.688,2.489    c0.486,0.441,1.112,0.568,1.717,0.348c0.312-0.113,0.472-0.457,0.359-0.769c-0.113-0.312-0.458-0.472-0.769-0.358    c-0.116,0.042-0.295,0.077-0.5-0.109c-0.309-0.28-0.453-0.839-0.334-1.299c0.118-0.455,0.473-0.764,1.027-0.894    c0.026-0.006,0.052-0.014,0.078-0.024c0.02-0.008,1.953-0.75,3.274-1.191c1.41-0.47,1.787-1.797,1.879-2.28    c0.84-0.194,1.558-0.335,2.051-0.393c2.173-0.256,3.808,0.16,6.217,3.085c1.986,2.411,6.3,9.611,8.162,13.955    c0.131,0.305,0.483,0.445,0.788,0.314c0.305-0.129,0.446-0.482,0.315-0.787c-1.755-4.094-6.119-11.55-8.338-14.245    c-2.393-2.905-4.367-3.857-7.284-3.515c-2.28,0.269-8.811,2.121-11.27,3.196c-1.942,0.85-3.702,2.143-5.884,4.326    c-1.995,1.996-7.591,9.265-9.375,11.941c-2.212,3.318-4.593,8.15-4.75,10.494c-0.106,1.588-0.451,6.922-0.451,8.889    c0,2.086,1.042,4.162,2.656,5.291c1.497,1.049,3.46,2.258,3.479,2.27"/>
	<g>
		<path style="&st1;" d="M135.511,183.14c-4.606,2.699-3.981,9.949-3.981,14.199s0.05,7.25,1,10.801     c0.95,3.549,1.507,4.723,4.929,7.127c8.071,5.672,31.371,20.422,41.651,25.979c0.559,0.303,1.064,0.469,1.563-0.215     c0.499-0.682,2.888-3.623,3.676-4.541c0.788-0.92,1.302-1.305,2.416-1.602c1.114-0.299,3.676-0.867,3.676-0.867     s1.155-2.732,1.707-4.018c0.551-1.287,0.63-1.76,0.604-3.1c-0.026-1.338-0.21-9.111-0.21-10.686c0-2.199-0.062-3.262-1.731-3.867     c-0.529-0.193-1.043-0.455-1.541-0.764"/>
		<path style="&st1;" d="M173.902,203.997c-1.748-12.998-1.805-29.156,1.178-39.158c0.653-2.189,0.833-2.563,2.375-3.975     c9.575-8.775,11.325-11.175,15.425-21.075c0.95-2.293,2.147-3.927,5.999-5.604c4.363-1.9,12.262-4.563,19.307-6.451"/>
		<path style="&st1;" d="M219.43,128.739c1.638,1.042,2.6,1.6,4.6,1.6c6.5,0,12.738-1.394,20.494-3.472s10.106-2.978,12.056-3.778     c1.95-0.8,3.596-2.285,2.55-5c-3.1-8.05-6.25-19.4-7.7-25.4c-0.65-2.69-1.15-3.45-2.2-5.3s-1.75-2.75-2.5-3.8     c-0.75-1.05-2-1.55-4.9-1.15c-2.9,0.4-9.823,2.28-13.4,3.45c-5.062,1.655-10.665,4.267-12.25,10.05     c-2.85,10.4-1.15,24.75,0.8,29.55C217.797,127.499,218.232,127.976,219.43,128.739z"/>
		<path style="&st1;" d="M258.862,117.383c3.97-1.064,7.815-1.488,9.875-1.096c1.214,0.231,2.656,1.442,3.188,2.959     c0.53,1.518,0.883,3.342,0.986,5.235c0.14,2.576,0,7.437-0.304,10.092s-0.835,4.78-2.655,8.347     c-1.821,3.566-8.195,18.969-8.195,45.754c0,2.125,0.152,3.111-0.759,4.934c-0.911,1.82-1.138,2.123-1.138,2.123     c0,3.871,0.151,14.869-10.623,17.756s-56.485,15.137-56.485,15.137"/>
		<path style="&st1;" d="M249.025,213.544c1.245,0.719,3.972,2.293,4.584,2.646c0.799,0.463,1.14,0.488,1.991,0.143     c1.601-0.65,2.188-0.988,3.247-1.6s1.24-0.791,1.999-2.156s3.187-5.918,3.187-12.672c0-4.477-0.894-7.738-2.268-9.939"/>
		<path style="&st1;" d="M141.454,170.772c0.111-0.277,0.369-0.443,0.796-0.652c6.755-3.291,19.741-7.004,24.886-8.381     c5.85-1.568,9.828-2.316,12.35-2.752"/>
		<path style="&st1;" d="M163.144,205.278c-6.241-3.977-22.065-14.795-24.234-16.527c-2.575-2.059-3.264-3.717-3.567-6.98     c-0.304-3.262,0.174-8.844,5.083-10.775c2.323-0.912,4.098,0.455,10.32,6.223c6.222,5.768,15.845,14.424,22.415,19.885"/>
		<path style="&st1;" d="M193.859,139.057c1.289-2.243,3.776-2.408,5.799-2.209c3.61,0.355,5.762,0.643,9.19,0.894     c3.932,0.288,5.466,0.192,10.021-0.671c4.555-0.863,17.472-4.124,26.418-6.521c8.947-2.397,20.713-5.802,23.302-6.952     c2.59-1.151,3.472-2.22,3.117-3.836"/>
		<path style="&st1;" d="M190.352,211.353c-1.146-10.723,0.082-33.641,10.804-47.393c5.369-6.884,7.776-8.512,17.516-10.149     c9.74-1.637,18.58-4.174,26.11-6.302c7.53-2.128,15.47-4.748,20.299-6.303c4.829-1.555,4.175,0.41,3.356,2.701"/>
		<path style="&st1;" d="M213.363,140.061c0.131,2.234,0.131,10.118,0.131,13.271"/>
		<path style="&st1;" d="M222.929,129.303c-1.066,0-1.865-0.533-2.576-2.309c-0.71-1.776-3.197-15.985-1.687-21.491     c1.509-5.506,5.422-10.814,12.61-12.788c3.928-1.079,11.367-3.089,14.564-3.73c2.429-0.487,3.175-0.191,4.083,0.716"/>
		<path style="&st1;" d="M179.896,240.288c5.576-8.273,7.451-15.541,7.451-19.883c0-1.945-0.321-5.201-1.353-8.045"/>
		<path style="&st1;" d="M132.587,204.222c0.777,1.234,1.188,1.646,2.788,2.834c1.6,1.189,6.209,4.139,7.908,5.119     c1.699,0.982,4.022,1.465,4.937-0.318s1.177-2.254,1.691-3.611c1.178-3.109,0.64-4.342-1.965-6.445     c-2.605-2.104-11.291-8.273-12.479-9.143c-1.188-0.867-2.057-1.781-2.56-2.697"/>
		<path style="&st1;" d="M289.276,156.691c-0.138-8.577,0.55-16.979,2.371-23.086c0.653-2.19,0.834-2.563,2.375-3.975     c9.575-8.775,11.325-11.175,15.425-21.075c0.95-2.293,2.147-3.927,5.999-5.604c4.363-1.9,12.262-4.563,19.308-6.451"/>
		<path style="&st1;" d="M335.997,97.505c1.639,1.042,2.601,1.6,4.601,1.6c6.5,0,12.738-1.394,20.494-3.472     s10.105-2.978,12.056-3.778c1.95-0.8,3.596-2.285,2.55-5c-3.1-8.05-6.25-19.4-7.699-25.4c-0.65-2.69-1.15-3.45-2.2-5.3     c-1.05-1.85-1.75-2.75-2.5-3.8c-0.75-1.05-2-1.55-4.9-1.15s-9.822,2.28-13.4,3.45c-5.062,1.655-10.665,4.267-12.249,10.05     c-2.851,10.4-1.15,24.75,0.8,29.55C334.364,96.264,334.799,96.742,335.997,97.505z"/>
		<path style="&st1;" d="M375.429,86.148c3.971-1.064,7.815-1.488,9.876-1.095c1.214,0.231,2.656,1.441,3.187,2.959     c0.531,1.518,0.884,3.342,0.987,5.236c0.14,2.576,0,7.436-0.304,10.092s-0.835,4.78-2.655,8.347     c-1.821,3.566-8.195,18.97-8.195,45.755c0,2.125,0.151,3.111-0.759,4.933c-0.911,1.82-1.139,2.125-1.139,2.125     c0,3.869,0.151,14.867-10.623,17.756c-10.773,2.887-56.484,15.135-56.484,15.135"/>
		<path style="&st1;" d="M360.426,183.694c2.477,1.43,7.021,4.055,7.506,4.334c0.799,0.461,1.14,0.488,1.991,0.143     c1.601-0.65,2.188-0.988,3.247-1.6c1.06-0.613,3.484-3.861,4.243-5.229c0.759-1.365,3.188-5.918,3.188-12.672     c0-4.477-0.893-7.738-2.268-9.939"/>
		<path style="&st1;" d="M272.693,133.715c4.429-1.396,8.588-2.562,11.01-3.211c5.85-1.567,9.827-2.315,12.35-2.751"/>
		<path style="&st1;" d="M268.256,146.855c3.865,3.567,8.807,8.039,13.494,12.159"/>
		<path style="&st1;" d="M310.426,107.823c1.289-2.242,3.776-2.408,5.799-2.208c3.61,0.355,5.763,0.643,9.19,0.894     c3.932,0.288,5.466,0.192,10.021-0.671c4.555-0.863,17.472-4.124,26.419-6.521c8.946-2.397,20.713-5.801,23.302-6.952     c2.59-1.151,3.472-2.219,3.117-3.835"/>
		<path style="&st1;" d="M306.682,168.485c0.561-11.398,3.372-25.923,11.042-35.759c5.368-6.885,7.775-8.513,17.516-10.149     s18.58-4.175,26.11-6.303s15.47-4.747,20.299-6.302s4.175,0.409,3.356,2.701"/>
		<path style="&st1;" d="M329.93,108.827c0.132,2.234,0.132,10.118,0.132,13.271"/>
		<path style="&st1;" d="M265.938,154.091c1.411,0.57,2.832,1.43,4.348,2.694c3.463,2.89,5.918,3.593,8.566,4.23     c0.897,0.216,1.796,0.503,2.746,0.929"/>
		<path style="&st1;" d="M339.496,98.069c-1.065,0-1.865-0.533-2.575-2.309c-0.711-1.776-3.197-15.985-1.688-21.492     c1.51-5.506,5.423-10.813,12.61-12.788c3.928-1.079,11.368-3.089,14.564-3.73c2.429-0.487,3.176-0.191,4.083,0.717"/>
		<path style="&st1;" d="M300.329,207.442c0.117-3.154,3.585-13.93,3.585-18.271c0-1.938-0.318-5.176-1.342-8.012"/>
		<path style="&st1;" d="M307.377,181.116c1.67,0.605,1.731,1.668,1.731,3.867c0,1.574,0.184,9.348,0.21,10.686     c0.026,1.34-0.053,1.813-0.604,3.1c-0.552,1.287-4.282,9.094-4.282,9.094s-2.58,0.139-3.342,0.139s-1.407-0.09-1.964-0.412     c-0.557-0.32-2.109-1.23-2.843-1.816c-0.732-0.586-0.938-0.791-1.231-1.699s-1.846-9.584-1.846-13.219c0-2.496,0-6.029,0-8.359"/>
		<path style="&st1;" d="M293.247,192.032l-1.679-4.027c0,0,0.382-4.533,0.49-5.916"/>
		<path style="&st1;" d="M294.552,201.649l-32.453-23.494"/>
		<path style="&st1;" d="M177.358,240.28c-0.901,0.521-0.901,0.828-1.146,2.051c-0.245,1.225-0.734,4.406-0.856,5.752     c-0.123,1.348-0.142,1.561,0.626,2.23s5.126,3.705,5.126,3.705l1.101,0.123c0,0,2.873,1.658,4.608,2.66     c1.736,1.002,3.029,1.412,4.376,1.051c1.348-0.361,5.043-1.33,6.62-1.752c1.577-0.424,1.958-0.797,1.958-1.836     c0-1.041-0.238-1.799-1.614-2.715c-3.368-2.242-5.067-4.564-5.79-7.504c-0.387-1.574-0.606-1.998-1.408-2.799     c0,0,0-0.555,0-0.992s-0.233-1.137-0.904-1.662s-2.333-1.721-2.333-1.721l-1.374,0.367v0.479c0,0,2.131,1.529,2.513,1.871     c0.29,0.258,0.377,0.287,0.814,0.316s0.729,0.232,0.729,0.816"/>
		<path style="&st1;" d="M186.833,237.11l-1.76-1.375"/>
		<path style="&st1;" d="M179.189,241.282c-0.288,0.193-0.665,0.309-1.095,0.299"/>
		<path style="&st1;" d="M184.834,244.63c-0.561,0.094-0.934-0.506-0.934-1.141v-0.814c0-0.99,0.162-1.314,0.612-1.574     c0.451-0.26,0.175-0.699-0.335-1.111c-0.409-0.33-1.189-0.885-1.686-1.25"/>
		<path style="&st1;" d="M198.309,252.118c0.257,0.766-0.038,1.234-0.69,1.408c-0.714,0.191-4.527,1.213-5.866,1.572     c-1.339,0.357-3.153,0.416-4.308-0.25c-0.466-0.27-1.271-0.734-2.058-1.189c-1.926-1.111-2.836-2.996-2.836-7.879     c0-0.578,0.111-1.045,0.667-1.367"/>
		<path style="&st1;" d="M183.487,243.597c-0.464,0-1.078-0.098-1.559-0.48c-0.481-0.381-1.575-1.293-1.575-1.293"/>
		<path style="&st1;" d="M183.945,243.86c0,0,4.243-1.137,4.824-1.293s0.944-0.607,0.944-1.188s-0.037-1.475-0.037-1.475"/>
		<path style="&st1;" d="M175.315,248.548l-28.918-21.016c0,0,0-3.828,0-4.531s0.175-1.273,0.399-1.498"/>
		<path style="&st1;" d="M246.388,221.151l-6.58-5.137"/>
		<path style="&st1;" d="M244.39,228.673c-0.56,0.092-0.933-0.508-0.933-1.143v-0.813c0-0.992,0.161-1.314,0.612-1.574     c0.451-0.262,0.175-0.701-0.336-1.113c-0.511-0.41-1.6-1.172-1.994-1.48c-0.293-0.23-0.481-0.254-0.856-0.09     s-1.546,1.148-1.546,1.852c0,0.701-0.703,1.334-1.687,1.311"/>
		<path style="&st1;" d="M257.864,236.161c0.258,0.764-0.038,1.232-0.689,1.408c-0.714,0.191-4.527,1.213-5.866,1.572     c-1.339,0.357-3.153,0.416-4.308-0.252c-0.467-0.27-1.271-0.732-2.058-1.188c-1.927-1.113-2.837-2.996-2.837-7.881     c0-0.578,0.111-1.045,0.667-1.365"/>
		<path style="&st1;" d="M243.042,227.64c-0.464,0-1.078-0.1-1.559-0.48c-0.481-0.381-1.576-1.293-1.576-1.293"/>
		<path style="&st1;" d="M243.5,227.903c0,0,4.244-1.139,4.825-1.293c0.581-0.156,0.943-0.609,0.943-1.188     c0-0.58-0.037-1.477-0.037-1.477"/>
		<path style="&st1;" d="M239.06,225.044l-8.875-6.449"/>
		<path style="&st1;" d="M297.55,207.765c-0.902,0.52-1.327,1.252-1.572,2.477c-0.244,1.223-0.733,4.924-0.856,6.271     c-0.122,1.346-0.142,1.693,0.626,2.229c0.22,0.154,1.012,0.615,1.37,0.801c0.396,0.205,0.539,0.389,0.609,0.613     c0.073,0.238,0.307,1.127,0.402,1.373c0.095,0.24,0.372,0.459,0.583,0.594c2.672,1.734,6.453,4.096,7.528,4.717     c1.49,0.859,3.321,0.771,4.498,0.455c1.349-0.361,5.264-1.391,6.84-1.813s1.959-0.795,1.959-1.836v-1.473     c0-1.039-0.238-1.797-1.614-2.713c-3.368-2.242-5.067-4.564-5.79-7.506c-0.388-1.574-0.605-1.996-1.408-2.799     c0,0,0-0.553,0-0.992c0-0.438-0.233-1.137-0.904-1.662s-2.333-1.721-2.333-1.721l-1.374,0.369v0.477c0,0,2.131,1.529,2.514,1.871     c0.289,0.258,0.377,0.287,0.814,0.316s0.729,0.232,0.729,0.816"/>
		<path style="&st1;" d="M306.598,205.019l-0.592-0.463"/>
		<path style="&st1;" d="M299.633,207.813c-0.055,0.125-0.086,0.248-0.086,0.363c0,0.703-0.703,1.336-1.687,1.313"/>
		<path style="&st1;" d="M304.6,212.538c-0.56,0.094-0.934-0.506-0.934-1.141v-0.813c0-0.992,0.162-1.314,0.613-1.576     c0.45-0.26,0.174-0.699-0.336-1.111"/>
		<path style="&st1;" d="M318.074,220.028c0.258,0.764-0.038,1.232-0.689,1.408c-0.714,0.191-4.527,1.213-5.866,1.57     c-1.339,0.359-3.152,0.416-4.308-0.25c-0.467-0.27-1.271-0.734-2.059-1.188c-1.926-1.113-2.836-2.996-2.836-7.881     c0-0.578,0.111-1.045,0.667-1.365"/>
		<path style="&st1;" d="M303.252,211.507c-0.464,0-1.078-0.1-1.559-0.48c-0.481-0.383-1.576-1.293-1.576-1.293"/>
		<path style="&st1;" d="M303.71,211.769c0,0,4.243-1.137,4.824-1.291c0.582-0.156,0.943-0.609,0.943-1.189     c0-0.578-0.036-1.475-0.036-1.475"/>
		<path style="&st1;" d="M237.339,223.897c-0.902,0.521-1.327,1.252-1.572,2.477s-0.734,4.926-0.856,6.271s-0.142,1.693,0.626,2.23     c0.219,0.152,1.011,0.615,1.37,0.799c0.396,0.205,0.539,0.389,0.609,0.613c0.073,0.238,0.307,1.127,0.403,1.373     c0.095,0.24,0.372,0.459,0.583,0.596c2.672,1.734,6.453,4.094,7.529,4.715c1.49,0.861,3.321,0.771,4.498,0.455     c1.348-0.359,5.264-1.389,6.84-1.813c1.576-0.422,1.958-0.795,1.958-1.836v-1.473c0-1.039-0.238-1.797-1.614-2.713     c-3.368-2.242-5.067-4.564-5.79-7.506c-0.387-1.572-0.605-1.996-1.408-2.799c0,0,0-0.553,0-0.99s-0.233-1.139-0.904-1.664     c-0.671-0.523-2.333-1.721-2.333-1.721l-1.374,0.369v0.477c0,0,2.131,1.529,2.513,1.871c0.29,0.26,0.377,0.287,0.814,0.316     c0.438,0.029,0.729,0.234,0.729,0.816"/>
		<path style="&st1;" d="M299.27,208.911l-37.368-27.156"/>
		<path style="&st1;" d="M357.817,191.616c-0.902,0.52-1.327,1.252-1.572,2.477c-0.244,1.223-0.733,4.404-0.856,5.752     c-0.122,1.346-0.142,1.561,0.626,2.229c0.769,0.67,5.126,3.707,5.126,3.707l1.102,0.121c0,0,2.873,1.66,4.607,2.662     c1.735,1.002,3.029,1.41,4.377,1.049s5.043-1.33,6.619-1.752s1.959-0.795,1.959-1.836s-0.238-1.797-1.614-2.713     c-3.368-2.244-5.067-4.566-5.79-7.506c-0.388-1.574-0.605-1.996-1.408-2.799c0,0,0-0.555,0-0.992s-0.233-1.137-0.904-1.662     s-2.333-1.721-2.333-1.721l-1.374,0.367v0.479c0,0,2.131,1.529,2.514,1.871c0.289,0.258,0.377,0.287,0.814,0.316     s0.729,0.232,0.729,0.816"/>
		<path style="&st1;" d="M366.865,188.87l-6.579-5.137"/>
		<path style="&st1;" d="M364.867,196.39c-0.561,0.094-0.934-0.506-0.934-1.141v-0.813c0-0.992,0.162-1.314,0.613-1.576     c0.45-0.26,0.174-0.699-0.336-1.111c-0.511-0.412-1.601-1.174-1.994-1.482c-0.294-0.23-0.481-0.252-0.856-0.088     c-0.374,0.162-1.546,1.146-1.546,1.85s-0.703,1.336-1.687,1.313"/>
		<path style="&st1;" d="M378.342,203.88c0.258,0.764-0.038,1.232-0.689,1.406c-0.714,0.191-4.527,1.215-5.866,1.572     c-1.339,0.359-3.152,0.416-4.308-0.25c-0.467-0.27-1.271-0.734-2.059-1.188c-1.926-1.113-2.836-2.996-2.836-7.881     c0-0.578,0.111-1.045,0.667-1.365"/>
		<path style="&st1;" d="M363.52,195.358c-0.464,0-1.078-0.1-1.559-0.48c-0.481-0.383-1.576-1.295-1.576-1.295"/>
		<path style="&st1;" d="M363.978,195.62c0,0,4.243-1.137,4.824-1.293c0.582-0.154,0.943-0.607,0.943-1.188     s-0.036-1.475-0.036-1.475"/>
		<path style="&st1;" d="M359.537,192.763l-8.875-6.451"/>
		<path style="&st1;" d="M136.599,214.642c0,0-3.343,0.766-4.261,1.012c-0.917,0.244-1.163,0.555-0.918,1.35     c0.244,0.795,0.674,2.26,0.857,2.934c0.184,0.672,0.457,0.809,1.554,0.672l1.131-0.303"/>
		<path style="&st1;" d="M146.397,226.907c0,0-11.131-6.426-11.852-6.842c-0.722-0.416-1.471-0.123-1.798-0.082"/>
		<path style="&st1;" d="M145.965,203.763c0.309-0.127,0.673-0.145,1.001,0.055c0.328,0.201,0.708,0.459,1.001,0.691     c0.437,0.346,0.414,1.086,0.237,1.713c-0.273,0.965-1.202,3.24-1.693,4.004c-0.353,0.549-0.728,0.639-1.202,0.656"/>
		<path style="&st1;" d="M140.191,202.39c-1.744-1.229-3.934-2.674-4.298-2.9c-0.544-0.338-0.788-0.412-1.144-0.188     c-0.356,0.225-0.918,0.619-1.181,0.807s-0.337,0.393-0.337,0.711c0,0.32,0.019,1.445,0.075,1.914     c0.057,0.469,0.188,0.898,0.75,1.313c0.584,0.428,4.575,3.037,5.025,3.336c0.169,0.113,0.294,0.191,0.403,0.252"/>
		<path style="&st1;" d="M133.604,200.7c0.03-0.139,0.239-0.16,0.489-0.012c0.986,0.592,4.675,3.15,5.45,3.891     c0.266,0.254,0.501,0.611,0.447,0.943s-0.193,1.207-0.248,1.432c-0.055,0.223-0.169,0.387-0.278,0.344"/>
		<path style="&st1;" d="M263.063,168.505c4.581,3.02,12.759,8.375,17.821,11.1c5.063,2.727,7.25,3.584,11.024,4.324"/>
	</g>
	<g>
		<path style="&st8;" d="M135.511,183.14c-4.606,2.699-3.981,9.949-3.981,14.199s0.05,7.25,1,10.801     c0.95,3.549,1.507,4.723,4.929,7.127c8.071,5.672,31.371,20.422,41.651,25.979c0.559,0.303,1.064,0.469,1.563-0.215     c0.499-0.682,2.888-3.623,3.676-4.541c0.788-0.92,1.302-1.305,2.416-1.602c1.114-0.299,3.676-0.867,3.676-0.867     s1.155-2.732,1.707-4.018c0.551-1.287,0.63-1.76,0.604-3.1c-0.026-1.338-0.21-9.111-0.21-10.686c0-2.199-0.062-3.262-1.731-3.867     c-0.529-0.193-1.043-0.455-1.541-0.764"/>
		<path style="&st8;" d="M173.902,203.997c-1.748-12.998-1.805-29.156,1.178-39.158c0.653-2.189,0.833-2.563,2.375-3.975     c9.575-8.775,11.325-11.175,15.425-21.075c0.95-2.293,2.147-3.927,5.999-5.604c4.363-1.9,12.262-4.563,19.307-6.451"/>
		<path style="&st8;" d="M219.43,128.739c1.638,1.042,2.6,1.6,4.6,1.6c6.5,0,12.738-1.394,20.494-3.472s10.106-2.978,12.056-3.778     c1.95-0.8,3.596-2.285,2.55-5c-3.1-8.05-6.25-19.4-7.7-25.4c-0.65-2.69-1.15-3.45-2.2-5.3s-1.75-2.75-2.5-3.8     c-0.75-1.05-2-1.55-4.9-1.15c-2.9,0.4-9.823,2.28-13.4,3.45c-5.062,1.655-10.665,4.267-12.25,10.05     c-2.85,10.4-1.15,24.75,0.8,29.55C217.797,127.499,218.232,127.976,219.43,128.739z"/>
		<path style="&st8;" d="M258.862,117.383c3.97-1.064,7.815-1.488,9.875-1.096c1.214,0.231,2.656,1.442,3.188,2.959     c0.53,1.518,0.883,3.342,0.986,5.235c0.14,2.576,0,7.437-0.304,10.092s-0.835,4.78-2.655,8.347     c-1.821,3.566-8.195,18.969-8.195,45.754c0,2.125,0.152,3.111-0.759,4.934c-0.911,1.82-1.138,2.123-1.138,2.123     c0,3.871,0.151,14.869-10.623,17.756s-56.485,15.137-56.485,15.137"/>
		<path style="&st8;" d="M249.025,213.544c1.245,0.719,3.972,2.293,4.584,2.646c0.799,0.463,1.14,0.488,1.991,0.143     c1.601-0.65,2.188-0.988,3.247-1.6s1.24-0.791,1.999-2.156s3.187-5.918,3.187-12.672c0-4.477-0.894-7.738-2.268-9.939"/>
		<path style="&st8;" d="M141.454,170.772c0.111-0.277,0.369-0.443,0.796-0.652c6.755-3.291,19.741-7.004,24.886-8.381     c5.85-1.568,9.828-2.316,12.35-2.752"/>
		<path style="&st8;" d="M163.144,205.278c-6.241-3.977-22.065-14.795-24.234-16.527c-2.575-2.059-3.264-3.717-3.567-6.98     c-0.304-3.262,0.174-8.844,5.083-10.775c2.323-0.912,4.098,0.455,10.32,6.223c6.222,5.768,15.845,14.424,22.415,19.885"/>
		<path style="&st8;" d="M193.859,139.057c1.289-2.243,3.776-2.408,5.799-2.209c3.61,0.355,5.762,0.643,9.19,0.894     c3.932,0.288,5.466,0.192,10.021-0.671c4.555-0.863,17.472-4.124,26.418-6.521c8.947-2.397,20.713-5.802,23.302-6.952     c2.59-1.151,3.472-2.22,3.117-3.836"/>
		<path style="&st8;" d="M190.352,211.353c-1.146-10.723,0.082-33.641,10.804-47.393c5.369-6.884,7.776-8.512,17.516-10.149     c9.74-1.637,18.58-4.174,26.11-6.302c7.53-2.128,15.47-4.748,20.299-6.303c4.829-1.555,4.175,0.41,3.356,2.701"/>
		<path style="&st8;" d="M213.363,140.061c0.131,2.234,0.131,10.118,0.131,13.271"/>
		<path style="&st8;" d="M222.929,129.303c-1.066,0-1.865-0.533-2.576-2.309c-0.71-1.776-3.197-15.985-1.687-21.491     c1.509-5.506,5.422-10.814,12.61-12.788c3.928-1.079,11.367-3.089,14.564-3.73c2.429-0.487,3.175-0.191,4.083,0.716"/>
		<path style="&st8;" d="M179.896,240.288c5.576-8.273,7.451-15.541,7.451-19.883c0-1.945-0.321-5.201-1.353-8.045"/>
		<path style="&st8;" d="M132.587,204.222c0.777,1.234,1.188,1.646,2.788,2.834c1.6,1.189,6.209,4.139,7.908,5.119     c1.699,0.982,4.022,1.465,4.937-0.318s1.177-2.254,1.691-3.611c1.178-3.109,0.64-4.342-1.965-6.445     c-2.605-2.104-11.291-8.273-12.479-9.143c-1.188-0.867-2.057-1.781-2.56-2.697"/>
		<path style="&st8;" d="M289.276,156.691c-0.138-8.577,0.55-16.979,2.371-23.086c0.653-2.19,0.834-2.563,2.375-3.975     c9.575-8.775,11.325-11.175,15.425-21.075c0.95-2.293,2.147-3.927,5.999-5.604c4.363-1.9,12.262-4.563,19.308-6.451"/>
		<path style="&st8;" d="M335.997,97.505c1.639,1.042,2.601,1.6,4.601,1.6c6.5,0,12.738-1.394,20.494-3.472     s10.105-2.978,12.056-3.778c1.95-0.8,3.596-2.285,2.55-5c-3.1-8.05-6.25-19.4-7.699-25.4c-0.65-2.69-1.15-3.45-2.2-5.3     c-1.05-1.85-1.75-2.75-2.5-3.8c-0.75-1.05-2-1.55-4.9-1.15s-9.822,2.28-13.4,3.45c-5.062,1.655-10.665,4.267-12.249,10.05     c-2.851,10.4-1.15,24.75,0.8,29.55C334.364,96.264,334.799,96.742,335.997,97.505z"/>
		<path style="&st8;" d="M375.429,86.148c3.971-1.064,7.815-1.488,9.876-1.095c1.214,0.231,2.656,1.441,3.187,2.959     c0.531,1.518,0.884,3.342,0.987,5.236c0.14,2.576,0,7.436-0.304,10.092s-0.835,4.78-2.655,8.347     c-1.821,3.566-8.195,18.97-8.195,45.755c0,2.125,0.151,3.111-0.759,4.933c-0.911,1.82-1.139,2.125-1.139,2.125     c0,3.869,0.151,14.867-10.623,17.756c-10.773,2.887-56.484,15.135-56.484,15.135"/>
		<path style="&st8;" d="M360.426,183.694c2.477,1.43,7.021,4.055,7.506,4.334c0.799,0.461,1.14,0.488,1.991,0.143     c1.601-0.65,2.188-0.988,3.247-1.6c1.06-0.613,3.484-3.861,4.243-5.229c0.759-1.365,3.188-5.918,3.188-12.672     c0-4.477-0.893-7.738-2.268-9.939"/>
		<path style="&st8;" d="M272.693,133.715c4.429-1.396,8.588-2.562,11.01-3.211c5.85-1.567,9.827-2.315,12.35-2.751"/>
		<path style="&st8;" d="M268.256,146.855c3.865,3.567,8.807,8.039,13.494,12.159"/>
		<path style="&st8;" d="M310.426,107.823c1.289-2.242,3.776-2.408,5.799-2.208c3.61,0.355,5.763,0.643,9.19,0.894     c3.932,0.288,5.466,0.192,10.021-0.671c4.555-0.863,17.472-4.124,26.419-6.521c8.946-2.397,20.713-5.801,23.302-6.952     c2.59-1.151,3.472-2.219,3.117-3.835"/>
		<path style="&st8;" d="M306.682,168.485c0.561-11.398,3.372-25.923,11.042-35.759c5.368-6.885,7.775-8.513,17.516-10.149     s18.58-4.175,26.11-6.303s15.47-4.747,20.299-6.302s4.175,0.409,3.356,2.701"/>
		<path style="&st8;" d="M329.93,108.827c0.132,2.234,0.132,10.118,0.132,13.271"/>
		<path style="&st8;" d="M265.938,154.091c1.411,0.57,2.832,1.43,4.348,2.694c3.463,2.89,5.918,3.593,8.566,4.23     c0.897,0.216,1.796,0.503,2.746,0.929"/>
		<path style="&st8;" d="M339.496,98.069c-1.065,0-1.865-0.533-2.575-2.309c-0.711-1.776-3.197-15.985-1.688-21.492     c1.51-5.506,5.423-10.813,12.61-12.788c3.928-1.079,11.368-3.089,14.564-3.73c2.429-0.487,3.176-0.191,4.083,0.717"/>
		<path style="&st8;" d="M300.329,207.442c0.117-3.154,3.585-13.93,3.585-18.271c0-1.938-0.318-5.176-1.342-8.012"/>
		<path style="&st8;" d="M307.377,181.116c1.67,0.605,1.731,1.668,1.731,3.867c0,1.574,0.184,9.348,0.21,10.686     c0.026,1.34-0.053,1.813-0.604,3.1c-0.552,1.287-4.282,9.094-4.282,9.094s-2.58,0.139-3.342,0.139s-1.407-0.09-1.964-0.412     c-0.557-0.32-2.109-1.23-2.843-1.816c-0.732-0.586-0.938-0.791-1.231-1.699s-1.846-9.584-1.846-13.219c0-2.496,0-6.029,0-8.359"/>
		<path style="&st8;" d="M293.247,192.032l-1.679-4.027c0,0,0.382-4.533,0.49-5.916"/>
		<path style="&st8;" d="M294.552,201.649l-32.453-23.494"/>
		<path style="&st8;" d="M177.358,240.28c-0.901,0.521-0.901,0.828-1.146,2.051c-0.245,1.225-0.734,4.406-0.856,5.752     c-0.123,1.348-0.142,1.561,0.626,2.23s5.126,3.705,5.126,3.705l1.101,0.123c0,0,2.873,1.658,4.608,2.66     c1.736,1.002,3.029,1.412,4.376,1.051c1.348-0.361,5.043-1.33,6.62-1.752c1.577-0.424,1.958-0.797,1.958-1.836     c0-1.041-0.238-1.799-1.614-2.715c-3.368-2.242-5.067-4.564-5.79-7.504c-0.387-1.574-0.606-1.998-1.408-2.799     c0,0,0-0.555,0-0.992s-0.233-1.137-0.904-1.662s-2.333-1.721-2.333-1.721l-1.374,0.367v0.479c0,0,2.131,1.529,2.513,1.871     c0.29,0.258,0.377,0.287,0.814,0.316s0.729,0.232,0.729,0.816"/>
		<path style="&st8;" d="M186.833,237.11l-1.76-1.375"/>
		<path style="&st8;" d="M179.189,241.282c-0.288,0.193-0.665,0.309-1.095,0.299"/>
		<path style="&st8;" d="M184.834,244.63c-0.561,0.094-0.934-0.506-0.934-1.141v-0.814c0-0.99,0.162-1.314,0.612-1.574     c0.451-0.26,0.175-0.699-0.335-1.111c-0.409-0.33-1.189-0.885-1.686-1.25"/>
		<path style="&st8;" d="M198.309,252.118c0.257,0.766-0.038,1.234-0.69,1.408c-0.714,0.191-4.527,1.213-5.866,1.572     c-1.339,0.357-3.153,0.416-4.308-0.25c-0.466-0.27-1.271-0.734-2.058-1.189c-1.926-1.111-2.836-2.996-2.836-7.879     c0-0.578,0.111-1.045,0.667-1.367"/>
		<path style="&st8;" d="M183.487,243.597c-0.464,0-1.078-0.098-1.559-0.48c-0.481-0.381-1.575-1.293-1.575-1.293"/>
		<path style="&st8;" d="M183.945,243.86c0,0,4.243-1.137,4.824-1.293s0.944-0.607,0.944-1.188s-0.037-1.475-0.037-1.475"/>
		<path style="&st8;" d="M175.315,248.548l-28.918-21.016c0,0,0-3.828,0-4.531s0.175-1.273,0.399-1.498"/>
		<path style="&st8;" d="M246.388,221.151l-6.58-5.137"/>
		<path style="&st8;" d="M244.39,228.673c-0.56,0.092-0.933-0.508-0.933-1.143v-0.813c0-0.992,0.161-1.314,0.612-1.574     c0.451-0.262,0.175-0.701-0.336-1.113c-0.511-0.41-1.6-1.172-1.994-1.48c-0.293-0.23-0.481-0.254-0.856-0.09     s-1.546,1.148-1.546,1.852c0,0.701-0.703,1.334-1.687,1.311"/>
		<path style="&st8;" d="M257.864,236.161c0.258,0.764-0.038,1.232-0.689,1.408c-0.714,0.191-4.527,1.213-5.866,1.572     c-1.339,0.357-3.153,0.416-4.308-0.252c-0.467-0.27-1.271-0.732-2.058-1.188c-1.927-1.113-2.837-2.996-2.837-7.881     c0-0.578,0.111-1.045,0.667-1.365"/>
		<path style="&st8;" d="M243.042,227.64c-0.464,0-1.078-0.1-1.559-0.48c-0.481-0.381-1.576-1.293-1.576-1.293"/>
		<path style="&st8;" d="M243.5,227.903c0,0,4.244-1.139,4.825-1.293c0.581-0.156,0.943-0.609,0.943-1.188     c0-0.58-0.037-1.477-0.037-1.477"/>
		<path style="&st8;" d="M239.06,225.044l-8.875-6.449"/>
		<path style="&st8;" d="M297.55,207.765c-0.902,0.52-1.327,1.252-1.572,2.477c-0.244,1.223-0.733,4.924-0.856,6.271     c-0.122,1.346-0.142,1.693,0.626,2.229c0.22,0.154,1.012,0.615,1.37,0.801c0.396,0.205,0.539,0.389,0.609,0.613     c0.073,0.238,0.307,1.127,0.402,1.373c0.095,0.24,0.372,0.459,0.583,0.594c2.672,1.734,6.453,4.096,7.528,4.717     c1.49,0.859,3.321,0.771,4.498,0.455c1.349-0.361,5.264-1.391,6.84-1.813s1.959-0.795,1.959-1.836v-1.473     c0-1.039-0.238-1.797-1.614-2.713c-3.368-2.242-5.067-4.564-5.79-7.506c-0.388-1.574-0.605-1.996-1.408-2.799     c0,0,0-0.553,0-0.992c0-0.438-0.233-1.137-0.904-1.662s-2.333-1.721-2.333-1.721l-1.374,0.369v0.477c0,0,2.131,1.529,2.514,1.871     c0.289,0.258,0.377,0.287,0.814,0.316s0.729,0.232,0.729,0.816"/>
		<path style="&st8;" d="M306.598,205.019l-0.592-0.463"/>
		<path style="&st8;" d="M299.633,207.813c-0.055,0.125-0.086,0.248-0.086,0.363c0,0.703-0.703,1.336-1.687,1.313"/>
		<path style="&st8;" d="M304.6,212.538c-0.56,0.094-0.934-0.506-0.934-1.141v-0.813c0-0.992,0.162-1.314,0.613-1.576     c0.45-0.26,0.174-0.699-0.336-1.111"/>
		<path style="&st8;" d="M318.074,220.028c0.258,0.764-0.038,1.232-0.689,1.408c-0.714,0.191-4.527,1.213-5.866,1.57     c-1.339,0.359-3.152,0.416-4.308-0.25c-0.467-0.27-1.271-0.734-2.059-1.188c-1.926-1.113-2.836-2.996-2.836-7.881     c0-0.578,0.111-1.045,0.667-1.365"/>
		<path style="&st8;" d="M303.252,211.507c-0.464,0-1.078-0.1-1.559-0.48c-0.481-0.383-1.576-1.293-1.576-1.293"/>
		<path style="&st8;" d="M303.71,211.769c0,0,4.243-1.137,4.824-1.291c0.582-0.156,0.943-0.609,0.943-1.189     c0-0.578-0.036-1.475-0.036-1.475"/>
		<path style="&st8;" d="M237.339,223.897c-0.902,0.521-1.327,1.252-1.572,2.477s-0.734,4.926-0.856,6.271s-0.142,1.693,0.626,2.23     c0.219,0.152,1.011,0.615,1.37,0.799c0.396,0.205,0.539,0.389,0.609,0.613c0.073,0.238,0.307,1.127,0.403,1.373     c0.095,0.24,0.372,0.459,0.583,0.596c2.672,1.734,6.453,4.094,7.529,4.715c1.49,0.861,3.321,0.771,4.498,0.455     c1.348-0.359,5.264-1.389,6.84-1.813c1.576-0.422,1.958-0.795,1.958-1.836v-1.473c0-1.039-0.238-1.797-1.614-2.713     c-3.368-2.242-5.067-4.564-5.79-7.506c-0.387-1.572-0.605-1.996-1.408-2.799c0,0,0-0.553,0-0.99s-0.233-1.139-0.904-1.664     c-0.671-0.523-2.333-1.721-2.333-1.721l-1.374,0.369v0.477c0,0,2.131,1.529,2.513,1.871c0.29,0.26,0.377,0.287,0.814,0.316     c0.438,0.029,0.729,0.234,0.729,0.816"/>
		<path style="&st8;" d="M299.27,208.911l-37.368-27.156"/>
		<path style="&st8;" d="M357.817,191.616c-0.902,0.52-1.327,1.252-1.572,2.477c-0.244,1.223-0.733,4.404-0.856,5.752     c-0.122,1.346-0.142,1.561,0.626,2.229c0.769,0.67,5.126,3.707,5.126,3.707l1.102,0.121c0,0,2.873,1.66,4.607,2.662     c1.735,1.002,3.029,1.41,4.377,1.049s5.043-1.33,6.619-1.752s1.959-0.795,1.959-1.836s-0.238-1.797-1.614-2.713     c-3.368-2.244-5.067-4.566-5.79-7.506c-0.388-1.574-0.605-1.996-1.408-2.799c0,0,0-0.555,0-0.992s-0.233-1.137-0.904-1.662     s-2.333-1.721-2.333-1.721l-1.374,0.367v0.479c0,0,2.131,1.529,2.514,1.871c0.289,0.258,0.377,0.287,0.814,0.316     s0.729,0.232,0.729,0.816"/>
		<path style="&st8;" d="M366.865,188.87l-6.579-5.137"/>
		<path style="&st8;" d="M364.867,196.39c-0.561,0.094-0.934-0.506-0.934-1.141v-0.813c0-0.992,0.162-1.314,0.613-1.576     c0.45-0.26,0.174-0.699-0.336-1.111c-0.511-0.412-1.601-1.174-1.994-1.482c-0.294-0.23-0.481-0.252-0.856-0.088     c-0.374,0.162-1.546,1.146-1.546,1.85s-0.703,1.336-1.687,1.313"/>
		<path style="&st8;" d="M378.342,203.88c0.258,0.764-0.038,1.232-0.689,1.406c-0.714,0.191-4.527,1.215-5.866,1.572     c-1.339,0.359-3.152,0.416-4.308-0.25c-0.467-0.27-1.271-0.734-2.059-1.188c-1.926-1.113-2.836-2.996-2.836-7.881     c0-0.578,0.111-1.045,0.667-1.365"/>
		<path style="&st8;" d="M363.52,195.358c-0.464,0-1.078-0.1-1.559-0.48c-0.481-0.383-1.576-1.295-1.576-1.295"/>
		<path style="&st8;" d="M363.978,195.62c0,0,4.243-1.137,4.824-1.293c0.582-0.154,0.943-0.607,0.943-1.188     s-0.036-1.475-0.036-1.475"/>
		<path style="&st8;" d="M359.537,192.763l-8.875-6.451"/>
		<path style="&st8;" d="M136.599,214.642c0,0-3.343,0.766-4.261,1.012c-0.917,0.244-1.163,0.555-0.918,1.35     c0.244,0.795,0.674,2.26,0.857,2.934c0.184,0.672,0.457,0.809,1.554,0.672l1.131-0.303"/>
		<path style="&st8;" d="M146.397,226.907c0,0-11.131-6.426-11.852-6.842c-0.722-0.416-1.471-0.123-1.798-0.082"/>
		<path style="&st8;" d="M145.965,203.763c0.309-0.127,0.673-0.145,1.001,0.055c0.328,0.201,0.708,0.459,1.001,0.691     c0.437,0.346,0.414,1.086,0.237,1.713c-0.273,0.965-1.202,3.24-1.693,4.004c-0.353,0.549-0.728,0.639-1.202,0.656"/>
		<path style="&st8;" d="M140.191,202.39c-1.744-1.229-3.934-2.674-4.298-2.9c-0.544-0.338-0.788-0.412-1.144-0.188     c-0.356,0.225-0.918,0.619-1.181,0.807s-0.337,0.393-0.337,0.711c0,0.32,0.019,1.445,0.075,1.914     c0.057,0.469,0.188,0.898,0.75,1.313c0.584,0.428,4.575,3.037,5.025,3.336c0.169,0.113,0.294,0.191,0.403,0.252"/>
		<path style="&st8;" d="M133.604,200.7c0.03-0.139,0.239-0.16,0.489-0.012c0.986,0.592,4.675,3.15,5.45,3.891     c0.266,0.254,0.501,0.611,0.447,0.943s-0.193,1.207-0.248,1.432c-0.055,0.223-0.169,0.387-0.278,0.344"/>
		<path style="&st8;" d="M263.063,168.505c4.581,3.02,12.759,8.375,17.821,11.1c5.063,2.727,7.25,3.584,11.024,4.324"/>
	</g>
</g>
<g id="Code">
	<path style="&st6;" d="M303.204,301.888l0.072-34.435L285.87,144.739"/>
	<path style="&st6;" d="M408.77,301.888l0.072-34.435l-45.195-93.171"/>
	<path style="&st6;" d="M201.769,301.888l0.073-34.435l-34.115-42.607"/>
	<text transform="matrix(1 0 0 1 30.522 11.0283)"><tspan x="0" y="0" style="&st15; &st17;">Floor No. 2</tspan><tspan x="0" y="10" style="&st15; &st17;">Wire</tspan></text>
	<path style="&st6;" d="M56.022,23.778V44.42"/>
	<path style="&st6;" d="M56.022,23.778V44.42l115.36,157.803"/>
	<path style="&st12;" d="M56.022,23.778V44.42l115.36,157.803"/>
	<text transform="matrix(1 0 0 1 135.8555 11.0283)"><tspan x="0" y="0" style="&st15; &st17;">Floor No. 2</tspan><tspan x="0" y="10" style="&st15; &st17;">Wire</tspan></text>
	<path style="&st6;" d="M161.355,23.778V44.42"/>
	<path style="&st6;" d="M161.355,23.778V44.42l4.181,128.651"/>
	<path style="&st12;" d="M161.355,23.778V44.42l4.181,128.651"/>
	<text transform="matrix(1 0 0 1 198.355 11.0283)"><tspan x="0" y="0" style="&st15; &st17;">Front Seat</tspan><tspan x="0" y="10" style="&st15; &st17;">LH No. 2 Wire</tspan></text>
	<path style="&st6;" d="M228.355,23.778V44.42"/>
	<path style="&st6;" d="M228.355,23.778V44.42l1.962,111.296"/>
	<path style="&st12;" d="M228.355,23.778V44.42l1.962,111.296"/>
	<text transform="matrix(1 0 0 1 327.2363 11.0283)"><tspan x="0" y="0" style="&st15; &st17;">Floor Wire</tspan></text>
	<path style="&st6;" d="M350.293,13.778V44.42"/>
	<path style="&st6;" d="M350.293,13.778V44.42L298.98,169.639"/>
	<path style="&st12;" d="M350.293,13.778V44.42L298.98,169.639"/>
	<text transform="matrix(1 0 0 1 268.2363 11.0283)"><tspan x="0" y="0" style="&st15; &st17;">Floor Wire</tspan></text>
	<path style="&st6;" d="M291.293,13.778V44.42"/>
	<path style="&st6;" d="M291.293,13.778V44.42l-11.776,104.653"/>
	<path style="&st12;" d="M291.293,13.778V44.42l-11.776,104.653"/>
	<text transform="matrix(1 0 0 1 393.1875 11.0283)"><tspan x="0" y="0" style="&st15; &st17;">Front Seat</tspan><tspan x="0" y="10" style="&st15; &st17;">RH Wire</tspan></text>
	<path style="&st6;" d="M417.188,23.778V44.42"/>
	<path style="&st6;" d="M417.188,23.778V44.42l-89.511,104.129"/>
	<path style="&st12;" d="M417.188,23.778V44.42l-89.511,104.129"/>
	<path style="&st6;" d="M468.051,192.738h-29.106l-63.954-26.259"/>
	<path style="&st12;" d="M468.051,192.738h-29.106l-63.954-26.259"/>
	<text transform="matrix(1 0 0 1 469.0498 186.5186)"><tspan x="0" y="0" style="&st15; &st17;">Front Seat</tspan><tspan x="0" y="10" style="&st15; &st17;">RH No. 2</tspan><tspan x="0" y="20" style="&st15; &st17;">Wire</tspan></text>
	<text transform="matrix(1 0 0 1 2.2031 178.9082)"><tspan x="0" y="0" style="&st15; &st17;">Front Seat</tspan><tspan x="0" y="10" style="&st15; &st17;">LH Wire</tspan></text>
	<path style="&st6;" d="M50.87,181.131h28.926l52.98,19.792"/>
	<path style="&st12;" d="M50.87,181.131h28.926l52.98,19.792"/>
	<path style="&st6;" d="M269.187,301.888l0.072-34.435l-83.861-60.526"/>
	<path style="&st12;" d="M269.187,301.888l0.072-34.435l-83.861-60.526"/>
	<a ewd:code="Ob1" ewd:figtype="w2w" style="cursor:pointer;">
		<path style="&st19;" d="M281.233,308.976v-14.174H257.14v14.174H281.233z"/>
		<text transform="matrix(1 0 0 1 259.4624 305.3896)"><tspan x="0" y="0" style="&st10; &st17;">Ob1</tspan></text>
	</a>
	<path style="&st6;" d="M167.392,301.888l0.073-34.435l0.262-42.607"/>
	<path style="&st12;" d="M167.392,301.888l0.073-34.435l0.262-42.607"/>
	<a ewd:code="db2" ewd:figtype="w2w" style="cursor:pointer;">
		<path style="&st19;" d="M179.439,308.976v-14.174h-24.094v14.174H179.439z"/>
		<text transform="matrix(1 0 0 1 158.5029 305.3896)"><tspan x="0" y="0" style="&st10; &st17;">db2</tspan></text>
	</a>
	<path style="&st12;" d="M201.769,301.888l0.073-34.435l-34.115-42.607"/>
	<a ewd:code="db3" ewd:figtype="w2w" style="cursor:pointer;">
		<path style="&st19;" d="M213.816,308.976v-14.174h-24.094v14.174H213.816z"/>
		<text transform="matrix(1 0 0 1 192.8794 305.3896)"><tspan x="0" y="0" style="&st10; &st17;">db3</tspan></text>
	</a>
	<path style="&st6;" d="M235.172,301.888l0.072-34.435L169,219.657"/>
	<path style="&st12;" d="M235.172,301.888l0.072-34.435L169,219.657"/>
	<a ewd:code="db1" ewd:figtype="w2w" style="cursor:pointer;">
		<path style="&st19;" d="M247.218,308.976v-14.174h-24.093v14.174H247.218z"/>
		<text transform="matrix(1 0 0 1 226.2827 305.3896)"><tspan x="0" y="0" style="&st10; &st17;">db1</tspan></text>
	</a>
	<path style="&st6;" d="M339.417,301.888l0.072-34.435l-38.572-90.273"/>
	<path style="&st12;" d="M339.417,301.888l0.072-34.435l-38.572-90.273"/>
	<a ewd:code="Na1" ewd:figtype="w2w" style="cursor:pointer;">
		<path style="&st19;" d="M351.464,308.976v-14.174H327.37v14.174H351.464z"/>
		<text transform="matrix(1 0 0 1 330.2451 305.3896)"><tspan x="0" y="0" style="&st10; &st17;">Na1</tspan></text>
	</a>
	<path style="&st12;" d="M303.204,301.888l0.072-34.435L285.87,144.739"/>
	<a ewd:code="Na3" ewd:figtype="w2w" style="cursor:pointer;">
		<path style="&st19;" d="M315.251,308.976v-14.174h-24.094v14.174H315.251z"/>
		<text transform="matrix(1 0 0 1 294.0322 305.3896)"><tspan x="0" y="0" style="&st10; &st17;">Na3</tspan></text>
	</a>
	<path style="&st6;" d="M372.995,301.888l0.072-34.435l-9.421-93.171"/>
	<path style="&st12;" d="M372.995,301.888l0.072-34.435l-9.421-93.171"/>
	<a ewd:code="ca1" ewd:figtype="w2w" style="cursor:pointer;">
		<path style="&st19;" d="M385.042,308.976v-14.174h-24.094v14.174H385.042z"/>
		<text transform="matrix(1 0 0 1 364.6533 305.3896)"><tspan x="0" y="0" style="&st10; &st17;">ca1</tspan></text>
	</a>
	<path style="&st12;" d="M408.77,301.888l0.072-34.435l-45.195-93.171"/>
	<a ewd:code="ca2" ewd:figtype="w2w" style="cursor:pointer;">
		<path style="&st19;" d="M420.816,308.976v-14.174h-24.094v14.174H420.816z"/>
		<text transform="matrix(1 0 0 1 400.4268 305.3896)"><tspan x="0" y="0" style="&st10; &st17;">ca2</tspan></text>
	</a>
	<text transform="matrix(1 0 0 1 5.8882 271.3389)"><tspan x="0" y="0" style="&st15; &st17;">* 1:w/ Seat Position Memory</tspan></text>
	<text transform="matrix(1 0 0 1 5.8882 281.2588)"><tspan x="0" y="0" style="&st15; &st17;">* 2:w/o Seat Position Memory</tspan></text>
	<text transform="matrix(1 0 0 1 5.8882 301.1006)"><tspan x="0" y="0" style="&st15; &st17;">* 4:w/ Climate Control Seat</tspan></text>
	<text transform="matrix(1 0 0 1 5.8882 291.1797)"><tspan x="0" y="0" style="&st15; &st17;">* 3:w/o Climate Control Seat</tspan></text>
	<text transform="matrix(1 0 0 1 172.0918 291.2168)"><tspan x="0" y="0" style="&st15; &st17;">(*2)</tspan></text>
	<text transform="matrix(1 0 0 1 206.4683 291.2168)"><tspan x="0" y="0" style="&st15; &st17;">(*1)</tspan></text>
	<text transform="matrix(1 0 0 1 377.6943 291.2168)"><tspan x="0" y="0" style="&st15; &st17;">(*3)</tspan></text>
	<text transform="matrix(1 0 0 1 344.1162 291.2168)"><tspan x="0" y="0" style="&st15; &st17;">(*3)</tspan></text>
	<text transform="matrix(1 0 0 1 273.8857 291.2168)"><tspan x="0" y="0" style="&st15; &st17;">(*3)</tspan></text>
	<text transform="matrix(1 0 0 1 413.4688 291.2168)"><tspan x="0" y="0" style="&st15; &st17;">(*4)</tspan></text>
	<text transform="matrix(1 0 0 1 307.9033 291.2168)"><tspan x="0" y="0" style="&st15; &st17;">(*4)</tspan></text>
	<path style="&st6;" d="M107.588,9.92l-0.047,34.5l50.329,129.985"/>
	<path style="&st12;" d="M107.588,9.92l-0.047,34.5l50.329,129.985"/>
	<a ewd:code="Ob1" ewd:figtype="w2w" style="cursor:pointer;">
		<path style="&st19;" d="M119.635,17.007V2.834H95.542v14.173H119.635z"/>
		<text transform="matrix(1 0 0 1 97.8638 13.4224)"><tspan x="0" y="0" style="&st10; &st17;">Ob1</tspan></text>
	</a>
	<text transform="matrix(1 0 0 1 112.2871 26.1787)"><tspan x="0" y="0" style="&st15; &st17;">(*4)</tspan></text>
</g>
</svg>