﻿<?xml version="1.0"?>
<!-- Generator: Adobe Illustrator 10.0, SVG Export Plug-In . SVG Version: 3.0.0 Build 77)  -->
<!DOCTYPE svg PUBLIC "-//W3C//DTD SVG 1.0//EN" "http://www.w3.org/TR/2001/REC-SVG-20010904/DTD/svg10.dtd"[
	<!ENTITY ns_flows "http://ns.adobe.com/Flows/1.0/">
	<!ENTITY ns_svg "http://www.w3.org/2000/svg">
	<!ENTITY ns_xlink "http://www.w3.org/1999/xlink">
	<!ENTITY st0 "fill:none;stroke:#000000;stroke-linecap:round;stroke-linejoin:round;">
	<!ENTITY st1 "fill:none;stroke:#000000;stroke-width:0.6;stroke-linecap:round;stroke-linejoin:round;">
	<!ENTITY st2 "font-size:8px;">
	<!ENTITY st3 "fill:none;stroke:#000000;stroke-width:0.5;stroke-linecap:round;stroke-linejoin:round;">
	<!ENTITY st4 "font-family:'Arial';">
	<!ENTITY st5 "font-size:10px;">
	<!ENTITY st6 "fill:none;stroke:#FFFFFF;stroke-width:0.2;">
	<!ENTITY st7 "fill:none;stroke:#FFFFFF;stroke-width:2;stroke-linecap:round;stroke-linejoin:round;">
	<!ATTLIST svg
		xmlns:ewd CDATA #FIXED "http://shcl.co.jp/ewd"
		xmlns:a CDATA #FIXED "http://ns.adobe.com/AdobeSVGViewerExtensions/3.0/"
		ewd:ver CDATA #IMPLIED>
	<!ATTLIST a
		ewd:innerGroupID CDATA #IMPLIED
		ewd:figtype CDATA #IMPLIED
		ewd:code CDATA #IMPLIED
		ewd:pinNo CDATA #IMPLIED>
]>
<svg width="510.436" height="643.664" viewBox="0 0 510.436 643.664" style="overflow:visible;enable-background:new 0 0 510.436 643.664" xml:space="preserve" onload="call_execInitLoadProc_svg('location')" ewd:ver="L2.1.2.8" xmlns="&ns_svg;" xmlns:ewd="http://shcl.co.jp/ewd" xmlns:a="http://ns.adobe.com/AdobeSVGViewerExtensions/3.0/" xmlns:xlink="&ns_xlink;">
<script type="text/javascript" xlink:href="../../../../../system/js/ewd/fig/svgfig.js"/>
<g id="WAKU">
	<path style="&st6;" d="M510.336,643.564V0.1H0.1v643.464H510.336z"/>
</g>
<g id="レイヤ_xFF0D__1">
	<path style="&st0;" d="M333.98,321.465c0-3.129-2.536-5.666-5.666-5.666"/>
	<path style="&st0;" d="M328.314,363.675c3.13,0,5.666-2.536,5.666-5.665"/>
	<path style="&st0;" d="M277.607,315.8c-3.129,0-5.666,2.537-5.666,5.666"/>
	<path style="&st0;" d="M271.941,358.01c0,3.129,2.537,5.665,5.666,5.665"/>
	<path style="&st0;" d="M240.496,321.465c0-3.129-2.537-5.666-5.666-5.666"/>
	<path style="&st0;" d="M234.83,363.675c3.129,0,5.666-2.536,5.666-5.665"/>
	<path style="&st0;" d="M184.122,315.8c-3.129,0-5.666,2.537-5.666,5.666"/>
	<path style="&st0;" d="M178.456,358.01c0,3.129,2.537,5.665,5.666,5.665"/>
	<path style="&st0;" d="M256.855,233.646c-4.693,0-8.498,3.805-8.498,8.499"/>
	<path style="&st0;" d="M239.858,298.802c4.694,0,8.499-3.805,8.499-8.499"/>
	<path style="&st1;" d="M310.998,266.749c0-4.693-3.806-8.499-8.499-8.499"/>
	<path style="&st1;" d="M302.499,258.25c-4.693,0-8.499,3.805-8.499,8.499"/>
	<path style="&st1;" d="M294,266.749c0,4.694,3.806,8.499,8.499,8.499"/>
	<path style="&st1;" d="M302.499,275.247c4.693,0,8.499-3.805,8.499-8.499"/>
	<path style="&st1;" d="M316.663,266.749c0-7.823-6.342-14.164-14.164-14.164"/>
	<path style="&st1;" d="M302.499,252.584c-7.822,0-14.164,6.341-14.164,14.164"/>
	<path style="&st1;" d="M288.334,266.749c0,7.823,6.342,14.165,14.164,14.165"/>
	<path style="&st1;" d="M302.499,280.913c7.822,0,14.164-6.342,14.164-14.165"/>
	<path style="&st1;" d="M296.586,326.281h-12.747v29.745h12.747V326.281"/>
	<path style="&st1;" d="M296.586,336.196h-12.747"/>
	<path style="&st1;" d="M296.586,346.111h-12.747"/>
	<path style="&st1;" d="M322.083,331.947h-22.663v18.413h22.663V331.947"/>
	<path style="&st1;" d="M310.751,331.947v18.413"/>
	<path style="&st0;" d="M281.855,345.403h-4.248v-8.499h4.248v-12.606h16.715v5.666h10.057v-8.499h4.249v8.499h11.19v6.94h4.248    v8.499h-4.248v6.94H298.57v5.666h-16.715V345.403"/>
	<path style="&st1;" d="M324.066,345.403v-8.499"/>
	<path style="&st1;" d="M312.875,329.964h-4.249"/>
	<path style="&st1;" d="M281.855,336.904v8.499"/>
	<path style="&st0;" d="M328.314,315.8h-50.707"/>
	<path style="&st0;" d="M328.314,363.675h-50.707"/>
	<path style="&st0;" d="M333.98,321.465v36.544"/>
	<path style="&st0;" d="M271.941,321.465v36.544"/>
	<path style="&st1;" d="M203.102,326.281h-12.748v29.745h12.748V326.281"/>
	<path style="&st1;" d="M203.102,336.196h-12.748"/>
	<path style="&st1;" d="M203.102,346.111h-12.748"/>
	<path style="&st1;" d="M228.598,331.947h-22.663v18.413h22.663V331.947"/>
	<path style="&st1;" d="M217.267,331.947v18.413"/>
	<path style="&st0;" d="M188.371,345.403h-4.249v-8.499h4.249v-12.606h16.714v5.666h10.057v-8.499h4.249v8.499h11.19v6.94h4.249    v8.499h-4.249v6.94h-25.496v5.666h-16.714V345.403"/>
	<path style="&st1;" d="M230.581,345.403v-8.499"/>
	<path style="&st1;" d="M219.391,329.964h-4.249"/>
	<path style="&st1;" d="M188.371,336.904v8.499"/>
	<path style="&st0;" d="M234.83,315.8h-50.708"/>
	<path style="&st0;" d="M234.83,363.675h-50.708"/>
	<path style="&st0;" d="M240.496,321.465v36.544"/>
	<path style="&st0;" d="M178.456,321.465v36.544"/>
	<path style="&st1;" d="M342.479,307.301H169.958"/>
	<path style="&st0;" d="M342.479,372.173H169.958"/>
	<path style="&st0;" d="M239.858,298.802h-69.901"/>
	<path style="&st0;" d="M169.958,298.802v73.371"/>
	<path style="&st0;" d="M248.357,242.145v48.159"/>
	<path style="&st0;" d="M342.479,233.646v138.526"/>
	<path style="&st0;" d="M342.479,233.646h-85.624"/>
</g>
<g id="キャプション">
	<path style="&st7;" d="M209.476,363.675v42.493"/>
	<path style="&st7;" d="M302.96,363.675v42.493"/>
	<path style="&st3;" d="M209.476,363.675v42.493"/>
	<path style="&st3;" d="M302.96,363.675v42.493"/>
	<g>
		<text transform="matrix(1 0 0 1 314.3491 344.1592)"><tspan x="0" y="0" style="&st4; &st2;">3</tspan></text>
	</g>
	<g>
		<text transform="matrix(1 0 0 1 303.0171 344.1592)"><tspan x="0" y="0" style="&st4; &st2;">5</tspan></text>
	</g>
	<g>
		<text transform="matrix(1 0 0 1 288.145 334.2441)"><tspan x="0" y="0" style="&st4; &st2;">1</tspan></text>
	</g>
	<g>
		<text transform="matrix(1 0 0 1 288.145 354.0732)"><tspan x="0" y="0" style="&st4; &st2;">2</tspan></text>
	</g>
	<g>
		<text transform="matrix(1 0 0 1 220.8643 344.1592)"><tspan x="0" y="0" style="&st4; &st2;">3</tspan></text>
	</g>
	<g>
		<text transform="matrix(1 0 0 1 209.5327 344.1592)"><tspan x="0" y="0" style="&st4; &st2;">5</tspan></text>
	</g>
	<g>
		<text transform="matrix(1 0 0 1 194.6602 334.2441)"><tspan x="0" y="0" style="&st4; &st2;">1</tspan></text>
	</g>
	<g>
		<text transform="matrix(1 0 0 1 288.145 343.9072)"><tspan x="0" y="0" style="&st4; &st2;">4</tspan></text>
	</g>
	<g>
		<text transform="matrix(1 0 0 1 194.6602 343.9072)"><tspan x="0" y="0" style="&st4; &st2;">4</tspan></text>
	</g>
	<g>
		<text transform="matrix(1 0 0 1 194.6602 354.0732)"><tspan x="0" y="0" style="&st4; &st2;">2</tspan></text>
	</g>
	<g>
		<text transform="matrix(1 0 0 1 169.1831 417.918)"><tspan x="0" y="0" style="&st4; &st5;">EQ RLY LH Relay</tspan></text>
	</g>
	<g>
		<text transform="matrix(1 0 0 1 261.8374 417.918)"><tspan x="0" y="0" style="&st4; &st5;">EQ RLY RH Relay</tspan></text>
	</g>
</g>
</svg>